
 ******************************************************************
 *** This program generates an fcc (100) clean surface          ***
 ******************************************************************


 a_0=         6.61875055
 Inter layer distance :         3.30937527

 Slab of  4 ML
 Vacuum region corresponds to 10 ML
 Slabs are separated by  33.09 Bohr
 Slabs are separated by  17.51 Angstrom

 Primitive lattice vectors:
      4.680163396887      0.000000000000      0.000000000000
      0.000000000000      4.680163396887      0.000000000000
      0.000000000000      0.000000000000     46.331253850000

 Supercell lattice vectors:
     18.720653587549      0.000000000000      0.000000000000
      0.000000000000     18.720653587549      0.000000000000
      0.000000000000      0.000000000000     46.331253850000
 Number of atoms:   64
 Atoms: 
      0.000000000000      0.000000000000     -0.000000000000    1    1    1
      4.680163396887      0.000000000000     -0.000000000000    1    1    1
      9.360326793774      0.000000000000     -0.000000000000    1    1    1
     14.040490190662      0.000000000000     -0.000000000000    1    1    1
      0.000000000000      4.680163396887     -0.000000000000    1    1    1
      4.680163396887      4.680163396887     -0.000000000000    1    1    1
      9.360326793774      4.680163396887     -0.000000000000    1    1    1
     14.040490190662      4.680163396887     -0.000000000000    1    1    1
      0.000000000000      9.360326793774     -0.000000000000    1    1    1
      4.680163396887      9.360326793774     -0.000000000000    1    1    1
      9.360326793774      9.360326793774     -0.000000000000    1    1    1
     14.040490190662      9.360326793774     -0.000000000000    1    1    1
      0.000000000000     14.040490190662     -0.000000000000    1    1    1
      4.680163396887     14.040490190662     -0.000000000000    1    1    1
      9.360326793774     14.040490190662     -0.000000000000    1    1    1
     14.040490190662     14.040490190662     -0.000000000000    1    1    1
     -2.340081698444     -2.340081698444     -3.309375275000    1    1    1
      2.340081698444     -2.340081698444     -3.309375275000    1    1    1
      7.020245095331     -2.340081698444     -3.309375275000    1    1    1
     11.700408492218     -2.340081698444     -3.309375275000    1    1    1
     -2.340081698444      2.340081698444     -3.309375275000    1    1    1
      2.340081698444      2.340081698444     -3.309375275000    1    1    1
      7.020245095331      2.340081698444     -3.309375275000    1    1    1
     11.700408492218      2.340081698444     -3.309375275000    1    1    1
     -2.340081698444      7.020245095331     -3.309375275000    1    1    1
      2.340081698444      7.020245095331     -3.309375275000    1    1    1
      7.020245095331      7.020245095331     -3.309375275000    1    1    1
     11.700408492218      7.020245095331     -3.309375275000    1    1    1
     -2.340081698444     11.700408492218     -3.309375275000    1    1    1
      2.340081698444     11.700408492218     -3.309375275000    1    1    1
      7.020245095331     11.700408492218     -3.309375275000    1    1    1
     11.700408492218     11.700408492218     -3.309375275000    1    1    1
      0.000000000000      0.000000000000     -6.618750550000    1    1    1
      4.680163396887      0.000000000000     -6.618750550000    1    1    1
      9.360326793774      0.000000000000     -6.618750550000    1    1    1
     14.040490190662      0.000000000000     -6.618750550000    1    1    1
      0.000000000000      4.680163396887     -6.618750550000    1    1    1
      4.680163396887      4.680163396887     -6.618750550000    1    1    1
      9.360326793774      4.680163396887     -6.618750550000    1    1    1
     14.040490190662      4.680163396887     -6.618750550000    1    1    1
      0.000000000000      9.360326793774     -6.618750550000    1    1    1
      4.680163396887      9.360326793774     -6.618750550000    1    1    1
      9.360326793774      9.360326793774     -6.618750550000    1    1    1
     14.040490190662      9.360326793774     -6.618750550000    1    1    1
      0.000000000000     14.040490190662     -6.618750550000    1    1    1
      4.680163396887     14.040490190662     -6.618750550000    1    1    1
      9.360326793774     14.040490190662     -6.618750550000    1    1    1
     14.040490190662     14.040490190662     -6.618750550000    1    1    1
     -2.340081698444     -2.340081698444     -9.928125825000    1    1    1
      2.340081698444     -2.340081698444     -9.928125825000    1    1    1
      7.020245095331     -2.340081698444     -9.928125825000    1    1    1
     11.700408492218     -2.340081698444     -9.928125825000    1    1    1
     -2.340081698444      2.340081698444     -9.928125825000    1    1    1
      2.340081698444      2.340081698444     -9.928125825000    1    1    1
      7.020245095331      2.340081698444     -9.928125825000    1    1    1
     11.700408492218      2.340081698444     -9.928125825000    1    1    1
     -2.340081698444      7.020245095331     -9.928125825000    1    1    1
      2.340081698444      7.020245095331     -9.928125825000    1    1    1
      7.020245095331      7.020245095331     -9.928125825000    1    1    1
     11.700408492218      7.020245095331     -9.928125825000    1    1    1
     -2.340081698444     11.700408492218     -9.928125825000    1    1    1
      2.340081698444     11.700408492218     -9.928125825000    1    1    1
      7.020245095331     11.700408492218     -9.928125825000    1    1    1
     11.700408492218     11.700408492218     -9.928125825000    1    1    1

 Atoms (center of the slab is set to the origin):
      0.000000000000      0.000000000000      4.964062912500    1    1    1
      4.680163396887      0.000000000000      4.964062912500    1    1    1
      9.360326793774      0.000000000000      4.964062912500    1    1    1
     14.040490190662      0.000000000000      4.964062912500    1    1    1
      0.000000000000      4.680163396887      4.964062912500    1    1    1
      4.680163396887      4.680163396887      4.964062912500    1    1    1
      9.360326793774      4.680163396887      4.964062912500    1    1    1
     14.040490190662      4.680163396887      4.964062912500    1    1    1
      0.000000000000      9.360326793774      4.964062912500    1    1    1
      4.680163396887      9.360326793774      4.964062912500    1    1    1
      9.360326793774      9.360326793774      4.964062912500    1    1    1
     14.040490190662      9.360326793774      4.964062912500    1    1    1
      0.000000000000     14.040490190662      4.964062912500    1    1    1
      4.680163396887     14.040490190662      4.964062912500    1    1    1
      9.360326793774     14.040490190662      4.964062912500    1    1    1
     14.040490190662     14.040490190662      4.964062912500    1    1    1
     -2.340081698444     -2.340081698444      1.654687637500    1    1    1
      2.340081698444     -2.340081698444      1.654687637500    1    1    1
      7.020245095331     -2.340081698444      1.654687637500    1    1    1
     11.700408492218     -2.340081698444      1.654687637500    1    1    1
     -2.340081698444      2.340081698444      1.654687637500    1    1    1
      2.340081698444      2.340081698444      1.654687637500    1    1    1
      7.020245095331      2.340081698444      1.654687637500    1    1    1
     11.700408492218      2.340081698444      1.654687637500    1    1    1
     -2.340081698444      7.020245095331      1.654687637500    1    1    1
      2.340081698444      7.020245095331      1.654687637500    1    1    1
      7.020245095331      7.020245095331      1.654687637500    1    1    1
     11.700408492218      7.020245095331      1.654687637500    1    1    1
     -2.340081698444     11.700408492218      1.654687637500    1    1    1
      2.340081698444     11.700408492218      1.654687637500    1    1    1
      7.020245095331     11.700408492218      1.654687637500    1    1    1
     11.700408492218     11.700408492218      1.654687637500    1    1    1
      0.000000000000      0.000000000000     -1.654687637500    1    1    1
      4.680163396887      0.000000000000     -1.654687637500    1    1    1
      9.360326793774      0.000000000000     -1.654687637500    1    1    1
     14.040490190662      0.000000000000     -1.654687637500    1    1    1
      0.000000000000      4.680163396887     -1.654687637500    1    1    1
      4.680163396887      4.680163396887     -1.654687637500    1    1    1
      9.360326793774      4.680163396887     -1.654687637500    1    1    1
     14.040490190662      4.680163396887     -1.654687637500    1    1    1
      0.000000000000      9.360326793774     -1.654687637500    1    1    1
      4.680163396887      9.360326793774     -1.654687637500    1    1    1
      9.360326793774      9.360326793774     -1.654687637500    1    1    1
     14.040490190662      9.360326793774     -1.654687637500    1    1    1
      0.000000000000     14.040490190662     -1.654687637500    1    1    1
      4.680163396887     14.040490190662     -1.654687637500    1    1    1
      9.360326793774     14.040490190662     -1.654687637500    1    1    1
     14.040490190662     14.040490190662     -1.654687637500    1    1    1
     -2.340081698444     -2.340081698444     -4.964062912500    1    1    1
      2.340081698444     -2.340081698444     -4.964062912500    1    1    1
      7.020245095331     -2.340081698444     -4.964062912500    1    1    1
     11.700408492218     -2.340081698444     -4.964062912500    1    1    1
     -2.340081698444      2.340081698444     -4.964062912500    1    1    1
      2.340081698444      2.340081698444     -4.964062912500    1    1    1
      7.020245095331      2.340081698444     -4.964062912500    1    1    1
     11.700408492218      2.340081698444     -4.964062912500    1    1    1
     -2.340081698444      7.020245095331     -4.964062912500    1    1    1
      2.340081698444      7.020245095331     -4.964062912500    1    1    1
      7.020245095331      7.020245095331     -4.964062912500    1    1    1
     11.700408492218      7.020245095331     -4.964062912500    1    1    1
     -2.340081698444     11.700408492218     -4.964062912500    1    1    1
      2.340081698444     11.700408492218     -4.964062912500    1    1    1
      7.020245095331     11.700408492218     -4.964062912500    1    1    1
     11.700408492218     11.700408492218     -4.964062912500    1    1    1
