
 ******************************************************************
 *** This program generates Water/fcc(111) (sqrt(3) x sqrt(3))  ***
 *** surface                                                    ***
 ******************************************************************

 
 a_0=         7.46170000

 Slab of  3 ML
 Vacuum region corresponds to  8 ML
 Slabs are separated by  34.46 Bohr
 Slabs are separated by  18.24 Angstrom
 Size of the supercell along the z axis:  47.39 Bohr
 Size of the supercell along the z axis:  25.08 Angstrom

 Primitive lattice vectors:
        7.91432800        4.56933940         .00000000
         .00000000        9.13867881         .00000000
         .00000000         .00000000       47.38815954

 Supercell lattice vectors:
         .00000000         .00000000         .00000000
         .00000000         .00000000         .00000000
         .00000000         .00000000       47.38815954
 Number of atoms:    9
 Atoms: 
         .00000000         .00000000         .00000000
        2.63810933        4.56933940         .00000000
        5.27621867        9.13867881         .00000000
         .00000000        3.04622627       -4.30801450
        2.63810933        7.61556567       -4.30801450
        5.27621867       12.18490508       -4.30801450
         .00000000       -3.04622627       -8.61602901
        2.63810933        1.52311313       -8.61602901
        5.27621867        6.09245254       -8.61602901
 Water(1):
 Hydrogen:
        2.63810933        4.56933940        8.40928500
        3.55120282        6.15086371        6.03364722
 Oxygen:
        2.63810933        4.56933940        6.51955800
 Water(2):
 Hydrogen:
        7.15542045        9.33784905        5.94598361
        4.50910427       10.86570042        5.94598361
 Oxygen:
        5.27621867        9.13867881        5.70697500
