
 ******************************************************************
 *** This program generates an fcc (111) 1x1 clean surface      ***
 ******************************************************************


 a_0=         7.80559410
 a  =         5.51938852

 Slab of  3 ML
 Vacuum region corresponds to  6 ML
 Slabs are separated by  31.55 Bohr
 Slabs are separated by  16.69 Angstrom

 Inter-layer distance =         4.50656185
 Slab-slab distance   =        31.54593298


 Lattice vectors:
      5.519388519300      0.000000000000      0.000000000000
     -2.759694259650      4.779930671070      0.000000000000
      0.000000000000      0.000000000000     40.559056693380

 Supercell Lattice vectors:
     11.038777038599      0.000000000000      0.000000000000
     -5.519388519300      9.559861342139      0.000000000000
      0.000000000000      0.000000000000     40.559056693380

 Surface area:     105.529177875803
 Surface area:     105.529177875803

 Volume of unit cell:    4280.163908270437

 Number of atoms:   12
 Atoms: 
      0.000000000000      0.000000000000     -0.000000000000    1    1    1
      5.519388519300      0.000000000000     -0.000000000000    1    1    1
     -2.759694259650      4.779930671070     -0.000000000000    1    1    1
      2.759694259650      4.779930671070     -0.000000000000    1    1    1
      0.000000000000      3.186620447380     -4.506561854820    1    1    1
      5.519388519300      3.186620447380     -4.506561854820    1    1    1
     -2.759694259650      7.966551118450     -4.506561854820    1    1    1
      2.759694259650      7.966551118450     -4.506561854820    1    1    1
      0.000000000000     -3.186620447380     -9.013123709640    1    1    1
      5.519388519300     -3.186620447380     -9.013123709640    1    1    1
     -2.759694259650      1.593310223690     -9.013123709640    1    1    1
      2.759694259650      1.593310223690     -9.013123709640    1    1    1

 Atomic coordinates in reduced coordinate 
      0.000000000000      0.000000000000      0.000000000000    1    1    1
      0.500000000000      0.000000000000      0.000000000000    1    1    1
      0.000000000000      0.500000000000      0.000000000000    1    1    1
      0.500000000000      0.500000000000      0.000000000000    1    1    1
      0.166666666667      0.333333333333     -0.111111111111    1    1    1
      0.666666666667      0.333333333333     -0.111111111111    1    1    1
      0.166666666667      0.833333333333     -0.111111111111    1    1    1
      0.666666666667      0.833333333333     -0.111111111111    1    1    1
     -0.166666666667     -0.333333333333     -0.222222222222    1    1    1
      0.333333333333     -0.333333333333     -0.222222222222    1    1    1
     -0.166666666667      0.166666666667     -0.222222222222    1    1    1
      0.333333333333      0.166666666667     -0.222222222222    1    1    1

 Atoms (center of the slab is set to the origin):
      0.000000000000      0.000000000000      4.506561854820    1    1    1
      5.519388519300      0.000000000000      4.506561854820    1    1    1
     -2.759694259650      4.779930671070      4.506561854820    1    1    1
      2.759694259650      4.779930671070      4.506561854820    1    1    1
      0.000000000000      3.186620447380      0.000000000000    1    1    1
      5.519388519300      3.186620447380      0.000000000000    1    1    1
     -2.759694259650      7.966551118450      0.000000000000    1    1    1
      2.759694259650      7.966551118450      0.000000000000    1    1    1
      0.000000000000     -3.186620447380     -4.506561854820    1    1    1
      5.519388519300     -3.186620447380     -4.506561854820    1    1    1
     -2.759694259650      1.593310223690     -4.506561854820    1    1    1
      2.759694259650      1.593310223690     -4.506561854820    1    1    1
