 15
H up water bylayer on Pt9  
H         1.39602681        2.41798936        2.13999977
H         1.88454964        3.26413572        3.35303025
O         1.39602681        2.41798936        3.13999985
H         3.78572397        4.94831485        2.80583212
H         2.39250438        5.75269055        2.80583212
O         2.79205362        4.83597873        2.68000003
Pt         .00000000         .00000000         .00000000
Pt        1.39602681        2.41798936         .00000000
Pt        2.79205362        4.83597873         .00000000
Pt         .00000000        1.61199291       -2.27970223
Pt        1.39602681        4.02998227       -2.27970223
Pt        2.79205362        6.44797164       -2.27970223
Pt         .00000000       -1.61199291       -4.55940447
Pt        1.39602681         .80599645       -4.55940447
Pt        2.79205362        3.22398582       -4.55940447
