
 ******************************************************************
 *** This program generates an armchair graphene nanoribbon     ***
 ******************************************************************

 Lattice constant of graphene (a_0):         4.60168492
 Vacuum thickness (c_0):        18.89726125
 Inter layer distance:        18.89726125
 Slabs are separated by  18.90 Bohr
 Slabs are separated by  10.00 Angstrom

 Primitive lattice vectors:
      7.970352083538      0.000000000000      0.000000000000
      0.000000000000     32.702316009159      0.000000000000
      0.000000000000      0.000000000000     18.897261246258

 Supercell lattice vectors:
      7.970352083538      0.000000000000      0.000000000000
      0.000000000000     32.702316009159      0.000000000000
      0.000000000000      0.000000000000     18.897261246258
 Number of units (in y-direction):    7
 Supercell dimension (in the x-direction):    7
 Number of atoms:   18
 Atoms: 
      0.000000000000      0.000000000000      0.000000000000    1    1    1
      2.656784027846      0.000000000000      0.000000000000    1    1    1
      3.985176041769     -2.300842460484      0.000000000000    1    1    1
      6.641960069615     -2.300842460484      0.000000000000    1    1    1
      0.000000000000     -4.601684920967      0.000000000000    1    1    1
      2.656784027846     -4.601684920967      0.000000000000    1    1    1
      3.985176041769     -6.902527381451      0.000000000000    1    1    1
      6.641960069615     -6.902527381451      0.000000000000    1    1    1
      0.000000000000     -9.203369841934      0.000000000000    1    1    1
      2.656784027846     -9.203369841934      0.000000000000    1    1    1
      3.985176041769    -11.504212302417      0.000000000000    1    1    1
      6.641960069615    -11.504212302417      0.000000000000    1    1    1
      0.000000000000    -13.805054762901      0.000000000000    1    1    1
      2.656784027846    -13.805054762901      0.000000000000    1    1    1
     -1.025649057875      1.776476278975      0.000000000000    1    1    2
      3.682433085721      1.776476278975      0.000000000000    1    1    2
     -1.025649057875    -15.581531041876      0.000000000000    1    1    2
      3.682433085721    -15.581531041876      0.000000000000    1    1    2

 Atoms (center of the slab is set to the origin):
      0.000000000000      6.902527381451      0.000000000000    1    1    1
      2.656784027846      6.902527381451      0.000000000000    1    1    1
      3.985176041769      4.601684920967      0.000000000000    1    1    1
      6.641960069615      4.601684920967      0.000000000000    1    1    1
      0.000000000000      2.300842460484      0.000000000000    1    1    1
      2.656784027846      2.300842460484      0.000000000000    1    1    1
      3.985176041769      0.000000000000      0.000000000000    1    1    1
      6.641960069615      0.000000000000      0.000000000000    1    1    1
      0.000000000000     -2.300842460483      0.000000000000    1    1    1
      2.656784027846     -2.300842460483      0.000000000000    1    1    1
      3.985176041769     -4.601684920967      0.000000000000    1    1    1
      6.641960069615     -4.601684920967      0.000000000000    1    1    1
      0.000000000000     -6.902527381451      0.000000000000    1    1    1
      2.656784027846     -6.902527381451      0.000000000000    1    1    1
     -1.025649057875      8.679003660425      0.000000000000    1    1    2
      3.682433085721      8.679003660425      0.000000000000    1    1    2
     -1.025649057875     -8.679003660425      0.000000000000    1    1    2
      3.682433085721     -8.679003660425      0.000000000000    1    1    2
