
 ******************************************************************
 *** This program generates an hcp (0001) 1x1 clean surface     ***
 ******************************************************************


 a_0=         5.11426046
 c_0=         8.08414697

 Slab of  5 ML
 Vacuum region corresponds to  8 ML
 Slabs are separated by  36.38 Bohr
 Slabs are separated by  19.25 Angstrom

 Inter-layer distance =         4.04207349
 Slab-slab distance   =        36.37866138


 Lattice vectors:
      5.114260463941      0.000000000000      0.000000000000
      2.557130231971      4.429079483344      0.000000000000
      0.000000000000      0.000000000000     52.546955320008

 Supercell Lattice vectors:
     20.457041855766      0.000000000000      0.000000000000
     10.228520927883     17.716317933375      0.000000000000
      0.000000000000      0.000000000000     52.546955320008

 Surface area:     362.423457493106
 Surface area:     362.423457493106

 Volume of unit cell:   19044.249227812947

 Number of atoms:   80
 Atoms: 
      0.000000000000      0.000000000000     -0.000000000000
      5.114260463941      0.000000000000     -0.000000000000
     10.228520927883      0.000000000000     -0.000000000000
     15.342781391824      0.000000000000     -0.000000000000
      2.557130231971      4.429079483344     -0.000000000000
      7.671390695912      4.429079483344     -0.000000000000
     12.785651159854      4.429079483344     -0.000000000000
     17.899911623795      4.429079483344     -0.000000000000
      5.114260463941      8.858158966687     -0.000000000000
     10.228520927883      8.858158966687     -0.000000000000
     15.342781391824      8.858158966687     -0.000000000000
     20.457041855766      8.858158966687     -0.000000000000
      7.671390695912     13.287238450031     -0.000000000000
     12.785651159854     13.287238450031     -0.000000000000
     17.899911623795     13.287238450031     -0.000000000000
     23.014172087737     13.287238450031     -0.000000000000
      0.000000000000      2.952719655562     -4.042073486154
      5.114260463941      2.952719655562     -4.042073486154
     10.228520927883      2.952719655562     -4.042073486154
     15.342781391824      2.952719655562     -4.042073486154
      2.557130231971      7.381799138906     -4.042073486154
      7.671390695912      7.381799138906     -4.042073486154
     12.785651159854      7.381799138906     -4.042073486154
     17.899911623795      7.381799138906     -4.042073486154
      5.114260463941     11.810878622250     -4.042073486154
     10.228520927883     11.810878622250     -4.042073486154
     15.342781391824     11.810878622250     -4.042073486154
     20.457041855766     11.810878622250     -4.042073486154
      7.671390695912     16.239958105594     -4.042073486154
     12.785651159854     16.239958105594     -4.042073486154
     17.899911623795     16.239958105594     -4.042073486154
     23.014172087737     16.239958105594     -4.042073486154
      0.000000000000      0.000000000000     -8.084146972309
      5.114260463941      0.000000000000     -8.084146972309
     10.228520927883      0.000000000000     -8.084146972309
     15.342781391824      0.000000000000     -8.084146972309
      2.557130231971      4.429079483344     -8.084146972309
      7.671390695912      4.429079483344     -8.084146972309
     12.785651159854      4.429079483344     -8.084146972309
     17.899911623795      4.429079483344     -8.084146972309
      5.114260463941      8.858158966687     -8.084146972309
     10.228520927883      8.858158966687     -8.084146972309
     15.342781391824      8.858158966687     -8.084146972309
     20.457041855766      8.858158966687     -8.084146972309
      7.671390695912     13.287238450031     -8.084146972309
     12.785651159854     13.287238450031     -8.084146972309
     17.899911623795     13.287238450031     -8.084146972309
     23.014172087737     13.287238450031     -8.084146972309
      0.000000000000      2.952719655562    -12.126220458463
      5.114260463941      2.952719655562    -12.126220458463
     10.228520927883      2.952719655562    -12.126220458463
     15.342781391824      2.952719655562    -12.126220458463
      2.557130231971      7.381799138906    -12.126220458463
      7.671390695912      7.381799138906    -12.126220458463
     12.785651159854      7.381799138906    -12.126220458463
     17.899911623795      7.381799138906    -12.126220458463
      5.114260463941     11.810878622250    -12.126220458463
     10.228520927883     11.810878622250    -12.126220458463
     15.342781391824     11.810878622250    -12.126220458463
     20.457041855766     11.810878622250    -12.126220458463
      7.671390695912     16.239958105594    -12.126220458463
     12.785651159854     16.239958105594    -12.126220458463
     17.899911623795     16.239958105594    -12.126220458463
     23.014172087737     16.239958105594    -12.126220458463
      0.000000000000      0.000000000000    -16.168293944618
      5.114260463941      0.000000000000    -16.168293944618
     10.228520927883      0.000000000000    -16.168293944618
     15.342781391824      0.000000000000    -16.168293944618
      2.557130231971      4.429079483344    -16.168293944618
      7.671390695912      4.429079483344    -16.168293944618
     12.785651159854      4.429079483344    -16.168293944618
     17.899911623795      4.429079483344    -16.168293944618
      5.114260463941      8.858158966687    -16.168293944618
     10.228520927883      8.858158966687    -16.168293944618
     15.342781391824      8.858158966687    -16.168293944618
     20.457041855766      8.858158966687    -16.168293944618
      7.671390695912     13.287238450031    -16.168293944618
     12.785651159854     13.287238450031    -16.168293944618
     17.899911623795     13.287238450031    -16.168293944618
     23.014172087737     13.287238450031    -16.168293944618

 Atomic coordinates in reduced coordinate 
          0.000000000000          0.000000000000          0.000000000000
          1.000000000000          0.000000000000          0.000000000000
          2.000000000000          0.000000000000          0.000000000000
          3.000000000000          0.000000000000          0.000000000000
          0.000000000000          1.000000000000          0.000000000000
          1.000000000000          1.000000000000          0.000000000000
          2.000000000000          1.000000000000          0.000000000000
          3.000000000000          1.000000000000          0.000000000000
          0.000000000000          2.000000000000          0.000000000000
          1.000000000000          2.000000000000          0.000000000000
          2.000000000000          2.000000000000          0.000000000000
          3.000000000000          2.000000000000          0.000000000000
          0.000000000000          3.000000000000          0.000000000000
          1.000000000000          3.000000000000          0.000000000000
          2.000000000000          3.000000000000          0.000000000000
          3.000000000000          3.000000000000          0.000000000000
         -0.333333333333          0.666666666667         -0.076923076923
          0.666666666667          0.666666666667         -0.076923076923
          1.666666666667          0.666666666667         -0.076923076923
          2.666666666667          0.666666666667         -0.076923076923
         -0.333333333333          1.666666666667         -0.076923076923
          0.666666666667          1.666666666667         -0.076923076923
          1.666666666667          1.666666666667         -0.076923076923
          2.666666666667          1.666666666667         -0.076923076923
         -0.333333333333          2.666666666667         -0.076923076923
          0.666666666667          2.666666666667         -0.076923076923
          1.666666666667          2.666666666667         -0.076923076923
          2.666666666667          2.666666666667         -0.076923076923
         -0.333333333333          3.666666666667         -0.076923076923
          0.666666666667          3.666666666667         -0.076923076923
          1.666666666667          3.666666666667         -0.076923076923
          2.666666666667          3.666666666667         -0.076923076923
          0.000000000000          0.000000000000         -0.153846153846
          1.000000000000          0.000000000000         -0.153846153846
          2.000000000000          0.000000000000         -0.153846153846
          3.000000000000          0.000000000000         -0.153846153846
          0.000000000000          1.000000000000         -0.153846153846
          1.000000000000          1.000000000000         -0.153846153846
          2.000000000000          1.000000000000         -0.153846153846
          3.000000000000          1.000000000000         -0.153846153846
          0.000000000000          2.000000000000         -0.153846153846
          1.000000000000          2.000000000000         -0.153846153846
          2.000000000000          2.000000000000         -0.153846153846
          3.000000000000          2.000000000000         -0.153846153846
          0.000000000000          3.000000000000         -0.153846153846
          1.000000000000          3.000000000000         -0.153846153846
          2.000000000000          3.000000000000         -0.153846153846
          3.000000000000          3.000000000000         -0.153846153846
         -0.333333333333          0.666666666667         -0.230769230769
          0.666666666667          0.666666666667         -0.230769230769
          1.666666666667          0.666666666667         -0.230769230769
          2.666666666667          0.666666666667         -0.230769230769
         -0.333333333333          1.666666666667         -0.230769230769
          0.666666666667          1.666666666667         -0.230769230769
          1.666666666667          1.666666666667         -0.230769230769
          2.666666666667          1.666666666667         -0.230769230769
         -0.333333333333          2.666666666667         -0.230769230769
          0.666666666667          2.666666666667         -0.230769230769
          1.666666666667          2.666666666667         -0.230769230769
          2.666666666667          2.666666666667         -0.230769230769
         -0.333333333333          3.666666666667         -0.230769230769
          0.666666666667          3.666666666667         -0.230769230769
          1.666666666667          3.666666666667         -0.230769230769
          2.666666666667          3.666666666667         -0.230769230769
          0.000000000000          0.000000000000         -0.307692307692
          1.000000000000          0.000000000000         -0.307692307692
          2.000000000000          0.000000000000         -0.307692307692
          3.000000000000          0.000000000000         -0.307692307692
          0.000000000000          1.000000000000         -0.307692307692
          1.000000000000          1.000000000000         -0.307692307692
          2.000000000000          1.000000000000         -0.307692307692
          3.000000000000          1.000000000000         -0.307692307692
          0.000000000000          2.000000000000         -0.307692307692
          1.000000000000          2.000000000000         -0.307692307692
          2.000000000000          2.000000000000         -0.307692307692
          3.000000000000          2.000000000000         -0.307692307692
          0.000000000000          3.000000000000         -0.307692307692
          1.000000000000          3.000000000000         -0.307692307692
          2.000000000000          3.000000000000         -0.307692307692
          3.000000000000          3.000000000000         -0.307692307692

 Atoms (center of the slab is set to the origin):
          0.000000000000          0.000000000000          8.084146972309
          5.114260463941          0.000000000000          8.084146972309
         10.228520927883          0.000000000000          8.084146972309
         15.342781391824          0.000000000000          8.084146972309
          2.557130231971          4.429079483344          8.084146972309
          7.671390695912          4.429079483344          8.084146972309
         12.785651159854          4.429079483344          8.084146972309
         17.899911623795          4.429079483344          8.084146972309
          5.114260463941          8.858158966687          8.084146972309
         10.228520927883          8.858158966687          8.084146972309
         15.342781391824          8.858158966687          8.084146972309
         20.457041855766          8.858158966687          8.084146972309
          7.671390695912         13.287238450031          8.084146972309
         12.785651159854         13.287238450031          8.084146972309
         17.899911623795         13.287238450031          8.084146972309
         23.014172087737         13.287238450031          8.084146972309
          0.000000000000          2.952719655562          4.042073486154
          5.114260463941          2.952719655562          4.042073486154
         10.228520927883          2.952719655562          4.042073486154
         15.342781391824          2.952719655562          4.042073486154
          2.557130231971          7.381799138906          4.042073486154
          7.671390695912          7.381799138906          4.042073486154
         12.785651159854          7.381799138906          4.042073486154
         17.899911623795          7.381799138906          4.042073486154
          5.114260463941         11.810878622250          4.042073486154
         10.228520927883         11.810878622250          4.042073486154
         15.342781391824         11.810878622250          4.042073486154
         20.457041855766         11.810878622250          4.042073486154
          7.671390695912         16.239958105594          4.042073486154
         12.785651159854         16.239958105594          4.042073486154
         17.899911623795         16.239958105594          4.042073486154
         23.014172087737         16.239958105594          4.042073486154
          0.000000000000          0.000000000000          0.000000000000
          5.114260463941          0.000000000000          0.000000000000
         10.228520927883          0.000000000000          0.000000000000
         15.342781391824          0.000000000000          0.000000000000
          2.557130231971          4.429079483344          0.000000000000
          7.671390695912          4.429079483344          0.000000000000
         12.785651159854          4.429079483344          0.000000000000
         17.899911623795          4.429079483344          0.000000000000
          5.114260463941          8.858158966687          0.000000000000
         10.228520927883          8.858158966687          0.000000000000
         15.342781391824          8.858158966687          0.000000000000
         20.457041855766          8.858158966687          0.000000000000
          7.671390695912         13.287238450031          0.000000000000
         12.785651159854         13.287238450031          0.000000000000
         17.899911623795         13.287238450031          0.000000000000
         23.014172087737         13.287238450031          0.000000000000
          0.000000000000          2.952719655562         -4.042073486154
          5.114260463941          2.952719655562         -4.042073486154
         10.228520927883          2.952719655562         -4.042073486154
         15.342781391824          2.952719655562         -4.042073486154
          2.557130231971          7.381799138906         -4.042073486154
          7.671390695912          7.381799138906         -4.042073486154
         12.785651159854          7.381799138906         -4.042073486154
         17.899911623795          7.381799138906         -4.042073486154
          5.114260463941         11.810878622250         -4.042073486154
         10.228520927883         11.810878622250         -4.042073486154
         15.342781391824         11.810878622250         -4.042073486154
         20.457041855766         11.810878622250         -4.042073486154
          7.671390695912         16.239958105594         -4.042073486154
         12.785651159854         16.239958105594         -4.042073486154
         17.899911623795         16.239958105594         -4.042073486154
         23.014172087737         16.239958105594         -4.042073486154
          0.000000000000          0.000000000000         -8.084146972309
          5.114260463941          0.000000000000         -8.084146972309
         10.228520927883          0.000000000000         -8.084146972309
         15.342781391824          0.000000000000         -8.084146972309
          2.557130231971          4.429079483344         -8.084146972309
          7.671390695912          4.429079483344         -8.084146972309
         12.785651159854          4.429079483344         -8.084146972309
         17.899911623795          4.429079483344         -8.084146972309
          5.114260463941          8.858158966687         -8.084146972309
         10.228520927883          8.858158966687         -8.084146972309
         15.342781391824          8.858158966687         -8.084146972309
         20.457041855766          8.858158966687         -8.084146972309
          7.671390695912         13.287238450031         -8.084146972309
         12.785651159854         13.287238450031         -8.084146972309
         17.899911623795         13.287238450031         -8.084146972309
         23.014172087737         13.287238450031         -8.084146972309
