
 ******************************************************************
 *** This program generates a graphite(0001) (r7xr7) surface    ***
 ******************************************************************



 a_0=         4.65461515
 a  =         4.65461515

 Slab of  3 ML
 Vacuum region corresponds to 18 ML
 Slabs are separated by 119.29 Bohr
 Slabs are separated by  63.12 Angstrom

 Inter-layer distance =         6.27831807
 Slab-slab distance   =       119.28804342

 Lattice vectors:
     11.636537875000      4.031014964740      0.000000000000
     -9.309230300000      8.062029929480      0.000000000000
      0.000000000000      0.000000000000    131.844679575000

 Supercell Lattice vectors:
     11.636537875000      4.031014964740      0.000000000000
     -9.309230300000      8.062029929480      0.000000000000
      0.000000000000      0.000000000000    131.844679575000

 Surface area:     131.339763273286
 Surface area:     131.339763273286

 Volume of unit cell:   17316.449004222726

 Number of atoms:   42
 Atoms: 
      0.000000000000      0.000000000000     -0.000000000000    1    1    1
     -2.327307575000      4.031014964740     -0.000000000000    1    1    1
      2.327307575000      4.031014964740     -0.000000000000    1    1    1
      6.981922725000      4.031014964740     -0.000000000000    1    1    1
     -4.654615150000      8.062029929480     -0.000000000000    1    1    1
      0.000000000000      8.062029929480     -0.000000000000    1    1    1
      4.654615150000      8.062029929480     -0.000000000000    1    1    1
      0.000000000000      2.687343309827     -0.000000000000    1    1    1
     -2.327307575000      6.718358274567     -0.000000000000    1    1    1
      2.327307575000      6.718358274567     -0.000000000000    1    1    1
      6.981922725000      6.718358274567     -0.000000000000    1    1    1
     -4.654615150000     10.749373239306     -0.000000000000    1    1    1
      0.000000000000     10.749373239306     -0.000000000000    1    1    1
      4.654615150000     10.749373239306     -0.000000000000    1    1    1
      2.327307575000      1.343671654913     -6.278318075000    1    1    1
      0.000000000000      5.374686619653     -6.278318075000    1    1    1
      4.654615150000      5.374686619653     -6.278318075000    1    1    1
      9.309230300000      5.374686619653     -6.278318075000    1    1    1
     -2.327307575000      9.405701584393     -6.278318075000    1    1    1
      2.327307575000      9.405701584393     -6.278318075000    1    1    1
      6.981922725000      9.405701584393     -6.278318075000    1    1    1
      2.327307575000      4.031014964740     -6.278318075000    1    1    1
      0.000000000000      8.062029929480     -6.278318075000    1    1    1
      4.654615150000      8.062029929480     -6.278318075000    1    1    1
      9.309230300000      8.062029929480     -6.278318075000    1    1    1
     -2.327307575000     12.093044894220     -6.278318075000    1    1    1
      2.327307575000     12.093044894220     -6.278318075000    1    1    1
      6.981922725000     12.093044894220     -6.278318075000    1    1    1
      0.000000000000      0.000000000000    -12.556636150000    1    1    1
     -2.327307575000      4.031014964740    -12.556636150000    1    1    1
      2.327307575000      4.031014964740    -12.556636150000    1    1    1
      6.981922725000      4.031014964740    -12.556636150000    1    1    1
     -4.654615150000      8.062029929480    -12.556636150000    1    1    1
      0.000000000000      8.062029929480    -12.556636150000    1    1    1
      4.654615150000      8.062029929480    -12.556636150000    1    1    1
      0.000000000000      2.687343309827    -12.556636150000    1    1    1
     -2.327307575000      6.718358274567    -12.556636150000    1    1    1
      2.327307575000      6.718358274567    -12.556636150000    1    1    1
      6.981922725000      6.718358274567    -12.556636150000    1    1    1
     -4.654615150000     10.749373239306    -12.556636150000    1    1    1
      0.000000000000     10.749373239306    -12.556636150000    1    1    1
      4.654615150000     10.749373239306    -12.556636150000    1    1    1

 Atomic coordinates in reduced coordinate 
      0.000000000000      0.000000000000      0.000000000000    1    1    1
      0.142857142857      0.428571428571      0.000000000000    1    1    1
      0.428571428571      0.285714285714      0.000000000000    1    1    1
      0.714285714286      0.142857142857      0.000000000000    1    1    1
      0.285714285714      0.857142857143      0.000000000000    1    1    1
      0.571428571429      0.714285714286      0.000000000000    1    1    1
      0.857142857143      0.571428571429      0.000000000000    1    1    1
      0.190476190476      0.238095238095      0.000000000000    1    1    1
      0.333333333333      0.666666666667      0.000000000000    1    1    1
      0.619047619048      0.523809523810      0.000000000000    1    1    1
      0.904761904762      0.380952380952      0.000000000000    1    1    1
      0.476190476190      1.095238095238      0.000000000000    1    1    1
      0.761904761905      0.952380952381      0.000000000000    1    1    1
      1.047619047619      0.809523809524      0.000000000000    1    1    1
      0.238095238095      0.047619047619     -0.047619047619    1    1    1
      0.380952380952      0.476190476190     -0.047619047619    1    1    1
      0.666666666667      0.333333333333     -0.047619047619    1    1    1
      0.952380952381      0.190476190476     -0.047619047619    1    1    1
      0.523809523810      0.904761904762     -0.047619047619    1    1    1
      0.809523809524      0.761904761905     -0.047619047619    1    1    1
      1.095238095238      0.619047619048     -0.047619047619    1    1    1
      0.428571428571      0.285714285714     -0.047619047619    1    1    1
      0.571428571429      0.714285714286     -0.047619047619    1    1    1
      0.857142857143      0.571428571429     -0.047619047619    1    1    1
      1.142857142857      0.428571428571     -0.047619047619    1    1    1
      0.714285714286      1.142857142857     -0.047619047619    1    1    1
      1.000000000000      1.000000000000     -0.047619047619    1    1    1
      1.285714285714      0.857142857143     -0.047619047619    1    1    1
      0.000000000000      0.000000000000     -0.095238095238    1    1    1
      0.142857142857      0.428571428571     -0.095238095238    1    1    1
      0.428571428571      0.285714285714     -0.095238095238    1    1    1
      0.714285714286      0.142857142857     -0.095238095238    1    1    1
      0.285714285714      0.857142857143     -0.095238095238    1    1    1
      0.571428571429      0.714285714286     -0.095238095238    1    1    1
      0.857142857143      0.571428571429     -0.095238095238    1    1    1
      0.190476190476      0.238095238095     -0.095238095238    1    1    1
      0.333333333333      0.666666666667     -0.095238095238    1    1    1
      0.619047619048      0.523809523810     -0.095238095238    1    1    1
      0.904761904762      0.380952380952     -0.095238095238    1    1    1
      0.476190476190      1.095238095238     -0.095238095238    1    1    1
      0.761904761905      0.952380952381     -0.095238095238    1    1    1
      1.047619047619      0.809523809524     -0.095238095238    1    1    1

 Atoms (center of the slab is set to the origin):
      0.000000000000      0.000000000000      6.278318075000    1    1    1
     -2.327307575000      4.031014964740      6.278318075000    1    1    1
      2.327307575000      4.031014964740      6.278318075000    1    1    1
      6.981922725000      4.031014964740      6.278318075000    1    1    1
     -4.654615150000      8.062029929480      6.278318075000    1    1    1
      0.000000000000      8.062029929480      6.278318075000    1    1    1
      4.654615150000      8.062029929480      6.278318075000    1    1    1
      0.000000000000      2.687343309827      6.278318075000    1    1    1
     -2.327307575000      6.718358274567      6.278318075000    1    1    1
      2.327307575000      6.718358274567      6.278318075000    1    1    1
      6.981922725000      6.718358274567      6.278318075000    1    1    1
     -4.654615150000     10.749373239306      6.278318075000    1    1    1
      0.000000000000     10.749373239306      6.278318075000    1    1    1
      4.654615150000     10.749373239306      6.278318075000    1    1    1
      2.327307575000      1.343671654913      0.000000000000    1    1    1
      0.000000000000      5.374686619653      0.000000000000    1    1    1
      4.654615150000      5.374686619653      0.000000000000    1    1    1
      9.309230300000      5.374686619653      0.000000000000    1    1    1
     -2.327307575000      9.405701584393      0.000000000000    1    1    1
      2.327307575000      9.405701584393      0.000000000000    1    1    1
      6.981922725000      9.405701584393      0.000000000000    1    1    1
      2.327307575000      4.031014964740      0.000000000000    1    1    1
      0.000000000000      8.062029929480      0.000000000000    1    1    1
      4.654615150000      8.062029929480      0.000000000000    1    1    1
      9.309230300000      8.062029929480      0.000000000000    1    1    1
     -2.327307575000     12.093044894220      0.000000000000    1    1    1
      2.327307575000     12.093044894220      0.000000000000    1    1    1
      6.981922725000     12.093044894220      0.000000000000    1    1    1
      0.000000000000      0.000000000000     -6.278318075000    1    1    1
     -2.327307575000      4.031014964740     -6.278318075000    1    1    1
      2.327307575000      4.031014964740     -6.278318075000    1    1    1
      6.981922725000      4.031014964740     -6.278318075000    1    1    1
     -4.654615150000      8.062029929480     -6.278318075000    1    1    1
      0.000000000000      8.062029929480     -6.278318075000    1    1    1
      4.654615150000      8.062029929480     -6.278318075000    1    1    1
      0.000000000000      2.687343309827     -6.278318075000    1    1    1
     -2.327307575000      6.718358274567     -6.278318075000    1    1    1
      2.327307575000      6.718358274567     -6.278318075000    1    1    1
      6.981922725000      6.718358274567     -6.278318075000    1    1    1
     -4.654615150000     10.749373239306     -6.278318075000    1    1    1
      0.000000000000     10.749373239306     -6.278318075000    1    1    1
      4.654615150000     10.749373239306     -6.278318075000    1    1    1
