
 ******************************************************************
 *** This program generates a graphite surface                  ***
 ******************************************************************


 a_0=         4.65461515
 c_0=        12.55663615
 Inter layer distance:         6.27831807

 Slab of  6 ML
 Vacuum region corresponds to 18 ML
 Slabs are separated by 113.01 Bohr
 Slabs are separated by  59.80 Angstrom
 Size of the supercell along the z axis: 150.68 Bohr
 Size of the supercell along the z axis:  79.74 Angstrom

 Primitive lattice vectors:
      4.654615150000      0.000000000000      0.000000000000
     -2.327307575000      4.031014964740      0.000000000000
      0.000000000000      0.000000000000    150.679633800000
 Number of atoms:   12
 Atoms: 
      0.000000000000      0.000000000000     -0.000000000000    1    1    1
      0.000000000000      2.687343309827     -0.000000000000    1    1    1
      0.000000000000      0.000000000000     -6.278318075000    1    1    1
      2.327307575000      1.343671654913     -6.278318075000    1    1    1
      0.000000000000      0.000000000000    -12.556636150000    1    1    1
      0.000000000000      2.687343309827    -12.556636150000    1    1    1
      0.000000000000      0.000000000000    -18.834954225000    1    1    1
      2.327307575000      1.343671654913    -18.834954225000    1    1    1
      0.000000000000      0.000000000000    -25.113272300000    1    1    1
      0.000000000000      2.687343309827    -25.113272300000    1    1    1
      0.000000000000      0.000000000000    -31.391590375000    1    1    1
      2.327307575000      1.343671654913    -31.391590375000    1    1    1

 Atoms (center of the slab is set to the origin):
      0.000000000000      0.000000000000     15.695795187500    1    1    1
      0.000000000000      2.687343309827     15.695795187500    1    1    1
      0.000000000000      0.000000000000      9.417477112500    1    1    1
      2.327307575000      1.343671654913      9.417477112500    1    1    1
      0.000000000000      0.000000000000      3.139159037500    1    1    1
      0.000000000000      2.687343309827      3.139159037500    1    1    1
      0.000000000000      0.000000000000     -3.139159037500    1    1    1
      2.327307575000      1.343671654913     -3.139159037500    1    1    1
      0.000000000000      0.000000000000     -9.417477112500    1    1    1
      0.000000000000      2.687343309827     -9.417477112500    1    1    1
      0.000000000000      0.000000000000    -15.695795187500    1    1    1
      2.327307575000      1.343671654913    -15.695795187500    1    1    1
