
 ******************************************************************
 *** This program generates a graphite surface                  ***
 ******************************************************************


 a_0=         4.65461515
 c_0=        12.55663615
 Inter layer distance:         6.27831807

 Slab of  2 ML
 Vacuum region corresponds to 18 ML
 Slabs are separated by 113.01 Bohr
 Slabs are separated by  59.80 Angstrom
 Size of the supercell along the z axis: 125.57 Bohr
 Size of the supercell along the z axis:  66.45 Angstrom

 Primitive lattice vectors:
      4.654615150000      0.000000000000      0.000000000000
     -2.327307575000      4.031014964740      0.000000000000
      0.000000000000      0.000000000000    125.566361500000
 Number of atoms:    4
 Atoms: 
      0.000000000000      0.000000000000     -0.000000000000    1    1    1
      0.775769191667      2.687343309827     -0.000000000000    1    1    1
      0.000000000000      0.000000000000     -6.278318075000    1    1    1
      1.551538383333      1.343671654913     -6.278318075000    1    1    1

 Atoms (center of the slab is set to the origin):
      0.000000000000      0.000000000000      3.139159037500    1    1    1
      0.775769191667      2.687343309827      3.139159037500    1    1    1
      0.000000000000      0.000000000000     -3.139159037500    1    1    1
      1.551538383333      1.343671654913     -3.139159037500    1    1    1
