
 ******************************************************************
 *** This program generates a graphite surface                  ***
 ******************************************************************


 a_0=         4.65461515
 c_0=        12.55663615
 Inter layer distance:         6.27831807

 Slab of 14 ML
 Vacuum region corresponds to 18 ML
 Slabs are separated by 113.01 Bohr
 Slabs are separated by  59.80 Angstrom
 Size of the supercell along the z axis: 200.91 Bohr
 Size of the supercell along the z axis: 106.31 Angstrom

 Primitive lattice vectors:
      4.654615150000      0.000000000000      0.000000000000
     -2.327307575000      4.031014964740      0.000000000000
      0.000000000000      0.000000000000    200.906178400000
 Number of atoms:   28
 Atoms: 
      0.000000000000      0.000000000000     -0.000000000000    1    1    1
      0.000000000000      2.687343309827     -0.000000000000    1    1    1
      0.000000000000      0.000000000000     -6.278318075000    1    1    1
      2.327307575000      1.343671654913     -6.278318075000    1    1    1
      0.000000000000      0.000000000000    -12.556636150000    1    1    1
      0.000000000000      2.687343309827    -12.556636150000    1    1    1
      0.000000000000      0.000000000000    -18.834954225000    1    1    1
      2.327307575000      1.343671654913    -18.834954225000    1    1    1
      0.000000000000      0.000000000000    -25.113272300000    1    1    1
      0.000000000000      2.687343309827    -25.113272300000    1    1    1
      0.000000000000      0.000000000000    -31.391590375000    1    1    1
      2.327307575000      1.343671654913    -31.391590375000    1    1    1
      0.000000000000      0.000000000000    -37.669908450000    1    1    1
      0.000000000000      2.687343309827    -37.669908450000    1    1    1
      0.000000000000      0.000000000000    -43.948226525000    1    1    1
      2.327307575000      1.343671654913    -43.948226525000    1    1    1
      0.000000000000      0.000000000000    -50.226544600000    1    1    1
      0.000000000000      2.687343309827    -50.226544600000    1    1    1
      0.000000000000      0.000000000000    -56.504862675000    1    1    1
      2.327307575000      1.343671654913    -56.504862675000    1    1    1
      0.000000000000      0.000000000000    -62.783180750000    1    1    1
      0.000000000000      2.687343309827    -62.783180750000    1    1    1
      0.000000000000      0.000000000000    -69.061498825000    1    1    1
      2.327307575000      1.343671654913    -69.061498825000    1    1    1
      0.000000000000      0.000000000000    -75.339816900000    1    1    1
      0.000000000000      2.687343309827    -75.339816900000    1    1    1
      0.000000000000      0.000000000000    -81.618134975000    1    1    1
      2.327307575000      1.343671654913    -81.618134975000    1    1    1

 Atoms (center of the slab is set to the origin):
      0.000000000000      0.000000000000     40.809067487500    1    1    1
      0.000000000000      2.687343309827     40.809067487500    1    1    1
      0.000000000000      0.000000000000     34.530749412500    1    1    1
      2.327307575000      1.343671654913     34.530749412500    1    1    1
      0.000000000000      0.000000000000     28.252431337500    1    1    1
      0.000000000000      2.687343309827     28.252431337500    1    1    1
      0.000000000000      0.000000000000     21.974113262500    1    1    1
      2.327307575000      1.343671654913     21.974113262500    1    1    1
      0.000000000000      0.000000000000     15.695795187500    1    1    1
      0.000000000000      2.687343309827     15.695795187500    1    1    1
      0.000000000000      0.000000000000      9.417477112500    1    1    1
      2.327307575000      1.343671654913      9.417477112500    1    1    1
      0.000000000000      0.000000000000      3.139159037500    1    1    1
      0.000000000000      2.687343309827      3.139159037500    1    1    1
      0.000000000000      0.000000000000     -3.139159037500    1    1    1
      2.327307575000      1.343671654913     -3.139159037500    1    1    1
      0.000000000000      0.000000000000     -9.417477112500    1    1    1
      0.000000000000      2.687343309827     -9.417477112500    1    1    1
      0.000000000000      0.000000000000    -15.695795187500    1    1    1
      2.327307575000      1.343671654913    -15.695795187500    1    1    1
      0.000000000000      0.000000000000    -21.974113262500    1    1    1
      0.000000000000      2.687343309827    -21.974113262500    1    1    1
      0.000000000000      0.000000000000    -28.252431337500    1    1    1
      2.327307575000      1.343671654913    -28.252431337500    1    1    1
      0.000000000000      0.000000000000    -34.530749412500    1    1    1
      0.000000000000      2.687343309827    -34.530749412500    1    1    1
      0.000000000000      0.000000000000    -40.809067487500    1    1    1
      2.327307575000      1.343671654913    -40.809067487500    1    1    1
