
 ******************************************************************
 *** This program generates an fcc (111) 1x1 clean surface      ***
 ******************************************************************


 a_0=         7.20346861
 a  =         5.09362150

 Slab of 11 ML
 Vacuum region corresponds to 15 ML
 Slabs are separated by  66.54 Bohr
 Slabs are separated by  35.21 Angstrom

 Inter-layer distance =         4.15892454
 Slab-slab distance   =        66.54279266


 Lattice vectors:
      5.093621502195      0.000000000000      0.000000000000
     -2.546810751098      4.411205618164      0.000000000000
      0.000000000000      0.000000000000    108.132038068146

 Supercell Lattice vectors:
     15.280864506586      0.000000000000      0.000000000000
     -7.640432253293     13.233616854492      0.000000000000
      0.000000000000      0.000000000000    108.132038068146

 Surface area:     202.221106085564
 Surface area:     202.221106085564

 Volume of unit cell:   21866.580341426743

 Number of atoms:   99
 Atoms: 
      0.000000000000      0.000000000000     -0.000000000000    1    1    1
      5.093621502195      0.000000000000     -0.000000000000    1    1    1
     10.187243004391      0.000000000000     -0.000000000000    1    1    1
     -2.546810751098      4.411205618164     -0.000000000000    1    1    1
      2.546810751098      4.411205618164     -0.000000000000    1    1    1
      7.640432253293      4.411205618164     -0.000000000000    1    1    1
     -5.093621502195      8.822411236328     -0.000000000000    1    1    1
      0.000000000000      8.822411236328     -0.000000000000    1    1    1
      5.093621502195      8.822411236328     -0.000000000000    1    1    1
      0.000000000000      2.940803745443     -4.158924541083    1    1    1
      5.093621502195      2.940803745443     -4.158924541083    1    1    1
     10.187243004391      2.940803745443     -4.158924541083    1    1    1
     -2.546810751098      7.352009363606     -4.158924541083    1    1    1
      2.546810751098      7.352009363606     -4.158924541083    1    1    1
      7.640432253293      7.352009363606     -4.158924541083    1    1    1
     -5.093621502195     11.763214981770     -4.158924541083    1    1    1
      0.000000000000     11.763214981770     -4.158924541083    1    1    1
      5.093621502195     11.763214981770     -4.158924541083    1    1    1
      0.000000000000     -2.940803745443     -8.317849082165    1    1    1
      5.093621502195     -2.940803745443     -8.317849082165    1    1    1
     10.187243004391     -2.940803745443     -8.317849082165    1    1    1
     -2.546810751098      1.470401872721     -8.317849082165    1    1    1
      2.546810751098      1.470401872721     -8.317849082165    1    1    1
      7.640432253293      1.470401872721     -8.317849082165    1    1    1
     -5.093621502195      5.881607490885     -8.317849082165    1    1    1
      0.000000000000      5.881607490885     -8.317849082165    1    1    1
      5.093621502195      5.881607490885     -8.317849082165    1    1    1
      0.000000000000      0.000000000000    -12.476773623248    1    1    1
      5.093621502195      0.000000000000    -12.476773623248    1    1    1
     10.187243004391      0.000000000000    -12.476773623248    1    1    1
     -2.546810751098      4.411205618164    -12.476773623248    1    1    1
      2.546810751098      4.411205618164    -12.476773623248    1    1    1
      7.640432253293      4.411205618164    -12.476773623248    1    1    1
     -5.093621502195      8.822411236328    -12.476773623248    1    1    1
      0.000000000000      8.822411236328    -12.476773623248    1    1    1
      5.093621502195      8.822411236328    -12.476773623248    1    1    1
      0.000000000000      2.940803745443    -16.635698164330    1    1    1
      5.093621502195      2.940803745443    -16.635698164330    1    1    1
     10.187243004391      2.940803745443    -16.635698164330    1    1    1
     -2.546810751098      7.352009363606    -16.635698164330    1    1    1
      2.546810751098      7.352009363606    -16.635698164330    1    1    1
      7.640432253293      7.352009363606    -16.635698164330    1    1    1
     -5.093621502195     11.763214981770    -16.635698164330    1    1    1
      0.000000000000     11.763214981770    -16.635698164330    1    1    1
      5.093621502195     11.763214981770    -16.635698164330    1    1    1
      0.000000000000     -2.940803745443    -20.794622705413    1    1    1
      5.093621502195     -2.940803745443    -20.794622705413    1    1    1
     10.187243004391     -2.940803745443    -20.794622705413    1    1    1
     -2.546810751098      1.470401872721    -20.794622705413    1    1    1
      2.546810751098      1.470401872721    -20.794622705413    1    1    1
      7.640432253293      1.470401872721    -20.794622705413    1    1    1
     -5.093621502195      5.881607490885    -20.794622705413    1    1    1
      0.000000000000      5.881607490885    -20.794622705413    1    1    1
      5.093621502195      5.881607490885    -20.794622705413    1    1    1
      0.000000000000      0.000000000000    -24.953547246495    1    1    1
      5.093621502195      0.000000000000    -24.953547246495    1    1    1
     10.187243004391      0.000000000000    -24.953547246495    1    1    1
     -2.546810751098      4.411205618164    -24.953547246495    1    1    1
      2.546810751098      4.411205618164    -24.953547246495    1    1    1
      7.640432253293      4.411205618164    -24.953547246495    1    1    1
     -5.093621502195      8.822411236328    -24.953547246495    1    1    1
      0.000000000000      8.822411236328    -24.953547246495    1    1    1
      5.093621502195      8.822411236328    -24.953547246495    1    1    1
      0.000000000000      2.940803745443    -29.112471787578    1    1    1
      5.093621502195      2.940803745443    -29.112471787578    1    1    1
     10.187243004391      2.940803745443    -29.112471787578    1    1    1
     -2.546810751098      7.352009363606    -29.112471787578    1    1    1
      2.546810751098      7.352009363606    -29.112471787578    1    1    1
      7.640432253293      7.352009363606    -29.112471787578    1    1    1
     -5.093621502195     11.763214981770    -29.112471787578    1    1    1
      0.000000000000     11.763214981770    -29.112471787578    1    1    1
      5.093621502195     11.763214981770    -29.112471787578    1    1    1
      0.000000000000     -2.940803745443    -33.271396328660    1    1    1
      5.093621502195     -2.940803745443    -33.271396328660    1    1    1
     10.187243004391     -2.940803745443    -33.271396328660    1    1    1
     -2.546810751098      1.470401872721    -33.271396328660    1    1    1
      2.546810751098      1.470401872721    -33.271396328660    1    1    1
      7.640432253293      1.470401872721    -33.271396328660    1    1    1
     -5.093621502195      5.881607490885    -33.271396328660    1    1    1
      0.000000000000      5.881607490885    -33.271396328660    1    1    1
      5.093621502195      5.881607490885    -33.271396328660    1    1    1
      0.000000000000      0.000000000000    -37.430320869743    1    1    1
      5.093621502195      0.000000000000    -37.430320869743    1    1    1
     10.187243004391      0.000000000000    -37.430320869743    1    1    1
     -2.546810751098      4.411205618164    -37.430320869743    1    1    1
      2.546810751098      4.411205618164    -37.430320869743    1    1    1
      7.640432253293      4.411205618164    -37.430320869743    1    1    1
     -5.093621502195      8.822411236328    -37.430320869743    1    1    1
      0.000000000000      8.822411236328    -37.430320869743    1    1    1
      5.093621502195      8.822411236328    -37.430320869743    1    1    1
      0.000000000000      2.940803745443    -41.589245410825    1    1    1
      5.093621502195      2.940803745443    -41.589245410825    1    1    1
     10.187243004391      2.940803745443    -41.589245410825    1    1    1
     -2.546810751098      7.352009363606    -41.589245410825    1    1    1
      2.546810751098      7.352009363606    -41.589245410825    1    1    1
      7.640432253293      7.352009363606    -41.589245410825    1    1    1
     -5.093621502195     11.763214981770    -41.589245410825    1    1    1
      0.000000000000     11.763214981770    -41.589245410825    1    1    1
      5.093621502195     11.763214981770    -41.589245410825    1    1    1

 Atomic coordinates in reduced coordinate 
      0.000000000000      0.000000000000      0.000000000000    1    1    1
      1.000000000000      0.000000000000      0.000000000000    1    1    1
      2.000000000000      0.000000000000      0.000000000000    1    1    1
      0.000000000000      1.000000000000      0.000000000000    1    1    1
      1.000000000000      1.000000000000      0.000000000000    1    1    1
      2.000000000000      1.000000000000      0.000000000000    1    1    1
      0.000000000000      2.000000000000      0.000000000000    1    1    1
      1.000000000000      2.000000000000      0.000000000000    1    1    1
      2.000000000000      2.000000000000      0.000000000000    1    1    1
      0.333333333333      0.666666666667     -0.038461538462    1    1    1
      1.333333333333      0.666666666667     -0.038461538462    1    1    1
      2.333333333333      0.666666666667     -0.038461538462    1    1    1
      0.333333333333      1.666666666667     -0.038461538462    1    1    1
      1.333333333333      1.666666666667     -0.038461538462    1    1    1
      2.333333333333      1.666666666667     -0.038461538462    1    1    1
      0.333333333333      2.666666666667     -0.038461538462    1    1    1
      1.333333333333      2.666666666667     -0.038461538462    1    1    1
      2.333333333333      2.666666666667     -0.038461538462    1    1    1
     -0.333333333333     -0.666666666667     -0.076923076923    1    1    1
      0.666666666667     -0.666666666667     -0.076923076923    1    1    1
      1.666666666667     -0.666666666667     -0.076923076923    1    1    1
     -0.333333333333      0.333333333333     -0.076923076923    1    1    1
      0.666666666667      0.333333333333     -0.076923076923    1    1    1
      1.666666666667      0.333333333333     -0.076923076923    1    1    1
     -0.333333333333      1.333333333333     -0.076923076923    1    1    1
      0.666666666667      1.333333333333     -0.076923076923    1    1    1
      1.666666666667      1.333333333333     -0.076923076923    1    1    1
      0.000000000000      0.000000000000     -0.115384615385    1    1    1
      1.000000000000      0.000000000000     -0.115384615385    1    1    1
      2.000000000000      0.000000000000     -0.115384615385    1    1    1
      0.000000000000      1.000000000000     -0.115384615385    1    1    1
      1.000000000000      1.000000000000     -0.115384615385    1    1    1
      2.000000000000      1.000000000000     -0.115384615385    1    1    1
      0.000000000000      2.000000000000     -0.115384615385    1    1    1
      1.000000000000      2.000000000000     -0.115384615385    1    1    1
      2.000000000000      2.000000000000     -0.115384615385    1    1    1
      0.333333333333      0.666666666667     -0.153846153846    1    1    1
      1.333333333333      0.666666666667     -0.153846153846    1    1    1
      2.333333333333      0.666666666667     -0.153846153846    1    1    1
      0.333333333333      1.666666666667     -0.153846153846    1    1    1
      1.333333333333      1.666666666667     -0.153846153846    1    1    1
      2.333333333333      1.666666666667     -0.153846153846    1    1    1
      0.333333333333      2.666666666667     -0.153846153846    1    1    1
      1.333333333333      2.666666666667     -0.153846153846    1    1    1
      2.333333333333      2.666666666667     -0.153846153846    1    1    1
     -0.333333333333     -0.666666666667     -0.192307692308    1    1    1
      0.666666666667     -0.666666666667     -0.192307692308    1    1    1
      1.666666666667     -0.666666666667     -0.192307692308    1    1    1
     -0.333333333333      0.333333333333     -0.192307692308    1    1    1
      0.666666666667      0.333333333333     -0.192307692308    1    1    1
      1.666666666667      0.333333333333     -0.192307692308    1    1    1
     -0.333333333333      1.333333333333     -0.192307692308    1    1    1
      0.666666666667      1.333333333333     -0.192307692308    1    1    1
      1.666666666667      1.333333333333     -0.192307692308    1    1    1
      0.000000000000      0.000000000000     -0.230769230769    1    1    1
      1.000000000000      0.000000000000     -0.230769230769    1    1    1
      2.000000000000      0.000000000000     -0.230769230769    1    1    1
      0.000000000000      1.000000000000     -0.230769230769    1    1    1
      1.000000000000      1.000000000000     -0.230769230769    1    1    1
      2.000000000000      1.000000000000     -0.230769230769    1    1    1
      0.000000000000      2.000000000000     -0.230769230769    1    1    1
      1.000000000000      2.000000000000     -0.230769230769    1    1    1
      2.000000000000      2.000000000000     -0.230769230769    1    1    1
      0.333333333333      0.666666666667     -0.269230769231    1    1    1
      1.333333333333      0.666666666667     -0.269230769231    1    1    1
      2.333333333333      0.666666666667     -0.269230769231    1    1    1
      0.333333333333      1.666666666667     -0.269230769231    1    1    1
      1.333333333333      1.666666666667     -0.269230769231    1    1    1
      2.333333333333      1.666666666667     -0.269230769231    1    1    1
      0.333333333333      2.666666666667     -0.269230769231    1    1    1
      1.333333333333      2.666666666667     -0.269230769231    1    1    1
      2.333333333333      2.666666666667     -0.269230769231    1    1    1
     -0.333333333333     -0.666666666667     -0.307692307692    1    1    1
      0.666666666667     -0.666666666667     -0.307692307692    1    1    1
      1.666666666667     -0.666666666667     -0.307692307692    1    1    1
     -0.333333333333      0.333333333333     -0.307692307692    1    1    1
      0.666666666667      0.333333333333     -0.307692307692    1    1    1
      1.666666666667      0.333333333333     -0.307692307692    1    1    1
     -0.333333333333      1.333333333333     -0.307692307692    1    1    1
      0.666666666667      1.333333333333     -0.307692307692    1    1    1
      1.666666666667      1.333333333333     -0.307692307692    1    1    1
      0.000000000000      0.000000000000     -0.346153846154    1    1    1
      1.000000000000      0.000000000000     -0.346153846154    1    1    1
      2.000000000000      0.000000000000     -0.346153846154    1    1    1
      0.000000000000      1.000000000000     -0.346153846154    1    1    1
      1.000000000000      1.000000000000     -0.346153846154    1    1    1
      2.000000000000      1.000000000000     -0.346153846154    1    1    1
      0.000000000000      2.000000000000     -0.346153846154    1    1    1
      1.000000000000      2.000000000000     -0.346153846154    1    1    1
      2.000000000000      2.000000000000     -0.346153846154    1    1    1
      0.333333333333      0.666666666667     -0.384615384615    1    1    1
      1.333333333333      0.666666666667     -0.384615384615    1    1    1
      2.333333333333      0.666666666667     -0.384615384615    1    1    1
      0.333333333333      1.666666666667     -0.384615384615    1    1    1
      1.333333333333      1.666666666667     -0.384615384615    1    1    1
      2.333333333333      1.666666666667     -0.384615384615    1    1    1
      0.333333333333      2.666666666667     -0.384615384615    1    1    1
      1.333333333333      2.666666666667     -0.384615384615    1    1    1
      2.333333333333      2.666666666667     -0.384615384615    1    1    1

 Atoms (center of the slab is set to the origin):
      0.000000000000      0.000000000000     20.794622705413    1    1    1
      5.093621502195      0.000000000000     20.794622705413    1    1    1
     10.187243004391      0.000000000000     20.794622705413    1    1    1
     -2.546810751098      4.411205618164     20.794622705413    1    1    1
      2.546810751098      4.411205618164     20.794622705413    1    1    1
      7.640432253293      4.411205618164     20.794622705413    1    1    1
     -5.093621502195      8.822411236328     20.794622705413    1    1    1
      0.000000000000      8.822411236328     20.794622705413    1    1    1
      5.093621502195      8.822411236328     20.794622705413    1    1    1
      0.000000000000      2.940803745443     16.635698164330    1    1    1
      5.093621502195      2.940803745443     16.635698164330    1    1    1
     10.187243004391      2.940803745443     16.635698164330    1    1    1
     -2.546810751098      7.352009363606     16.635698164330    1    1    1
      2.546810751098      7.352009363606     16.635698164330    1    1    1
      7.640432253293      7.352009363606     16.635698164330    1    1    1
     -5.093621502195     11.763214981770     16.635698164330    1    1    1
      0.000000000000     11.763214981770     16.635698164330    1    1    1
      5.093621502195     11.763214981770     16.635698164330    1    1    1
      0.000000000000     -2.940803745443     12.476773623248    1    1    1
      5.093621502195     -2.940803745443     12.476773623248    1    1    1
     10.187243004391     -2.940803745443     12.476773623248    1    1    1
     -2.546810751098      1.470401872721     12.476773623248    1    1    1
      2.546810751098      1.470401872721     12.476773623248    1    1    1
      7.640432253293      1.470401872721     12.476773623248    1    1    1
     -5.093621502195      5.881607490885     12.476773623248    1    1    1
      0.000000000000      5.881607490885     12.476773623248    1    1    1
      5.093621502195      5.881607490885     12.476773623248    1    1    1
      0.000000000000      0.000000000000      8.317849082165    1    1    1
      5.093621502195      0.000000000000      8.317849082165    1    1    1
     10.187243004391      0.000000000000      8.317849082165    1    1    1
     -2.546810751098      4.411205618164      8.317849082165    1    1    1
      2.546810751098      4.411205618164      8.317849082165    1    1    1
      7.640432253293      4.411205618164      8.317849082165    1    1    1
     -5.093621502195      8.822411236328      8.317849082165    1    1    1
      0.000000000000      8.822411236328      8.317849082165    1    1    1
      5.093621502195      8.822411236328      8.317849082165    1    1    1
      0.000000000000      2.940803745443      4.158924541083    1    1    1
      5.093621502195      2.940803745443      4.158924541083    1    1    1
     10.187243004391      2.940803745443      4.158924541083    1    1    1
     -2.546810751098      7.352009363606      4.158924541083    1    1    1
      2.546810751098      7.352009363606      4.158924541083    1    1    1
      7.640432253293      7.352009363606      4.158924541083    1    1    1
     -5.093621502195     11.763214981770      4.158924541083    1    1    1
      0.000000000000     11.763214981770      4.158924541083    1    1    1
      5.093621502195     11.763214981770      4.158924541083    1    1    1
      0.000000000000     -2.940803745443      0.000000000000    1    1    1
      5.093621502195     -2.940803745443      0.000000000000    1    1    1
     10.187243004391     -2.940803745443      0.000000000000    1    1    1
     -2.546810751098      1.470401872721      0.000000000000    1    1    1
      2.546810751098      1.470401872721      0.000000000000    1    1    1
      7.640432253293      1.470401872721      0.000000000000    1    1    1
     -5.093621502195      5.881607490885      0.000000000000    1    1    1
      0.000000000000      5.881607490885      0.000000000000    1    1    1
      5.093621502195      5.881607490885      0.000000000000    1    1    1
      0.000000000000      0.000000000000     -4.158924541083    1    1    1
      5.093621502195      0.000000000000     -4.158924541083    1    1    1
     10.187243004391      0.000000000000     -4.158924541083    1    1    1
     -2.546810751098      4.411205618164     -4.158924541083    1    1    1
      2.546810751098      4.411205618164     -4.158924541083    1    1    1
      7.640432253293      4.411205618164     -4.158924541083    1    1    1
     -5.093621502195      8.822411236328     -4.158924541083    1    1    1
      0.000000000000      8.822411236328     -4.158924541083    1    1    1
      5.093621502195      8.822411236328     -4.158924541083    1    1    1
      0.000000000000      2.940803745443     -8.317849082165    1    1    1
      5.093621502195      2.940803745443     -8.317849082165    1    1    1
     10.187243004391      2.940803745443     -8.317849082165    1    1    1
     -2.546810751098      7.352009363606     -8.317849082165    1    1    1
      2.546810751098      7.352009363606     -8.317849082165    1    1    1
      7.640432253293      7.352009363606     -8.317849082165    1    1    1
     -5.093621502195     11.763214981770     -8.317849082165    1    1    1
      0.000000000000     11.763214981770     -8.317849082165    1    1    1
      5.093621502195     11.763214981770     -8.317849082165    1    1    1
      0.000000000000     -2.940803745443    -12.476773623248    1    1    1
      5.093621502195     -2.940803745443    -12.476773623248    1    1    1
     10.187243004391     -2.940803745443    -12.476773623248    1    1    1
     -2.546810751098      1.470401872721    -12.476773623248    1    1    1
      2.546810751098      1.470401872721    -12.476773623248    1    1    1
      7.640432253293      1.470401872721    -12.476773623248    1    1    1
     -5.093621502195      5.881607490885    -12.476773623248    1    1    1
      0.000000000000      5.881607490885    -12.476773623248    1    1    1
      5.093621502195      5.881607490885    -12.476773623248    1    1    1
      0.000000000000      0.000000000000    -16.635698164330    1    1    1
      5.093621502195      0.000000000000    -16.635698164330    1    1    1
     10.187243004391      0.000000000000    -16.635698164330    1    1    1
     -2.546810751098      4.411205618164    -16.635698164330    1    1    1
      2.546810751098      4.411205618164    -16.635698164330    1    1    1
      7.640432253293      4.411205618164    -16.635698164330    1    1    1
     -5.093621502195      8.822411236328    -16.635698164330    1    1    1
      0.000000000000      8.822411236328    -16.635698164330    1    1    1
      5.093621502195      8.822411236328    -16.635698164330    1    1    1
      0.000000000000      2.940803745443    -20.794622705413    1    1    1
      5.093621502195      2.940803745443    -20.794622705413    1    1    1
     10.187243004391      2.940803745443    -20.794622705413    1    1    1
     -2.546810751098      7.352009363606    -20.794622705413    1    1    1
      2.546810751098      7.352009363606    -20.794622705413    1    1    1
      7.640432253293      7.352009363606    -20.794622705413    1    1    1
     -5.093621502195     11.763214981770    -20.794622705413    1    1    1
      0.000000000000     11.763214981770    -20.794622705413    1    1    1
      5.093621502195     11.763214981770    -20.794622705413    1    1    1
