 16
Au16 
Au         .00000000       -4.03603306        5.70781269
Au        1.42695317       -2.01801653        4.28085951
Au        1.42695317        2.01801653        4.28085951
Au         .00000000       -4.03603306        2.85390634
Au         .00000000         .00000000        2.85390634
Au        1.42695317       -2.01801653        1.42695317
Au        1.42695317        2.01801653        1.42695317
Au         .00000000       -4.03603306         .00000000
Au         .00000000         .00000000         .00000000
Au        1.42695317       -2.01801653       -1.42695317
Au        1.42695317        2.01801653       -1.42695317
Au         .00000000       -4.03603306       -2.85390634
Au         .00000000         .00000000       -2.85390634
Au        1.42695317       -2.01801653       -4.28085951
Au        1.42695317        2.01801653       -4.28085951
Au         .00000000         .00000000       -5.70781269
