 24
Au24 
Au        1.42695317        6.05404958        6.42128927
Au         .00000000       -4.03603306        4.99433610
Au         .00000000        4.03603306        4.99433610
Au        1.42695317       -2.01801653        3.56738293
Au        1.42695317        2.01801653        3.56738293
Au        1.42695317        6.05404958        3.56738293
Au         .00000000       -4.03603306        2.14042976
Au         .00000000         .00000000        2.14042976
Au         .00000000        4.03603306        2.14042976
Au        1.42695317       -2.01801653         .71347659
Au        1.42695317        2.01801653         .71347659
Au        1.42695317        6.05404958         .71347659
Au         .00000000       -4.03603306        -.71347659
Au         .00000000         .00000000        -.71347659
Au         .00000000        4.03603306        -.71347659
Au        1.42695317       -2.01801653       -2.14042976
Au        1.42695317        2.01801653       -2.14042976
Au        1.42695317        6.05404958       -2.14042976
Au         .00000000       -4.03603306       -3.56738293
Au         .00000000         .00000000       -3.56738293
Au         .00000000        4.03603306       -3.56738293
Au        1.42695317       -2.01801653       -4.99433610
Au        1.42695317        2.01801653       -4.99433610
Au         .00000000         .00000000       -6.42128927
