 40
Au40 
Au         .00000000         .00000000        6.60028050
Au        2.93345800         .00000000        6.60028050
Au         .00000000        4.14853609        6.60028050
Au        2.93345800        4.14853609        6.60028050
Au        1.46672900        2.07426804        5.13355150
Au        4.40018700        2.07426804        5.13355150
Au        1.46672900        6.22280413        5.13355150
Au        4.40018700        6.22280413        5.13355150
Au         .00000000         .00000000        3.66682250
Au        2.93345800         .00000000        3.66682250
Au         .00000000        4.14853609        3.66682250
Au        2.93345800        4.14853609        3.66682250
Au        1.46672900        2.07426804        2.20009350
Au        4.40018700        2.07426804        2.20009350
Au        1.46672900        6.22280413        2.20009350
Au        4.40018700        6.22280413        2.20009350
Au         .00000000         .00000000         .73336450
Au        2.93345800         .00000000         .73336450
Au         .00000000        4.14853609         .73336450
Au        2.93345800        4.14853609         .73336450
Au        1.46672900        2.07426804        -.73336450
Au        4.40018700        2.07426804        -.73336450
Au        1.46672900        6.22280413        -.73336450
Au        4.40018700        6.22280413        -.73336450
Au         .00000000         .00000000       -2.20009350
Au        2.93345800         .00000000       -2.20009350
Au         .00000000        4.14853609       -2.20009350
Au        2.93345800        4.14853609       -2.20009350
Au        1.46672900        2.07426804       -3.66682250
Au        4.40018700        2.07426804       -3.66682250
Au        1.46672900        6.22280413       -3.66682250
Au        4.40018700        6.22280413       -3.66682250
Au         .00000000         .00000000       -5.13355150
Au        2.93345800         .00000000       -5.13355150
Au         .00000000        4.14853609       -5.13355150
Au        2.93345800        4.14853609       -5.13355150
Au        1.46672900        2.07426804       -6.60028050
Au        4.40018700        2.07426804       -6.60028050
Au        1.46672900        6.22280413       -6.60028050
Au        4.40018700        6.22280413       -6.60028050
