
 ******************************************************************
 *** This program generates an fcc (110) 1x3 reconstructed      ***
 *** surface                                                    ***


 ******************************************************************

 
 a_0=         7.83960000
 Inter layer distance:         2.77171716

 Slab of  8 ML
 Vacuum region corresponds to 10 ML
 Slabs are separated by  30.49 Bohr
 Slabs are separated by  16.13 Angstrom

 Primitive lattice vectors:
        5.54343432         .00000000         .00000000
         .00000000        7.83960000         .00000000
         .00000000         .00000000       49.89090890

 Supercell lattice vectors:
        5.54343432         .00000000         .00000000
         .00000000       23.51880000         .00000000
         .00000000         .00000000       49.89090890
 Number of atoms:   24
 Atoms: 
        2.77171716       11.75940000        2.77171716
         .00000000        7.83960000         .00000000
         .00000000       15.67920000         .00000000
        2.77171716        3.91980000       -2.77171716
        2.77171716       11.75940000       -2.77171716
        2.77171716       19.59900000       -2.77171716
         .00000000         .00000000       -5.54343432
         .00000000        7.83960000       -5.54343432
         .00000000       15.67920000       -5.54343432
        2.77171716        3.91980000       -8.31515148
        2.77171716       11.75940000       -8.31515148
        2.77171716       19.59900000       -8.31515148
         .00000000         .00000000      -11.08686864
         .00000000        7.83960000      -11.08686864
         .00000000       15.67920000      -11.08686864
        2.77171716        3.91980000      -13.85858580
        2.77171716       11.75940000      -13.85858580
        2.77171716       19.59900000      -13.85858580
         .00000000         .00000000      -16.63030297
         .00000000        7.83960000      -16.63030297
         .00000000       15.67920000      -16.63030297
        2.77171716        3.91980000      -19.40202013
        2.77171716       19.59900000      -19.40202013
         .00000000         .00000000      -22.17373729

 Atoms (center of the slab is set to the origin):
        2.77171716       11.75940000       12.47272722
         .00000000        7.83960000        9.70101006
         .00000000       15.67920000        9.70101006
        2.77171716        3.91980000        6.92929290
        2.77171716       11.75940000        6.92929290
        2.77171716       19.59900000        6.92929290
         .00000000         .00000000        4.15757574
         .00000000        7.83960000        4.15757574
         .00000000       15.67920000        4.15757574
        2.77171716        3.91980000        1.38585858
        2.77171716       11.75940000        1.38585858
        2.77171716       19.59900000        1.38585858
         .00000000         .00000000       -1.38585858
         .00000000        7.83960000       -1.38585858
         .00000000       15.67920000       -1.38585858
        2.77171716        3.91980000       -4.15757574
        2.77171716       11.75940000       -4.15757574
        2.77171716       19.59900000       -4.15757574
         .00000000         .00000000       -6.92929290
         .00000000        7.83960000       -6.92929290
         .00000000       15.67920000       -6.92929290
        2.77171716        3.91980000       -9.70101006
        2.77171716       19.59900000       -9.70101006
         .00000000         .00000000      -12.47272722
