
 ******************************************************************
 *** This program generates an fcc (110) clean surface          ***
 ******************************************************************


 a_0=         7.83960000

 Slab of  8 ML
 Vacuum region corresponds to 11 ML
 Slabs are separated by  33.26 Bohr
 Slabs are separated by  17.60 Angstrom

 Primitive lattice vectors:
        5.54343432        0.00000000        0.00000000
        0.00000000        7.83960000        0.00000000
        0.00000000        0.00000000       52.66262606

 Supercell lattice vectors:
        5.54343432        0.00000000        0.00000000
        0.00000000       23.51880000        0.00000000
        0.00000000        0.00000000       52.66262606
 Number of atoms:   24
 Atoms: 
        0.00000000        0.00000000        0.00000000
        0.00000000        7.83960000        0.00000000
        0.00000000       15.67920000        0.00000000
        2.77171716        3.91980000       -2.77171716
        2.77171716       11.75940000       -2.77171716
        2.77171716       19.59900000       -2.77171716
        0.00000000        0.00000000       -5.54343432
        0.00000000        7.83960000       -5.54343432
        0.00000000       15.67920000       -5.54343432
        2.77171716        3.91980000       -8.31515148
        2.77171716       11.75940000       -8.31515148
        2.77171716       19.59900000       -8.31515148
        0.00000000        0.00000000      -11.08686864
        0.00000000        7.83960000      -11.08686864
        0.00000000       15.67920000      -11.08686864
        2.77171716        3.91980000      -13.85858580
        2.77171716       11.75940000      -13.85858580
        2.77171716       19.59900000      -13.85858580
        0.00000000        0.00000000      -16.63030297
        0.00000000        7.83960000      -16.63030297
        0.00000000       15.67920000      -16.63030297
        2.77171716        3.91980000      -19.40202013
        2.77171716       11.75940000      -19.40202013
        2.77171716       19.59900000      -19.40202013

 Atoms (center of the slab is set to the origin):
        0.00000000        0.00000000        9.70101006
        0.00000000        7.83960000        9.70101006
        0.00000000       15.67920000        9.70101006
        2.77171716        3.91980000        6.92929290
        2.77171716       11.75940000        6.92929290
        2.77171716       19.59900000        6.92929290
        0.00000000        0.00000000        4.15757574
        0.00000000        7.83960000        4.15757574
        0.00000000       15.67920000        4.15757574
        2.77171716        3.91980000        1.38585858
        2.77171716       11.75940000        1.38585858
        2.77171716       19.59900000        1.38585858
        0.00000000        0.00000000       -1.38585858
        0.00000000        7.83960000       -1.38585858
        0.00000000       15.67920000       -1.38585858
        2.77171716        3.91980000       -4.15757574
        2.77171716       11.75940000       -4.15757574
        2.77171716       19.59900000       -4.15757574
        0.00000000        0.00000000       -6.92929290
        0.00000000        7.83960000       -6.92929290
        0.00000000       15.67920000       -6.92929290
        2.77171716        3.91980000       -9.70101006
        2.77171716       11.75940000       -9.70101006
        2.77171716       19.59900000       -9.70101006
