
 ******************************************************************
 *** This program generates an fcc (110) clean surface          ***
 ******************************************************************

 
 a_0=         7.62700000
 Inter layer distance :         2.69655171

 Slab of  8 ML
 Vacuum region corresponds to 11 ML
 Slabs are separated by  29.66 Bohr
 Slabs are separated by  15.70 Angstrom

 Primitive lattice vectors:
        5.39310342         .00000000         .00000000
         .00000000        7.62700000         .00000000
         .00000000         .00000000       51.23448249

 Supercell lattice vectors:
        5.39310342         .00000000         .00000000
         .00000000       15.25400000         .00000000
         .00000000         .00000000       51.23448249
 Number of atoms:   16
 Atoms: 
         .00000000         .00000000         .00000000
         .00000000        7.62700000         .00000000
        2.69655171        3.81350000       -2.69655171
        2.69655171       11.44050000       -2.69655171
         .00000000         .00000000       -5.39310342
         .00000000        7.62700000       -5.39310342
        2.69655171        3.81350000       -8.08965513
        2.69655171       11.44050000       -8.08965513
         .00000000         .00000000      -10.78620684
         .00000000        7.62700000      -10.78620684
        2.69655171        3.81350000      -13.48275855
        2.69655171       11.44050000      -13.48275855
         .00000000         .00000000      -16.17931026
         .00000000        7.62700000      -16.17931026
        2.69655171        3.81350000      -18.87586197
        2.69655171       11.44050000      -18.87586197

 Atoms (center of the slab is set to the origin):
         .00000000         .00000000        9.43793099
         .00000000        7.62700000        9.43793099
        2.69655171        3.81350000        6.74137928
        2.69655171       11.44050000        6.74137928
         .00000000         .00000000        4.04482757
         .00000000        7.62700000        4.04482757
        2.69655171        3.81350000        1.34827586
        2.69655171       11.44050000        1.34827586
         .00000000         .00000000       -1.34827586
         .00000000        7.62700000       -1.34827586
        2.69655171        3.81350000       -4.04482757
        2.69655171       11.44050000       -4.04482757
         .00000000         .00000000       -6.74137928
         .00000000        7.62700000       -6.74137928
        2.69655171        3.81350000       -9.43793099
        2.69655171       11.44050000       -9.43793099
