
 ******************************************************************
 *** This program generates an fcc (110) clean surface          ***
 ******************************************************************

 
 a_0=         7.62820000
 Inter layer distance :         2.69697597

 Slab of  8 ML
 Vacuum region corresponds to 11 ML
 Slabs are separated by  29.67 Bohr
 Slabs are separated by  15.70 Angstrom

 Primitive lattice vectors:
        5.39395195         .00000000         .00000000
         .00000000        7.62820000         .00000000
         .00000000         .00000000       51.24254351

 Supercell lattice vectors:
        5.39395195         .00000000         .00000000
         .00000000       15.25640000         .00000000
         .00000000         .00000000       51.24254351
 Number of atoms:   16
 Atoms: 
         .00000000         .00000000         .00000000
         .00000000        7.62820000         .00000000
        2.69697597        3.81410000       -2.69697597
        2.69697597       11.44230000       -2.69697597
         .00000000         .00000000       -5.39395195
         .00000000        7.62820000       -5.39395195
        2.69697597        3.81410000       -8.09092792
        2.69697597       11.44230000       -8.09092792
         .00000000         .00000000      -10.78790390
         .00000000        7.62820000      -10.78790390
        2.69697597        3.81410000      -13.48487987
        2.69697597       11.44230000      -13.48487987
         .00000000         .00000000      -16.18185584
         .00000000        7.62820000      -16.18185584
        2.69697597        3.81410000      -18.87883182
        2.69697597       11.44230000      -18.87883182

 Atoms (center of the slab is set to the origin):
         .00000000         .00000000        9.43941591
         .00000000        7.62820000        9.43941591
        2.69697597        3.81410000        6.74243994
        2.69697597       11.44230000        6.74243994
         .00000000         .00000000        4.04546396
         .00000000        7.62820000        4.04546396
        2.69697597        3.81410000        1.34848799
        2.69697597       11.44230000        1.34848799
         .00000000         .00000000       -1.34848799
         .00000000        7.62820000       -1.34848799
        2.69697597        3.81410000       -4.04546396
        2.69697597       11.44230000       -4.04546396
         .00000000         .00000000       -6.74243994
         .00000000        7.62820000       -6.74243994
        2.69697597        3.81410000       -9.43941591
        2.69697597       11.44230000       -9.43941591
