
 ******************************************************************
 *** This program generates an fcc (110) clean surface          ***
 ******************************************************************


 a_0=         7.77644690
 Inter layer distance :         2.74938917

 Slab of  4 ML
 Vacuum region corresponds to 11 ML
 Slabs are separated by  30.24 Bohr
 Slabs are separated by  16.00 Angstrom

 Primitive lattice vectors:
      5.498778336527      0.000000000000      0.000000000000
      0.000000000000      7.776446900000      0.000000000000
      0.000000000000      0.000000000000     41.240837523953

 Supercell lattice vectors:
      5.498778336527      0.000000000000      0.000000000000
      0.000000000000      7.776446900000      0.000000000000
      0.000000000000      0.000000000000     41.240837523953
 Number of atoms:    4
 Atoms: 
      0.000000000000      0.000000000000     -0.000000000000    1    1    1
      2.749389168264      3.888223450000     -2.749389168264    1    1    1
      0.000000000000      0.000000000000     -5.498778336527    1    1    1
      2.749389168264      3.888223450000     -8.248167504791    1    1    1

 Atoms (center of the slab is set to the origin):
      0.000000000000      0.000000000000      4.124083752395    1    1    1
      2.749389168264      3.888223450000      1.374694584132    1    1    1
      0.000000000000      0.000000000000     -1.374694584132    1    1    1
      2.749389168264      3.888223450000     -4.124083752395    1    1    1
