
 ******************************************************************
 *** This program generates an fcc (110) 1x2 reconstructed      ***
 *** surface                                                    ***
 ******************************************************************

 
 a_0=         7.83960000

 Slab of  8 ML
 Vacuum region corresponds to 11 ML
 Slabs are separated by  33.26 Bohr
 Slabs are separated by  17.60 Angstrom

 Primitive lattice vectors:
        5.54343432         .00000000         .00000000
         .00000000        7.83960000         .00000000
         .00000000         .00000000       52.66262606

 Supercell lattice vectors:
        5.54343432         .00000000         .00000000
         .00000000       15.67920000         .00000000
         .00000000         .00000000       52.66262606
 Number of atoms:   16
 Atoms: 
         .00000000         .00000000      -22.17373729
         .00000000        7.83960000         .00000000
        2.77171716        3.91980000       -2.77171716
        2.77171716       11.75940000       -2.77171716
         .00000000         .00000000       -5.54343432
         .00000000        7.83960000       -5.54343432
        2.77171716        3.91980000       -8.31515148
        2.77171716       11.75940000       -8.31515148
         .00000000         .00000000      -11.08686864
         .00000000        7.83960000      -11.08686864
        2.77171716        3.91980000      -13.85858580
        2.77171716       11.75940000      -13.85858580
         .00000000         .00000000      -16.63030297
         .00000000        7.83960000      -16.63030297
        2.77171716        3.91980000      -19.40202013
        2.77171716       11.75940000      -19.40202013

 Atoms (center of the slab is set to the origin):
         .00000000         .00000000      -11.08686864
         .00000000        7.83960000       11.08686864
        2.77171716        3.91980000        8.31515148
        2.77171716       11.75940000        8.31515148
         .00000000         .00000000        5.54343432
         .00000000        7.83960000        5.54343432
        2.77171716        3.91980000        2.77171716
        2.77171716       11.75940000        2.77171716
         .00000000         .00000000         .00000000
         .00000000        7.83960000         .00000000
        2.77171716        3.91980000       -2.77171716
        2.77171716       11.75940000       -2.77171716
         .00000000         .00000000       -5.54343432
         .00000000        7.83960000       -5.54343432
        2.77171716        3.91980000       -8.31515148
        2.77171716       11.75940000       -8.31515148
