 45
Rh45 
Rh        0.00000000        0.00000000       -0.00000000
Rh        2.69053688        0.00000000       -0.00000000
Rh        5.38107377        0.00000000       -0.00000000
Rh       -1.34526844        2.33007329       -0.00000000
Rh        1.34526844        2.33007329       -0.00000000
Rh        4.03580533        2.33007329       -0.00000000
Rh       -2.69053688        4.66014658       -0.00000000
Rh        0.00000000        4.66014658       -0.00000000
Rh        2.69053688        4.66014658       -0.00000000
Rh        0.00000000        1.55338219       -2.19681417
Rh        2.69053688        1.55338219       -2.19681417
Rh        5.38107377        1.55338219       -2.19681417
Rh       -1.34526844        3.88345549       -2.19681417
Rh        1.34526844        3.88345549       -2.19681417
Rh        4.03580533        3.88345549       -2.19681417
Rh       -2.69053688        6.21352878       -2.19681417
Rh        0.00000000        6.21352878       -2.19681417
Rh        2.69053688        6.21352878       -2.19681417
Rh        0.00000000       -1.55338219       -4.39362833
Rh        2.69053688       -1.55338219       -4.39362833
Rh        5.38107377       -1.55338219       -4.39362833
Rh       -1.34526844        0.77669110       -4.39362833
Rh        1.34526844        0.77669110       -4.39362833
Rh        4.03580533        0.77669110       -4.39362833
Rh       -2.69053688        3.10676439       -4.39362833
Rh        0.00000000        3.10676439       -4.39362833
Rh        2.69053688        3.10676439       -4.39362833
Rh        0.00000000        0.00000000       -6.59044250
Rh        2.69053688        0.00000000       -6.59044250
Rh        5.38107377        0.00000000       -6.59044250
Rh       -1.34526844        2.33007329       -6.59044250
Rh        1.34526844        2.33007329       -6.59044250
Rh        4.03580533        2.33007329       -6.59044250
Rh       -2.69053688        4.66014658       -6.59044250
Rh        0.00000000        4.66014658       -6.59044250
Rh        2.69053688        4.66014658       -6.59044250
Rh        0.00000000        1.55338219       -8.78725667
Rh        2.69053688        1.55338219       -8.78725667
Rh        5.38107377        1.55338219       -8.78725667
Rh       -1.34526844        3.88345549       -8.78725667
Rh        1.34526844        3.88345549       -8.78725667
Rh        4.03580533        3.88345549       -8.78725667
Rh       -2.69053688        6.21352878       -8.78725667
Rh        0.00000000        6.21352878       -8.78725667
Rh        2.69053688        6.21352878       -8.78725667
