 10
Ni10 
Ni        0.00000000        0.00000000        7.93641020
Ni       -1.24708655       -1.24708655        6.17276349
Ni        0.00000000        0.00000000        4.40911678
Ni       -1.24708655       -1.24708655        2.64547007
Ni        0.00000000        0.00000000        0.88182336
Ni       -1.24708655       -1.24708655       -0.88182336
Ni        0.00000000        0.00000000       -2.64547007
Ni       -1.24708655       -1.24708655       -4.40911678
Ni        0.00000000        0.00000000       -6.17276349
Ni       -1.24708655       -1.24708655       -7.93641020
