  5
Ni5  
Ni        0.00000000        0.00000000        3.52729342
Ni       -1.24708655       -1.24708655        1.76364671
Ni        0.00000000        0.00000000        0.00000000
Ni       -1.24708655       -1.24708655       -1.76364671
Ni        0.00000000        0.00000000       -3.52729342
