  7
Ni7  
Ni        0.00000000        0.00000000        5.29094013
Ni       -1.24708655       -1.24708655        3.52729342
Ni        0.00000000        0.00000000        1.76364671
Ni       -1.24708655       -1.24708655        0.00000000
Ni        0.00000000        0.00000000       -1.76364671
Ni       -1.24708655       -1.24708655       -3.52729342
Ni        0.00000000        0.00000000       -5.29094013
