
 ******************************************************************
 *** This program generates an fcc (110) clean surface          ***
 ******************************************************************


 a_0=         6.66562106
 Inter layer distance :         3.33281053

 Slab of  9 ML
 Vacuum region corresponds to  6 ML
 Slabs are separated by  20.00 Bohr
 Slabs are separated by  10.58 Angstrom

 Primitive lattice vectors:
      4.713305852346      0.000000000000      0.000000000000
      0.000000000000      4.713305852346      0.000000000000
      0.000000000000      0.000000000000     49.992157950000

 Supercell lattice vectors:
      4.713305852346      0.000000000000      0.000000000000
      0.000000000000      4.713305852346      0.000000000000
      0.000000000000      0.000000000000     49.992157950000
 Number of atoms:    9
 Atoms: 
      0.000000000000      0.000000000000      0.000000000000
     -2.356652926173     -2.356652926173     -3.332810530000
      0.000000000000      0.000000000000     -6.665621060000
     -2.356652926173     -2.356652926173     -9.998431590000
      0.000000000000      0.000000000000    -13.331242120000
     -2.356652926173     -2.356652926173    -16.664052650000
      0.000000000000      0.000000000000    -19.996863180000
     -2.356652926173     -2.356652926173    -23.329673710000
      0.000000000000      0.000000000000    -26.662484240000

 Atoms (center of the slab is set to the origin):
      0.000000000000      0.000000000000     13.331242120000
     -2.356652926173     -2.356652926173      9.998431590000
      0.000000000000      0.000000000000      6.665621060000
     -2.356652926173     -2.356652926173      3.332810530000
      0.000000000000      0.000000000000      0.000000000000
     -2.356652926173     -2.356652926173     -3.332810530000
      0.000000000000      0.000000000000     -6.665621060000
     -2.356652926173     -2.356652926173     -9.998431590000
      0.000000000000      0.000000000000    -13.331242120000
