
 ******************************************************************
 *** This program generates an fcc (111) 1x1 clean surface      ***
 ******************************************************************


 a_0=         6.88149010
 a  =         4.86594831

 Slab of  6 ML
 Vacuum region corresponds to 14 ML
 Slabs are separated by  59.60 Bohr
 Slabs are separated by  31.54 Angstrom

 Inter-layer distance =         3.97303016
 Slab-slab distance   =        59.59545242


 Lattice vectors:
      4.865948314378      0.000000000000      0.000000000000
     -2.432974157189      4.214034853753      0.000000000000
      0.000000000000      0.000000000000     79.460603233215

 Supercell Lattice vectors:
     19.463793257512      0.000000000000      0.000000000000
     -9.731896628756     16.856139415014      0.000000000000
      0.000000000000      0.000000000000     79.460603233215

 Surface area:     328.084412693638
 Surface area:     328.084412693638

 Volume of unit cell:   26069.785344051481

 Number of atoms:   96
 Atoms: 
      0.000000000000      0.000000000000     -0.000000000000    1    1    1
      4.865948314378      0.000000000000     -0.000000000000    1    1    1
      9.731896628756      0.000000000000     -0.000000000000    1    1    1
     14.597844943134      0.000000000000     -0.000000000000    1    1    1
     -2.432974157189      4.214034853753     -0.000000000000    1    1    1
      2.432974157189      4.214034853753     -0.000000000000    1    1    1
      7.298922471567      4.214034853753     -0.000000000000    1    1    1
     12.164870785945      4.214034853753     -0.000000000000    1    1    1
     -4.865948314378      8.428069707507     -0.000000000000    1    1    1
      0.000000000000      8.428069707507     -0.000000000000    1    1    1
      4.865948314378      8.428069707507     -0.000000000000    1    1    1
      9.731896628756      8.428069707507     -0.000000000000    1    1    1
     -7.298922471567     12.642104561260     -0.000000000000    1    1    1
     -2.432974157189     12.642104561260     -0.000000000000    1    1    1
      2.432974157189     12.642104561260     -0.000000000000    1    1    1
      7.298922471567     12.642104561260     -0.000000000000    1    1    1
      0.000000000000      2.809356569169     -3.973030161661    1    1    1
      4.865948314378      2.809356569169     -3.973030161661    1    1    1
      9.731896628756      2.809356569169     -3.973030161661    1    1    1
     14.597844943134      2.809356569169     -3.973030161661    1    1    1
     -2.432974157189      7.023391422922     -3.973030161661    1    1    1
      2.432974157189      7.023391422922     -3.973030161661    1    1    1
      7.298922471567      7.023391422922     -3.973030161661    1    1    1
     12.164870785945      7.023391422922     -3.973030161661    1    1    1
     -4.865948314378     11.237426276676     -3.973030161661    1    1    1
      0.000000000000     11.237426276676     -3.973030161661    1    1    1
      4.865948314378     11.237426276676     -3.973030161661    1    1    1
      9.731896628756     11.237426276676     -3.973030161661    1    1    1
     -7.298922471567     15.451461130429     -3.973030161661    1    1    1
     -2.432974157189     15.451461130429     -3.973030161661    1    1    1
      2.432974157189     15.451461130429     -3.973030161661    1    1    1
      7.298922471567     15.451461130429     -3.973030161661    1    1    1
      0.000000000000     -2.809356569169     -7.946060323321    1    1    1
      4.865948314378     -2.809356569169     -7.946060323321    1    1    1
      9.731896628756     -2.809356569169     -7.946060323321    1    1    1
     14.597844943134     -2.809356569169     -7.946060323321    1    1    1
     -2.432974157189      1.404678284584     -7.946060323321    1    1    1
      2.432974157189      1.404678284584     -7.946060323321    1    1    1
      7.298922471567      1.404678284584     -7.946060323321    1    1    1
     12.164870785945      1.404678284584     -7.946060323321    1    1    1
     -4.865948314378      5.618713138338     -7.946060323321    1    1    1
      0.000000000000      5.618713138338     -7.946060323321    1    1    1
      4.865948314378      5.618713138338     -7.946060323321    1    1    1
      9.731896628756      5.618713138338     -7.946060323321    1    1    1
     -7.298922471567      9.832747992091     -7.946060323321    1    1    1
     -2.432974157189      9.832747992091     -7.946060323321    1    1    1
      2.432974157189      9.832747992091     -7.946060323321    1    1    1
      7.298922471567      9.832747992091     -7.946060323321    1    1    1
      0.000000000000      0.000000000000    -11.919090484982    1    1    1
      4.865948314378      0.000000000000    -11.919090484982    1    1    1
      9.731896628756      0.000000000000    -11.919090484982    1    1    1
     14.597844943134      0.000000000000    -11.919090484982    1    1    1
     -2.432974157189      4.214034853753    -11.919090484982    1    1    1
      2.432974157189      4.214034853753    -11.919090484982    1    1    1
      7.298922471567      4.214034853753    -11.919090484982    1    1    1
     12.164870785945      4.214034853753    -11.919090484982    1    1    1
     -4.865948314378      8.428069707507    -11.919090484982    1    1    1
      0.000000000000      8.428069707507    -11.919090484982    1    1    1
      4.865948314378      8.428069707507    -11.919090484982    1    1    1
      9.731896628756      8.428069707507    -11.919090484982    1    1    1
     -7.298922471567     12.642104561260    -11.919090484982    1    1    1
     -2.432974157189     12.642104561260    -11.919090484982    1    1    1
      2.432974157189     12.642104561260    -11.919090484982    1    1    1
      7.298922471567     12.642104561260    -11.919090484982    1    1    1
      0.000000000000      2.809356569169    -15.892120646643    1    1    1
      4.865948314378      2.809356569169    -15.892120646643    1    1    1
      9.731896628756      2.809356569169    -15.892120646643    1    1    1
     14.597844943134      2.809356569169    -15.892120646643    1    1    1
     -2.432974157189      7.023391422922    -15.892120646643    1    1    1
      2.432974157189      7.023391422922    -15.892120646643    1    1    1
      7.298922471567      7.023391422922    -15.892120646643    1    1    1
     12.164870785945      7.023391422922    -15.892120646643    1    1    1
     -4.865948314378     11.237426276676    -15.892120646643    1    1    1
      0.000000000000     11.237426276676    -15.892120646643    1    1    1
      4.865948314378     11.237426276676    -15.892120646643    1    1    1
      9.731896628756     11.237426276676    -15.892120646643    1    1    1
     -7.298922471567     15.451461130429    -15.892120646643    1    1    1
     -2.432974157189     15.451461130429    -15.892120646643    1    1    1
      2.432974157189     15.451461130429    -15.892120646643    1    1    1
      7.298922471567     15.451461130429    -15.892120646643    1    1    1
      0.000000000000     -2.809356569169    -19.865150808304    1    1    1
      4.865948314378     -2.809356569169    -19.865150808304    1    1    1
      9.731896628756     -2.809356569169    -19.865150808304    1    1    1
     14.597844943134     -2.809356569169    -19.865150808304    1    1    1
     -2.432974157189      1.404678284584    -19.865150808304    1    1    1
      2.432974157189      1.404678284584    -19.865150808304    1    1    1
      7.298922471567      1.404678284584    -19.865150808304    1    1    1
     12.164870785945      1.404678284584    -19.865150808304    1    1    1
     -4.865948314378      5.618713138338    -19.865150808304    1    1    1
      0.000000000000      5.618713138338    -19.865150808304    1    1    1
      4.865948314378      5.618713138338    -19.865150808304    1    1    1
      9.731896628756      5.618713138338    -19.865150808304    1    1    1
     -7.298922471567      9.832747992091    -19.865150808304    1    1    1
     -2.432974157189      9.832747992091    -19.865150808304    1    1    1
      2.432974157189      9.832747992091    -19.865150808304    1    1    1
      7.298922471567      9.832747992091    -19.865150808304    1    1    1

 Atomic coordinates in reduced coordinate 
      0.000000000000      0.000000000000      0.000000000000    1    1    1
      0.250000000000      0.000000000000      0.000000000000    1    1    1
      0.500000000000      0.000000000000      0.000000000000    1    1    1
      0.750000000000      0.000000000000      0.000000000000    1    1    1
     -0.000000000000      0.250000000000      0.000000000000    1    1    1
      0.250000000000      0.250000000000      0.000000000000    1    1    1
      0.500000000000      0.250000000000      0.000000000000    1    1    1
      0.750000000000      0.250000000000      0.000000000000    1    1    1
     -0.000000000000      0.500000000000      0.000000000000    1    1    1
      0.250000000000      0.500000000000      0.000000000000    1    1    1
      0.500000000000      0.500000000000      0.000000000000    1    1    1
      0.750000000000      0.500000000000      0.000000000000    1    1    1
     -0.000000000000      0.750000000000      0.000000000000    1    1    1
      0.250000000000      0.750000000000      0.000000000000    1    1    1
      0.500000000000      0.750000000000      0.000000000000    1    1    1
      0.750000000000      0.750000000000      0.000000000000    1    1    1
      0.083333333333      0.166666666667     -0.050000000000    1    1    1
      0.333333333333      0.166666666667     -0.050000000000    1    1    1
      0.583333333333      0.166666666667     -0.050000000000    1    1    1
      0.833333333333      0.166666666667     -0.050000000000    1    1    1
      0.083333333333      0.416666666667     -0.050000000000    1    1    1
      0.333333333333      0.416666666667     -0.050000000000    1    1    1
      0.583333333333      0.416666666667     -0.050000000000    1    1    1
      0.833333333333      0.416666666667     -0.050000000000    1    1    1
      0.083333333333      0.666666666667     -0.050000000000    1    1    1
      0.333333333333      0.666666666667     -0.050000000000    1    1    1
      0.583333333333      0.666666666667     -0.050000000000    1    1    1
      0.833333333333      0.666666666667     -0.050000000000    1    1    1
      0.083333333333      0.916666666667     -0.050000000000    1    1    1
      0.333333333333      0.916666666667     -0.050000000000    1    1    1
      0.583333333333      0.916666666667     -0.050000000000    1    1    1
      0.833333333333      0.916666666667     -0.050000000000    1    1    1
     -0.083333333333     -0.166666666667     -0.100000000000    1    1    1
      0.166666666667     -0.166666666667     -0.100000000000    1    1    1
      0.416666666667     -0.166666666667     -0.100000000000    1    1    1
      0.666666666667     -0.166666666667     -0.100000000000    1    1    1
     -0.083333333333      0.083333333333     -0.100000000000    1    1    1
      0.166666666667      0.083333333333     -0.100000000000    1    1    1
      0.416666666667      0.083333333333     -0.100000000000    1    1    1
      0.666666666667      0.083333333333     -0.100000000000    1    1    1
     -0.083333333333      0.333333333333     -0.100000000000    1    1    1
      0.166666666667      0.333333333333     -0.100000000000    1    1    1
      0.416666666667      0.333333333333     -0.100000000000    1    1    1
      0.666666666667      0.333333333333     -0.100000000000    1    1    1
     -0.083333333333      0.583333333333     -0.100000000000    1    1    1
      0.166666666667      0.583333333333     -0.100000000000    1    1    1
      0.416666666667      0.583333333333     -0.100000000000    1    1    1
      0.666666666667      0.583333333333     -0.100000000000    1    1    1
      0.000000000000      0.000000000000     -0.150000000000    1    1    1
      0.250000000000      0.000000000000     -0.150000000000    1    1    1
      0.500000000000      0.000000000000     -0.150000000000    1    1    1
      0.750000000000      0.000000000000     -0.150000000000    1    1    1
     -0.000000000000      0.250000000000     -0.150000000000    1    1    1
      0.250000000000      0.250000000000     -0.150000000000    1    1    1
      0.500000000000      0.250000000000     -0.150000000000    1    1    1
      0.750000000000      0.250000000000     -0.150000000000    1    1    1
     -0.000000000000      0.500000000000     -0.150000000000    1    1    1
      0.250000000000      0.500000000000     -0.150000000000    1    1    1
      0.500000000000      0.500000000000     -0.150000000000    1    1    1
      0.750000000000      0.500000000000     -0.150000000000    1    1    1
     -0.000000000000      0.750000000000     -0.150000000000    1    1    1
      0.250000000000      0.750000000000     -0.150000000000    1    1    1
      0.500000000000      0.750000000000     -0.150000000000    1    1    1
      0.750000000000      0.750000000000     -0.150000000000    1    1    1
      0.083333333333      0.166666666667     -0.200000000000    1    1    1
      0.333333333333      0.166666666667     -0.200000000000    1    1    1
      0.583333333333      0.166666666667     -0.200000000000    1    1    1
      0.833333333333      0.166666666667     -0.200000000000    1    1    1
      0.083333333333      0.416666666667     -0.200000000000    1    1    1
      0.333333333333      0.416666666667     -0.200000000000    1    1    1
      0.583333333333      0.416666666667     -0.200000000000    1    1    1
      0.833333333333      0.416666666667     -0.200000000000    1    1    1
      0.083333333333      0.666666666667     -0.200000000000    1    1    1
      0.333333333333      0.666666666667     -0.200000000000    1    1    1
      0.583333333333      0.666666666667     -0.200000000000    1    1    1
      0.833333333333      0.666666666667     -0.200000000000    1    1    1
      0.083333333333      0.916666666667     -0.200000000000    1    1    1
      0.333333333333      0.916666666667     -0.200000000000    1    1    1
      0.583333333333      0.916666666667     -0.200000000000    1    1    1
      0.833333333333      0.916666666667     -0.200000000000    1    1    1
     -0.083333333333     -0.166666666667     -0.250000000000    1    1    1
      0.166666666667     -0.166666666667     -0.250000000000    1    1    1
      0.416666666667     -0.166666666667     -0.250000000000    1    1    1
      0.666666666667     -0.166666666667     -0.250000000000    1    1    1
     -0.083333333333      0.083333333333     -0.250000000000    1    1    1
      0.166666666667      0.083333333333     -0.250000000000    1    1    1
      0.416666666667      0.083333333333     -0.250000000000    1    1    1
      0.666666666667      0.083333333333     -0.250000000000    1    1    1
     -0.083333333333      0.333333333333     -0.250000000000    1    1    1
      0.166666666667      0.333333333333     -0.250000000000    1    1    1
      0.416666666667      0.333333333333     -0.250000000000    1    1    1
      0.666666666667      0.333333333333     -0.250000000000    1    1    1
     -0.083333333333      0.583333333333     -0.250000000000    1    1    1
      0.166666666667      0.583333333333     -0.250000000000    1    1    1
      0.416666666667      0.583333333333     -0.250000000000    1    1    1
      0.666666666667      0.583333333333     -0.250000000000    1    1    1

 Atoms (center of the slab is set to the origin):
      0.000000000000      0.000000000000      9.932575404152    1    1    1
      4.865948314378      0.000000000000      9.932575404152    1    1    1
      9.731896628756      0.000000000000      9.932575404152    1    1    1
     14.597844943134      0.000000000000      9.932575404152    1    1    1
     -2.432974157189      4.214034853753      9.932575404152    1    1    1
      2.432974157189      4.214034853753      9.932575404152    1    1    1
      7.298922471567      4.214034853753      9.932575404152    1    1    1
     12.164870785945      4.214034853753      9.932575404152    1    1    1
     -4.865948314378      8.428069707507      9.932575404152    1    1    1
      0.000000000000      8.428069707507      9.932575404152    1    1    1
      4.865948314378      8.428069707507      9.932575404152    1    1    1
      9.731896628756      8.428069707507      9.932575404152    1    1    1
     -7.298922471567     12.642104561260      9.932575404152    1    1    1
     -2.432974157189     12.642104561260      9.932575404152    1    1    1
      2.432974157189     12.642104561260      9.932575404152    1    1    1
      7.298922471567     12.642104561260      9.932575404152    1    1    1
      0.000000000000      2.809356569169      5.959545242491    1    1    1
      4.865948314378      2.809356569169      5.959545242491    1    1    1
      9.731896628756      2.809356569169      5.959545242491    1    1    1
     14.597844943134      2.809356569169      5.959545242491    1    1    1
     -2.432974157189      7.023391422922      5.959545242491    1    1    1
      2.432974157189      7.023391422922      5.959545242491    1    1    1
      7.298922471567      7.023391422922      5.959545242491    1    1    1
     12.164870785945      7.023391422922      5.959545242491    1    1    1
     -4.865948314378     11.237426276676      5.959545242491    1    1    1
      0.000000000000     11.237426276676      5.959545242491    1    1    1
      4.865948314378     11.237426276676      5.959545242491    1    1    1
      9.731896628756     11.237426276676      5.959545242491    1    1    1
     -7.298922471567     15.451461130429      5.959545242491    1    1    1
     -2.432974157189     15.451461130429      5.959545242491    1    1    1
      2.432974157189     15.451461130429      5.959545242491    1    1    1
      7.298922471567     15.451461130429      5.959545242491    1    1    1
      0.000000000000     -2.809356569169      1.986515080830    1    1    1
      4.865948314378     -2.809356569169      1.986515080830    1    1    1
      9.731896628756     -2.809356569169      1.986515080830    1    1    1
     14.597844943134     -2.809356569169      1.986515080830    1    1    1
     -2.432974157189      1.404678284584      1.986515080830    1    1    1
      2.432974157189      1.404678284584      1.986515080830    1    1    1
      7.298922471567      1.404678284584      1.986515080830    1    1    1
     12.164870785945      1.404678284584      1.986515080830    1    1    1
     -4.865948314378      5.618713138338      1.986515080830    1    1    1
      0.000000000000      5.618713138338      1.986515080830    1    1    1
      4.865948314378      5.618713138338      1.986515080830    1    1    1
      9.731896628756      5.618713138338      1.986515080830    1    1    1
     -7.298922471567      9.832747992091      1.986515080830    1    1    1
     -2.432974157189      9.832747992091      1.986515080830    1    1    1
      2.432974157189      9.832747992091      1.986515080830    1    1    1
      7.298922471567      9.832747992091      1.986515080830    1    1    1
      0.000000000000      0.000000000000     -1.986515080830    1    1    1
      4.865948314378      0.000000000000     -1.986515080830    1    1    1
      9.731896628756      0.000000000000     -1.986515080830    1    1    1
     14.597844943134      0.000000000000     -1.986515080830    1    1    1
     -2.432974157189      4.214034853753     -1.986515080830    1    1    1
      2.432974157189      4.214034853753     -1.986515080830    1    1    1
      7.298922471567      4.214034853753     -1.986515080830    1    1    1
     12.164870785945      4.214034853753     -1.986515080830    1    1    1
     -4.865948314378      8.428069707507     -1.986515080830    1    1    1
      0.000000000000      8.428069707507     -1.986515080830    1    1    1
      4.865948314378      8.428069707507     -1.986515080830    1    1    1
      9.731896628756      8.428069707507     -1.986515080830    1    1    1
     -7.298922471567     12.642104561260     -1.986515080830    1    1    1
     -2.432974157189     12.642104561260     -1.986515080830    1    1    1
      2.432974157189     12.642104561260     -1.986515080830    1    1    1
      7.298922471567     12.642104561260     -1.986515080830    1    1    1
      0.000000000000      2.809356569169     -5.959545242491    1    1    1
      4.865948314378      2.809356569169     -5.959545242491    1    1    1
      9.731896628756      2.809356569169     -5.959545242491    1    1    1
     14.597844943134      2.809356569169     -5.959545242491    1    1    1
     -2.432974157189      7.023391422922     -5.959545242491    1    1    1
      2.432974157189      7.023391422922     -5.959545242491    1    1    1
      7.298922471567      7.023391422922     -5.959545242491    1    1    1
     12.164870785945      7.023391422922     -5.959545242491    1    1    1
     -4.865948314378     11.237426276676     -5.959545242491    1    1    1
      0.000000000000     11.237426276676     -5.959545242491    1    1    1
      4.865948314378     11.237426276676     -5.959545242491    1    1    1
      9.731896628756     11.237426276676     -5.959545242491    1    1    1
     -7.298922471567     15.451461130429     -5.959545242491    1    1    1
     -2.432974157189     15.451461130429     -5.959545242491    1    1    1
      2.432974157189     15.451461130429     -5.959545242491    1    1    1
      7.298922471567     15.451461130429     -5.959545242491    1    1    1
      0.000000000000     -2.809356569169     -9.932575404152    1    1    1
      4.865948314378     -2.809356569169     -9.932575404152    1    1    1
      9.731896628756     -2.809356569169     -9.932575404152    1    1    1
     14.597844943134     -2.809356569169     -9.932575404152    1    1    1
     -2.432974157189      1.404678284584     -9.932575404152    1    1    1
      2.432974157189      1.404678284584     -9.932575404152    1    1    1
      7.298922471567      1.404678284584     -9.932575404152    1    1    1
     12.164870785945      1.404678284584     -9.932575404152    1    1    1
     -4.865948314378      5.618713138338     -9.932575404152    1    1    1
      0.000000000000      5.618713138338     -9.932575404152    1    1    1
      4.865948314378      5.618713138338     -9.932575404152    1    1    1
      9.731896628756      5.618713138338     -9.932575404152    1    1    1
     -7.298922471567      9.832747992091     -9.932575404152    1    1    1
     -2.432974157189      9.832747992091     -9.932575404152    1    1    1
      2.432974157189      9.832747992091     -9.932575404152    1    1    1
      7.298922471567      9.832747992091     -9.932575404152    1    1    1
