  6
Pt6  
Pt        0.00000000        0.00000000        4.96427568
Pt       -1.40410920       -1.40410920        2.97856541
Pt        0.00000000        0.00000000        0.99285514
Pt       -1.40410920       -1.40410920       -0.99285514
Pt        0.00000000        0.00000000       -2.97856541
Pt       -1.40410920       -1.40410920       -4.96427568
