
 ******************************************************************
 *** This program generates an fcc (110) clean surface          ***
 ******************************************************************


 a_0=         7.50490000
 Inter layer distance :         3.75245000

 Slab of  4 ML
 Vacuum region corresponds to  6 ML
 Slabs are separated by  22.51 Bohr
 Slabs are separated by  11.91 Angstrom

 Primitive lattice vectors:
        5.30676568        0.00000000        0.00000000
        0.00000000        5.30676568        0.00000000
        0.00000000        0.00000000       37.52450000

 Supercell lattice vectors:
       10.61353136        0.00000000        0.00000000
        0.00000000       10.61353136        0.00000000
        0.00000000        0.00000000       37.52450000
 Number of atoms:   16
 Atoms: 
      0.000000000000      0.000000000000      0.000000000000
      5.306765682127      0.000000000000      0.000000000000
      0.000000000000      5.306765682127      0.000000000000
      5.306765682127      5.306765682127      0.000000000000
     -2.653382841063     -2.653382841063     -3.752450000000
      2.653382841063     -2.653382841063     -3.752450000000
     -2.653382841063      2.653382841063     -3.752450000000
      2.653382841063      2.653382841063     -3.752450000000
      0.000000000000      0.000000000000     -7.504900000000
      5.306765682127      0.000000000000     -7.504900000000
      0.000000000000      5.306765682127     -7.504900000000
      5.306765682127      5.306765682127     -7.504900000000
     -2.653382841063     -2.653382841063    -11.257350000000
      2.653382841063     -2.653382841063    -11.257350000000
     -2.653382841063      2.653382841063    -11.257350000000
      2.653382841063      2.653382841063    -11.257350000000

 Atoms (center of the slab is set to the origin):
      0.000000000000      0.000000000000      5.628675000000
      5.306765682127      0.000000000000      5.628675000000
      0.000000000000      5.306765682127      5.628675000000
      5.306765682127      5.306765682127      5.628675000000
     -2.653382841063     -2.653382841063      1.876225000000
      2.653382841063     -2.653382841063      1.876225000000
     -2.653382841063      2.653382841063      1.876225000000
      2.653382841063      2.653382841063      1.876225000000
      0.000000000000      0.000000000000     -1.876225000000
      5.306765682127      0.000000000000     -1.876225000000
      0.000000000000      5.306765682127     -1.876225000000
      5.306765682127      5.306765682127     -1.876225000000
     -2.653382841063     -2.653382841063     -5.628675000000
      2.653382841063     -2.653382841063     -5.628675000000
     -2.653382841063      2.653382841063     -5.628675000000
      2.653382841063      2.653382841063     -5.628675000000
