
 ******************************************************************
 *** This program generates an fcc (110) clean surface          ***
 ******************************************************************


 a_0=         7.46170000
 Inter layer distance :         3.73085000

 Slab of  3 ML
 Vacuum region corresponds to  6 ML
 Slabs are separated by  22.39 Bohr
 Slabs are separated by  11.85 Angstrom

 Primitive lattice vectors:
        5.27621867        0.00000000        0.00000000
        0.00000000        5.27621867        0.00000000
        0.00000000        0.00000000       33.57765000

 Supercell lattice vectors:
       10.55243734        0.00000000        0.00000000
        0.00000000       10.55243734        0.00000000
        0.00000000        0.00000000       33.57765000
 Number of atoms:   12
 Atoms: 
        0.00000000        0.00000000        0.00000000
        5.27621867        0.00000000        0.00000000
        0.00000000        5.27621867        0.00000000
        5.27621867        5.27621867        0.00000000
       -2.63810933       -2.63810933       -3.73085000
        2.63810933       -2.63810933       -3.73085000
       -2.63810933        2.63810933       -3.73085000
        2.63810933        2.63810933       -3.73085000
        0.00000000        0.00000000       -7.46170000
        5.27621867        0.00000000       -7.46170000
        0.00000000        5.27621867       -7.46170000
        5.27621867        5.27621867       -7.46170000

 Atoms (center of the slab is set to the origin):
        0.00000000        0.00000000        3.73085000
        5.27621867        0.00000000        3.73085000
        0.00000000        5.27621867        3.73085000
        5.27621867        5.27621867        3.73085000
       -2.63810933       -2.63810933        0.00000000
        2.63810933       -2.63810933        0.00000000
       -2.63810933        2.63810933        0.00000000
        2.63810933        2.63810933        0.00000000
        0.00000000        0.00000000       -3.73085000
        5.27621867        0.00000000       -3.73085000
        0.00000000        5.27621867       -3.73085000
        5.27621867        5.27621867       -3.73085000
