
 ******************************************************************
 *** This program generates an fcc (110) clean surface          ***
 ******************************************************************


 a_0=         7.50490000
 Inter layer distance :         3.75245000

 Slab of  3 ML
 Vacuum region corresponds to  6 ML
 Slabs are separated by  22.51 Bohr
 Slabs are separated by  11.91 Angstrom

 Primitive lattice vectors:
        5.30676568        0.00000000        0.00000000
        0.00000000        5.30676568        0.00000000
        0.00000000        0.00000000       33.77205000

 Supercell lattice vectors:
        5.30676568        0.00000000        0.00000000
        0.00000000        5.30676568        0.00000000
        0.00000000        0.00000000       33.77205000
 Number of atoms:    3
 Atoms: 
      0.000000000000      0.000000000000      0.000000000000
     -2.653382841063     -2.653382841063     -3.752450000000
      0.000000000000      0.000000000000     -7.504900000000

 Atoms (center of the slab is set to the origin):
      0.000000000000      0.000000000000      3.752450000000
     -2.653382841063     -2.653382841063      0.000000000000
      0.000000000000      0.000000000000     -3.752450000000
