
 ******************************************************************
 *** This program generates an fcc (100) clean surface          ***
 ******************************************************************


 a_0=         6.81756326
 Inter layer distance :         3.40878163

 Slab of  4 ML
 Vacuum region corresponds to 17 ML
 Slabs are separated by  57.95 Bohr
 Slabs are separated by  30.67 Angstrom

 Primitive lattice vectors:
      4.820745212314      0.000000000000      0.000000000000
      0.000000000000      4.820745212314      0.000000000000
      0.000000000000      0.000000000000     71.584414230000

 Supercell lattice vectors:
      4.820745212314      0.000000000000      0.000000000000
      0.000000000000      4.820745212314      0.000000000000
      0.000000000000      0.000000000000     71.584414230000
 Number of atoms:    4
 Atoms: 
      0.000000000000      0.000000000000     -0.000000000000    1    1    1
     -2.410372606157     -2.410372606157     -3.408781630000    1    1    1
      0.000000000000      0.000000000000     -6.817563260000    1    1    1
     -2.410372606157     -2.410372606157    -10.226344890000    1    1    1

 Atoms (center of the slab is set to the origin):
      0.000000000000      0.000000000000      5.113172445000    1    1    1
     -2.410372606157     -2.410372606157      1.704390815000    1    1    1
      0.000000000000      0.000000000000     -1.704390815000    1    1    1
     -2.410372606157     -2.410372606157     -5.113172445000    1    1    1
