
 ******************************************************************
 *** This program generates a graphene structure                ***
 ******************************************************************


 a_0=         4.66038212
 c_0=        37.79452249
 Inter layer distance:        18.89726125

 Slab of  1 ML
 Vacuum region corresponds to  1 ML
 Slabs are separated by  18.90 Bohr
 Slabs are separated by  10.00 Angstrom
 Size of the supercell along the z axis:  37.79 Bohr
 Size of the supercell along the z axis:  20.00 Angstrom

 Primitive lattice vectors:
      4.660382119033      0.000000000000      0.000000000000
     -2.330191059517      4.036009306425      0.000000000000
      0.000000000000      0.000000000000     37.794522492515

 Supercell lattice vectors:
     23.301910595165      0.000000000000      0.000000000000
    -11.650955297583     20.180046532127      0.000000000000
      0.000000000000      0.000000000000     37.794522492515
 Number of atoms:   50
 Atoms: 
      0.000000000000      0.000000000000      0.000000000000    1    1    1
      0.000000000000      2.690672870950      0.000000000000    1    1    1
      4.660382119033      0.000000000000      0.000000000000    1    1    1
      4.660382119033      2.690672870950      0.000000000000    1    1    1
      9.320764238066      0.000000000000      0.000000000000    1    1    1
      9.320764238066      2.690672870950      0.000000000000    1    1    1
     13.981146357099      0.000000000000      0.000000000000    1    1    1
     13.981146357099      2.690672870950      0.000000000000    1    1    1
     18.641528476132      0.000000000000      0.000000000000    1    1    1
     18.641528476132      2.690672870950      0.000000000000    1    1    1
     -2.330191059517      4.036009306425      0.000000000000    1    1    1
     -2.330191059517      6.726682177376      0.000000000000    1    1    1
      2.330191059517      4.036009306425      0.000000000000    1    1    1
      2.330191059517      6.726682177376      0.000000000000    1    1    1
      6.990573178550      4.036009306425      0.000000000000    1    1    1
      6.990573178550      6.726682177376      0.000000000000    1    1    1
     11.650955297583      4.036009306425      0.000000000000    1    1    1
     11.650955297583      6.726682177376      0.000000000000    1    1    1
     16.311337416616      4.036009306425      0.000000000000    1    1    1
     16.311337416616      6.726682177376      0.000000000000    1    1    1
     -4.660382119033      8.072018612851      0.000000000000    1    1    1
     -4.660382119033     10.762691483801      0.000000000000    1    1    1
      0.000000000000      8.072018612851      0.000000000000    1    1    1
      0.000000000000     10.762691483801      0.000000000000    1    1    1
      4.660382119033      8.072018612851      0.000000000000    1    1    1
      4.660382119033     10.762691483801      0.000000000000    1    1    1
      9.320764238066      8.072018612851      0.000000000000    1    1    1
      9.320764238066     10.762691483801      0.000000000000    1    1    1
     13.981146357099      8.072018612851      0.000000000000    1    1    1
     13.981146357099     10.762691483801      0.000000000000    1    1    1
     -6.990573178550     12.108027919276      0.000000000000    1    1    1
     -6.990573178550     14.798700790226      0.000000000000    1    1    1
     -2.330191059517     12.108027919276      0.000000000000    1    1    1
     -2.330191059517     14.798700790226      0.000000000000    1    1    1
      2.330191059517     12.108027919276      0.000000000000    1    1    1
      2.330191059517     14.798700790226      0.000000000000    1    1    1
      6.990573178550     12.108027919276      0.000000000000    1    1    1
      6.990573178550     14.798700790226      0.000000000000    1    1    1
     11.650955297583     12.108027919276      0.000000000000    1    1    1
     11.650955297583     14.798700790226      0.000000000000    1    1    1
     -9.320764238066     16.144037225701      0.000000000000    1    1    1
     -9.320764238066     18.834710096652      0.000000000000    1    1    1
     -4.660382119033     16.144037225701      0.000000000000    1    1    1
     -4.660382119033     18.834710096652      0.000000000000    1    1    1
      0.000000000000     16.144037225701      0.000000000000    1    1    1
      0.000000000000     18.834710096652      0.000000000000    1    1    1
      4.660382119033     16.144037225701      0.000000000000    1    1    1
      4.660382119033     18.834710096652      0.000000000000    1    1    1
      9.320764238066     16.144037225701      0.000000000000    1    1    1
      9.320764238066     18.834710096652      0.000000000000    1    1    1

 Atoms (center of the slab is set to the origin):
      0.000000000000      0.000000000000      0.000000000000    1    1    1
      0.000000000000      2.690672870950      0.000000000000    1    1    1
      4.660382119033      0.000000000000      0.000000000000    1    1    1
      4.660382119033      2.690672870950      0.000000000000    1    1    1
      9.320764238066      0.000000000000      0.000000000000    1    1    1
      9.320764238066      2.690672870950      0.000000000000    1    1    1
     13.981146357099      0.000000000000      0.000000000000    1    1    1
     13.981146357099      2.690672870950      0.000000000000    1    1    1
     18.641528476132      0.000000000000      0.000000000000    1    1    1
     18.641528476132      2.690672870950      0.000000000000    1    1    1
     -2.330191059517      4.036009306425      0.000000000000    1    1    1
     -2.330191059517      6.726682177376      0.000000000000    1    1    1
      2.330191059517      4.036009306425      0.000000000000    1    1    1
      2.330191059517      6.726682177376      0.000000000000    1    1    1
      6.990573178550      4.036009306425      0.000000000000    1    1    1
      6.990573178550      6.726682177376      0.000000000000    1    1    1
     11.650955297583      4.036009306425      0.000000000000    1    1    1
     11.650955297583      6.726682177376      0.000000000000    1    1    1
     16.311337416616      4.036009306425      0.000000000000    1    1    1
     16.311337416616      6.726682177376      0.000000000000    1    1    1
     -4.660382119033      8.072018612851      0.000000000000    1    1    1
     -4.660382119033     10.762691483801      0.000000000000    1    1    1
      0.000000000000      8.072018612851      0.000000000000    1    1    1
      0.000000000000     10.762691483801      0.000000000000    1    1    1
      4.660382119033      8.072018612851      0.000000000000    1    1    1
      4.660382119033     10.762691483801      0.000000000000    1    1    1
      9.320764238066      8.072018612851      0.000000000000    1    1    1
      9.320764238066     10.762691483801      0.000000000000    1    1    1
     13.981146357099      8.072018612851      0.000000000000    1    1    1
     13.981146357099     10.762691483801      0.000000000000    1    1    1
     -6.990573178550     12.108027919276      0.000000000000    1    1    1
     -6.990573178550     14.798700790226      0.000000000000    1    1    1
     -2.330191059517     12.108027919276      0.000000000000    1    1    1
     -2.330191059517     14.798700790226      0.000000000000    1    1    1
      2.330191059517     12.108027919276      0.000000000000    1    1    1
      2.330191059517     14.798700790226      0.000000000000    1    1    1
      6.990573178550     12.108027919276      0.000000000000    1    1    1
      6.990573178550     14.798700790226      0.000000000000    1    1    1
     11.650955297583     12.108027919276      0.000000000000    1    1    1
     11.650955297583     14.798700790226      0.000000000000    1    1    1
     -9.320764238066     16.144037225701      0.000000000000    1    1    1
     -9.320764238066     18.834710096652      0.000000000000    1    1    1
     -4.660382119033     16.144037225701      0.000000000000    1    1    1
     -4.660382119033     18.834710096652      0.000000000000    1    1    1
      0.000000000000     16.144037225701      0.000000000000    1    1    1
      0.000000000000     18.834710096652      0.000000000000    1    1    1
      4.660382119033     16.144037225701      0.000000000000    1    1    1
      4.660382119033     18.834710096652      0.000000000000    1    1    1
      9.320764238066     16.144037225701      0.000000000000    1    1    1
      9.320764238066     18.834710096652      0.000000000000    1    1    1
