
 ******************************************************************
 *** This program generates an fcc (111) 1x1 clean surface      ***
 ******************************************************************


 a_0=         7.73247902
 a  =         5.46768835

 Slab of  3 ML
 Vacuum region corresponds to  6 ML
 Slabs are separated by  31.25 Bohr
 Slabs are separated by  16.54 Angstrom

 Inter-layer distance =         4.46434884
 Slab-slab distance   =        31.25044190


 Lattice vectors:
      5.467688349986      0.000000000000      0.000000000000
     -2.733844174993      4.735157011064      0.000000000000
      0.000000000000      0.000000000000     40.179139590074

 Supercell Lattice vectors:
     32.806130099914      0.000000000000      0.000000000000
    -16.403065049957     28.410942066382      0.000000000000
      0.000000000000      0.000000000000     40.179139590074

 Surface area:     932.053061690851
 Surface area:     932.053061690851

 Volume of unit cell:   37449.090071032922

 Number of atoms:  108
 Atoms: 
      0.000000000000      0.000000000000     -0.000000000000    1    1    1
      5.467688349986      0.000000000000     -0.000000000000    1    1    1
     10.935376699971      0.000000000000     -0.000000000000    1    1    1
     16.403065049957      0.000000000000     -0.000000000000    1    1    1
     21.870753399942      0.000000000000     -0.000000000000    1    1    1
     27.338441749928      0.000000000000     -0.000000000000    1    1    1
     -2.733844174993      4.735157011064     -0.000000000000    1    1    1
      2.733844174993      4.735157011064     -0.000000000000    1    1    1
      8.201532524978      4.735157011064     -0.000000000000    1    1    1
     13.669220874964      4.735157011064     -0.000000000000    1    1    1
     19.136909224950      4.735157011064     -0.000000000000    1    1    1
     24.604597574935      4.735157011064     -0.000000000000    1    1    1
     -5.467688349986      9.470314022127     -0.000000000000    1    1    1
      0.000000000000      9.470314022127     -0.000000000000    1    1    1
      5.467688349986      9.470314022127     -0.000000000000    1    1    1
     10.935376699971      9.470314022127     -0.000000000000    1    1    1
     16.403065049957      9.470314022127     -0.000000000000    1    1    1
     21.870753399942      9.470314022127     -0.000000000000    1    1    1
     -8.201532524978     14.205471033191     -0.000000000000    1    1    1
     -2.733844174993     14.205471033191     -0.000000000000    1    1    1
      2.733844174993     14.205471033191     -0.000000000000    1    1    1
      8.201532524978     14.205471033191     -0.000000000000    1    1    1
     13.669220874964     14.205471033191     -0.000000000000    1    1    1
     19.136909224950     14.205471033191     -0.000000000000    1    1    1
    -10.935376699971     18.940628044255     -0.000000000000    1    1    1
     -5.467688349986     18.940628044255     -0.000000000000    1    1    1
      0.000000000000     18.940628044255     -0.000000000000    1    1    1
      5.467688349986     18.940628044255     -0.000000000000    1    1    1
     10.935376699971     18.940628044255     -0.000000000000    1    1    1
     16.403065049957     18.940628044255     -0.000000000000    1    1    1
    -13.669220874964     23.675785055319     -0.000000000000    1    1    1
     -8.201532524978     23.675785055319     -0.000000000000    1    1    1
     -2.733844174993     23.675785055319     -0.000000000000    1    1    1
      2.733844174993     23.675785055319     -0.000000000000    1    1    1
      8.201532524978     23.675785055319     -0.000000000000    1    1    1
     13.669220874964     23.675785055319     -0.000000000000    1    1    1
      0.000000000000      3.156771340709     -4.464348843342    1    1    1
      5.467688349986      3.156771340709     -4.464348843342    1    1    1
     10.935376699971      3.156771340709     -4.464348843342    1    1    1
     16.403065049957      3.156771340709     -4.464348843342    1    1    1
     21.870753399942      3.156771340709     -4.464348843342    1    1    1
     27.338441749928      3.156771340709     -4.464348843342    1    1    1
     -2.733844174993      7.891928351773     -4.464348843342    1    1    1
      2.733844174993      7.891928351773     -4.464348843342    1    1    1
      8.201532524978      7.891928351773     -4.464348843342    1    1    1
     13.669220874964      7.891928351773     -4.464348843342    1    1    1
     19.136909224950      7.891928351773     -4.464348843342    1    1    1
     24.604597574935      7.891928351773     -4.464348843342    1    1    1
     -5.467688349986     12.627085362837     -4.464348843342    1    1    1
      0.000000000000     12.627085362837     -4.464348843342    1    1    1
      5.467688349986     12.627085362837     -4.464348843342    1    1    1
     10.935376699971     12.627085362837     -4.464348843342    1    1    1
     16.403065049957     12.627085362837     -4.464348843342    1    1    1
     21.870753399942     12.627085362837     -4.464348843342    1    1    1
     -8.201532524978     17.362242373900     -4.464348843342    1    1    1
     -2.733844174993     17.362242373900     -4.464348843342    1    1    1
      2.733844174993     17.362242373900     -4.464348843342    1    1    1
      8.201532524978     17.362242373900     -4.464348843342    1    1    1
     13.669220874964     17.362242373900     -4.464348843342    1    1    1
     19.136909224950     17.362242373900     -4.464348843342    1    1    1
    -10.935376699971     22.097399384964     -4.464348843342    1    1    1
     -5.467688349986     22.097399384964     -4.464348843342    1    1    1
      0.000000000000     22.097399384964     -4.464348843342    1    1    1
      5.467688349986     22.097399384964     -4.464348843342    1    1    1
     10.935376699971     22.097399384964     -4.464348843342    1    1    1
     16.403065049957     22.097399384964     -4.464348843342    1    1    1
    -13.669220874964     26.832556396028     -4.464348843342    1    1    1
     -8.201532524978     26.832556396028     -4.464348843342    1    1    1
     -2.733844174993     26.832556396028     -4.464348843342    1    1    1
      2.733844174993     26.832556396028     -4.464348843342    1    1    1
      8.201532524978     26.832556396028     -4.464348843342    1    1    1
     13.669220874964     26.832556396028     -4.464348843342    1    1    1
      0.000000000000     -3.156771340709     -8.928697686683    1    1    1
      5.467688349986     -3.156771340709     -8.928697686683    1    1    1
     10.935376699971     -3.156771340709     -8.928697686683    1    1    1
     16.403065049957     -3.156771340709     -8.928697686683    1    1    1
     21.870753399942     -3.156771340709     -8.928697686683    1    1    1
     27.338441749928     -3.156771340709     -8.928697686683    1    1    1
     -2.733844174993      1.578385670355     -8.928697686683    1    1    1
      2.733844174993      1.578385670355     -8.928697686683    1    1    1
      8.201532524978      1.578385670355     -8.928697686683    1    1    1
     13.669220874964      1.578385670355     -8.928697686683    1    1    1
     19.136909224950      1.578385670355     -8.928697686683    1    1    1
     24.604597574935      1.578385670355     -8.928697686683    1    1    1
     -5.467688349986      6.313542681418     -8.928697686683    1    1    1
      0.000000000000      6.313542681418     -8.928697686683    1    1    1
      5.467688349986      6.313542681418     -8.928697686683    1    1    1
     10.935376699971      6.313542681418     -8.928697686683    1    1    1
     16.403065049957      6.313542681418     -8.928697686683    1    1    1
     21.870753399942      6.313542681418     -8.928697686683    1    1    1
     -8.201532524978     11.048699692482     -8.928697686683    1    1    1
     -2.733844174993     11.048699692482     -8.928697686683    1    1    1
      2.733844174993     11.048699692482     -8.928697686683    1    1    1
      8.201532524978     11.048699692482     -8.928697686683    1    1    1
     13.669220874964     11.048699692482     -8.928697686683    1    1    1
     19.136909224950     11.048699692482     -8.928697686683    1    1    1
    -10.935376699971     15.783856703546     -8.928697686683    1    1    1
     -5.467688349986     15.783856703546     -8.928697686683    1    1    1
      0.000000000000     15.783856703546     -8.928697686683    1    1    1
      5.467688349986     15.783856703546     -8.928697686683    1    1    1
     10.935376699971     15.783856703546     -8.928697686683    1    1    1
     16.403065049957     15.783856703546     -8.928697686683    1    1    1
    -13.669220874964     20.519013714610     -8.928697686683    1    1    1
     -8.201532524978     20.519013714610     -8.928697686683    1    1    1
     -2.733844174993     20.519013714610     -8.928697686683    1    1    1
      2.733844174993     20.519013714610     -8.928697686683    1    1    1
      8.201532524978     20.519013714610     -8.928697686683    1    1    1
     13.669220874964     20.519013714610     -8.928697686683    1    1    1

 Atomic coordinates in reduced coordinate 
      0.000000000000      0.000000000000      0.000000000000    1    1    1
      0.166666666667      0.000000000000      0.000000000000    1    1    1
      0.333333333333      0.000000000000      0.000000000000    1    1    1
      0.500000000000      0.000000000000      0.000000000000    1    1    1
      0.666666666667      0.000000000000      0.000000000000    1    1    1
      0.833333333333      0.000000000000      0.000000000000    1    1    1
     -0.000000000000      0.166666666667      0.000000000000    1    1    1
      0.166666666667      0.166666666667      0.000000000000    1    1    1
      0.333333333333      0.166666666667      0.000000000000    1    1    1
      0.500000000000      0.166666666667      0.000000000000    1    1    1
      0.666666666667      0.166666666667      0.000000000000    1    1    1
      0.833333333333      0.166666666667      0.000000000000    1    1    1
     -0.000000000000      0.333333333333      0.000000000000    1    1    1
      0.166666666667      0.333333333333      0.000000000000    1    1    1
      0.333333333333      0.333333333333      0.000000000000    1    1    1
      0.500000000000      0.333333333333      0.000000000000    1    1    1
      0.666666666667      0.333333333333      0.000000000000    1    1    1
      0.833333333333      0.333333333333      0.000000000000    1    1    1
     -0.000000000000      0.500000000000      0.000000000000    1    1    1
      0.166666666667      0.500000000000      0.000000000000    1    1    1
      0.333333333333      0.500000000000      0.000000000000    1    1    1
      0.500000000000      0.500000000000      0.000000000000    1    1    1
      0.666666666667      0.500000000000      0.000000000000    1    1    1
      0.833333333333      0.500000000000      0.000000000000    1    1    1
     -0.000000000000      0.666666666667      0.000000000000    1    1    1
      0.166666666667      0.666666666667      0.000000000000    1    1    1
      0.333333333333      0.666666666667      0.000000000000    1    1    1
      0.500000000000      0.666666666667      0.000000000000    1    1    1
      0.666666666667      0.666666666667      0.000000000000    1    1    1
      0.833333333333      0.666666666667      0.000000000000    1    1    1
      0.000000000000      0.833333333333      0.000000000000    1    1    1
      0.166666666667      0.833333333333      0.000000000000    1    1    1
      0.333333333333      0.833333333333      0.000000000000    1    1    1
      0.500000000000      0.833333333333      0.000000000000    1    1    1
      0.666666666667      0.833333333333      0.000000000000    1    1    1
      0.833333333333      0.833333333333      0.000000000000    1    1    1
      0.055555555556      0.111111111111     -0.111111111111    1    1    1
      0.222222222222      0.111111111111     -0.111111111111    1    1    1
      0.388888888889      0.111111111111     -0.111111111111    1    1    1
      0.555555555556      0.111111111111     -0.111111111111    1    1    1
      0.722222222222      0.111111111111     -0.111111111111    1    1    1
      0.888888888889      0.111111111111     -0.111111111111    1    1    1
      0.055555555556      0.277777777778     -0.111111111111    1    1    1
      0.222222222222      0.277777777778     -0.111111111111    1    1    1
      0.388888888889      0.277777777778     -0.111111111111    1    1    1
      0.555555555556      0.277777777778     -0.111111111111    1    1    1
      0.722222222222      0.277777777778     -0.111111111111    1    1    1
      0.888888888889      0.277777777778     -0.111111111111    1    1    1
      0.055555555556      0.444444444444     -0.111111111111    1    1    1
      0.222222222222      0.444444444444     -0.111111111111    1    1    1
      0.388888888889      0.444444444444     -0.111111111111    1    1    1
      0.555555555556      0.444444444444     -0.111111111111    1    1    1
      0.722222222222      0.444444444444     -0.111111111111    1    1    1
      0.888888888889      0.444444444444     -0.111111111111    1    1    1
      0.055555555556      0.611111111111     -0.111111111111    1    1    1
      0.222222222222      0.611111111111     -0.111111111111    1    1    1
      0.388888888889      0.611111111111     -0.111111111111    1    1    1
      0.555555555556      0.611111111111     -0.111111111111    1    1    1
      0.722222222222      0.611111111111     -0.111111111111    1    1    1
      0.888888888889      0.611111111111     -0.111111111111    1    1    1
      0.055555555556      0.777777777778     -0.111111111111    1    1    1
      0.222222222222      0.777777777778     -0.111111111111    1    1    1
      0.388888888889      0.777777777778     -0.111111111111    1    1    1
      0.555555555556      0.777777777778     -0.111111111111    1    1    1
      0.722222222222      0.777777777778     -0.111111111111    1    1    1
      0.888888888889      0.777777777778     -0.111111111111    1    1    1
      0.055555555556      0.944444444444     -0.111111111111    1    1    1
      0.222222222222      0.944444444444     -0.111111111111    1    1    1
      0.388888888889      0.944444444444     -0.111111111111    1    1    1
      0.555555555556      0.944444444444     -0.111111111111    1    1    1
      0.722222222222      0.944444444444     -0.111111111111    1    1    1
      0.888888888889      0.944444444444     -0.111111111111    1    1    1
     -0.055555555556     -0.111111111111     -0.222222222222    1    1    1
      0.111111111111     -0.111111111111     -0.222222222222    1    1    1
      0.277777777778     -0.111111111111     -0.222222222222    1    1    1
      0.444444444444     -0.111111111111     -0.222222222222    1    1    1
      0.611111111111     -0.111111111111     -0.222222222222    1    1    1
      0.777777777778     -0.111111111111     -0.222222222222    1    1    1
     -0.055555555556      0.055555555556     -0.222222222222    1    1    1
      0.111111111111      0.055555555556     -0.222222222222    1    1    1
      0.277777777778      0.055555555556     -0.222222222222    1    1    1
      0.444444444444      0.055555555556     -0.222222222222    1    1    1
      0.611111111111      0.055555555556     -0.222222222222    1    1    1
      0.777777777778      0.055555555556     -0.222222222222    1    1    1
     -0.055555555556      0.222222222222     -0.222222222222    1    1    1
      0.111111111111      0.222222222222     -0.222222222222    1    1    1
      0.277777777778      0.222222222222     -0.222222222222    1    1    1
      0.444444444444      0.222222222222     -0.222222222222    1    1    1
      0.611111111111      0.222222222222     -0.222222222222    1    1    1
      0.777777777778      0.222222222222     -0.222222222222    1    1    1
     -0.055555555556      0.388888888889     -0.222222222222    1    1    1
      0.111111111111      0.388888888889     -0.222222222222    1    1    1
      0.277777777778      0.388888888889     -0.222222222222    1    1    1
      0.444444444444      0.388888888889     -0.222222222222    1    1    1
      0.611111111111      0.388888888889     -0.222222222222    1    1    1
      0.777777777778      0.388888888889     -0.222222222222    1    1    1
     -0.055555555556      0.555555555556     -0.222222222222    1    1    1
      0.111111111111      0.555555555556     -0.222222222222    1    1    1
      0.277777777778      0.555555555556     -0.222222222222    1    1    1
      0.444444444444      0.555555555556     -0.222222222222    1    1    1
      0.611111111111      0.555555555556     -0.222222222222    1    1    1
      0.777777777778      0.555555555556     -0.222222222222    1    1    1
     -0.055555555556      0.722222222222     -0.222222222222    1    1    1
      0.111111111111      0.722222222222     -0.222222222222    1    1    1
      0.277777777778      0.722222222222     -0.222222222222    1    1    1
      0.444444444444      0.722222222222     -0.222222222222    1    1    1
      0.611111111111      0.722222222222     -0.222222222222    1    1    1
      0.777777777778      0.722222222222     -0.222222222222    1    1    1

 Atoms (center of the slab is set to the origin):
      0.000000000000      0.000000000000      4.464348843342    1    1    1
      5.467688349986      0.000000000000      4.464348843342    1    1    1
     10.935376699971      0.000000000000      4.464348843342    1    1    1
     16.403065049957      0.000000000000      4.464348843342    1    1    1
     21.870753399942      0.000000000000      4.464348843342    1    1    1
     27.338441749928      0.000000000000      4.464348843342    1    1    1
     -2.733844174993      4.735157011064      4.464348843342    1    1    1
      2.733844174993      4.735157011064      4.464348843342    1    1    1
      8.201532524978      4.735157011064      4.464348843342    1    1    1
     13.669220874964      4.735157011064      4.464348843342    1    1    1
     19.136909224950      4.735157011064      4.464348843342    1    1    1
     24.604597574935      4.735157011064      4.464348843342    1    1    1
     -5.467688349986      9.470314022127      4.464348843342    1    1    1
      0.000000000000      9.470314022127      4.464348843342    1    1    1
      5.467688349986      9.470314022127      4.464348843342    1    1    1
     10.935376699971      9.470314022127      4.464348843342    1    1    1
     16.403065049957      9.470314022127      4.464348843342    1    1    1
     21.870753399942      9.470314022127      4.464348843342    1    1    1
     -8.201532524978     14.205471033191      4.464348843342    1    1    1
     -2.733844174993     14.205471033191      4.464348843342    1    1    1
      2.733844174993     14.205471033191      4.464348843342    1    1    1
      8.201532524978     14.205471033191      4.464348843342    1    1    1
     13.669220874964     14.205471033191      4.464348843342    1    1    1
     19.136909224950     14.205471033191      4.464348843342    1    1    1
    -10.935376699971     18.940628044255      4.464348843342    1    1    1
     -5.467688349986     18.940628044255      4.464348843342    1    1    1
      0.000000000000     18.940628044255      4.464348843342    1    1    1
      5.467688349986     18.940628044255      4.464348843342    1    1    1
     10.935376699971     18.940628044255      4.464348843342    1    1    1
     16.403065049957     18.940628044255      4.464348843342    1    1    1
    -13.669220874964     23.675785055319      4.464348843342    1    1    1
     -8.201532524978     23.675785055319      4.464348843342    1    1    1
     -2.733844174993     23.675785055319      4.464348843342    1    1    1
      2.733844174993     23.675785055319      4.464348843342    1    1    1
      8.201532524978     23.675785055319      4.464348843342    1    1    1
     13.669220874964     23.675785055319      4.464348843342    1    1    1
      0.000000000000      3.156771340709      0.000000000000    1    1    1
      5.467688349986      3.156771340709      0.000000000000    1    1    1
     10.935376699971      3.156771340709      0.000000000000    1    1    1
     16.403065049957      3.156771340709      0.000000000000    1    1    1
     21.870753399942      3.156771340709      0.000000000000    1    1    1
     27.338441749928      3.156771340709      0.000000000000    1    1    1
     -2.733844174993      7.891928351773      0.000000000000    1    1    1
      2.733844174993      7.891928351773      0.000000000000    1    1    1
      8.201532524978      7.891928351773      0.000000000000    1    1    1
     13.669220874964      7.891928351773      0.000000000000    1    1    1
     19.136909224950      7.891928351773      0.000000000000    1    1    1
     24.604597574935      7.891928351773      0.000000000000    1    1    1
     -5.467688349986     12.627085362837      0.000000000000    1    1    1
      0.000000000000     12.627085362837      0.000000000000    1    1    1
      5.467688349986     12.627085362837      0.000000000000    1    1    1
     10.935376699971     12.627085362837      0.000000000000    1    1    1
     16.403065049957     12.627085362837      0.000000000000    1    1    1
     21.870753399942     12.627085362837      0.000000000000    1    1    1
     -8.201532524978     17.362242373900      0.000000000000    1    1    1
     -2.733844174993     17.362242373900      0.000000000000    1    1    1
      2.733844174993     17.362242373900      0.000000000000    1    1    1
      8.201532524978     17.362242373900      0.000000000000    1    1    1
     13.669220874964     17.362242373900      0.000000000000    1    1    1
     19.136909224950     17.362242373900      0.000000000000    1    1    1
    -10.935376699971     22.097399384964      0.000000000000    1    1    1
     -5.467688349986     22.097399384964      0.000000000000    1    1    1
      0.000000000000     22.097399384964      0.000000000000    1    1    1
      5.467688349986     22.097399384964      0.000000000000    1    1    1
     10.935376699971     22.097399384964      0.000000000000    1    1    1
     16.403065049957     22.097399384964      0.000000000000    1    1    1
    -13.669220874964     26.832556396028      0.000000000000    1    1    1
     -8.201532524978     26.832556396028      0.000000000000    1    1    1
     -2.733844174993     26.832556396028      0.000000000000    1    1    1
      2.733844174993     26.832556396028      0.000000000000    1    1    1
      8.201532524978     26.832556396028      0.000000000000    1    1    1
     13.669220874964     26.832556396028      0.000000000000    1    1    1
      0.000000000000     -3.156771340709     -4.464348843342    1    1    1
      5.467688349986     -3.156771340709     -4.464348843342    1    1    1
     10.935376699971     -3.156771340709     -4.464348843342    1    1    1
     16.403065049957     -3.156771340709     -4.464348843342    1    1    1
     21.870753399942     -3.156771340709     -4.464348843342    1    1    1
     27.338441749928     -3.156771340709     -4.464348843342    1    1    1
     -2.733844174993      1.578385670355     -4.464348843342    1    1    1
      2.733844174993      1.578385670355     -4.464348843342    1    1    1
      8.201532524978      1.578385670355     -4.464348843342    1    1    1
     13.669220874964      1.578385670355     -4.464348843342    1    1    1
     19.136909224950      1.578385670355     -4.464348843342    1    1    1
     24.604597574935      1.578385670355     -4.464348843342    1    1    1
     -5.467688349986      6.313542681418     -4.464348843342    1    1    1
      0.000000000000      6.313542681418     -4.464348843342    1    1    1
      5.467688349986      6.313542681418     -4.464348843342    1    1    1
     10.935376699971      6.313542681418     -4.464348843342    1    1    1
     16.403065049957      6.313542681418     -4.464348843342    1    1    1
     21.870753399942      6.313542681418     -4.464348843342    1    1    1
     -8.201532524978     11.048699692482     -4.464348843342    1    1    1
     -2.733844174993     11.048699692482     -4.464348843342    1    1    1
      2.733844174993     11.048699692482     -4.464348843342    1    1    1
      8.201532524978     11.048699692482     -4.464348843342    1    1    1
     13.669220874964     11.048699692482     -4.464348843342    1    1    1
     19.136909224950     11.048699692482     -4.464348843342    1    1    1
    -10.935376699971     15.783856703546     -4.464348843342    1    1    1
     -5.467688349986     15.783856703546     -4.464348843342    1    1    1
      0.000000000000     15.783856703546     -4.464348843342    1    1    1
      5.467688349986     15.783856703546     -4.464348843342    1    1    1
     10.935376699971     15.783856703546     -4.464348843342    1    1    1
     16.403065049957     15.783856703546     -4.464348843342    1    1    1
    -13.669220874964     20.519013714610     -4.464348843342    1    1    1
     -8.201532524978     20.519013714610     -4.464348843342    1    1    1
     -2.733844174993     20.519013714610     -4.464348843342    1    1    1
      2.733844174993     20.519013714610     -4.464348843342    1    1    1
      8.201532524978     20.519013714610     -4.464348843342    1    1    1
     13.669220874964     20.519013714610     -4.464348843342    1    1    1
