
 ******************************************************************
 *** This program generates a diamond (111) 1x1 clean surface   ***
 ******************************************************************


 a_0 =        10.75174480
 a   =         7.60263166

 Slab of  1 DL

 Slab of  2 ML
 Vacuum region corresponds to  4 ML
 Slabs are separated by  29.49 Bohr
 Slabs are separated by  15.60 Angstrom

 Inter-layer (sublattice) distance =         6.20752275
 Slab-slab distance                =        29.48573308


 Lattice vectors:
      7.602631657667      0.000000000000      0.000000000000
     -3.801315828834      6.584072151156      0.000000000000
      0.000000000000      0.000000000000     31.037613772691

 Supercell Lattice vectors:
      7.602631657667      0.000000000000      0.000000000000
     -3.801315828834      6.584072151156      0.000000000000
      0.000000000000      0.000000000000     31.037613772691

 Surface area:      50.056275372740
 Surface area:      50.056275372740

 Volume of unit cell:    1553.627341918574

 Number of atoms:    2
 Atoms: 
      0.000000000000      0.000000000000     -0.000000000000    1    1    1
      0.000000000000      4.389381434104     -1.551880688635    1    1    1

 Atomic coordinates in reduced coordinate 
      0.000000000000      0.000000000000      0.000000000000    1    1    1
      0.333333333333      0.666666666667     -0.050000000000    1    1    1

 Atoms (center of the slab is set to the origin):
      0.000000000000      0.000000000000      0.775940344317    1    1    1
      0.000000000000      4.389381434104     -0.775940344317    1    1    1
