
 ******************************************************************
 *** This program generates Water/fcc(111) (sqrt(3) x sqrt(3))  ***
 *** surface                                                    ***
 ******************************************************************

 
 a_0=         7.24480000

 Slab of  3 ML
 Vacuum region corresponds to 12 ML
 Slabs are separated by  50.19 Bohr
 Slabs are separated by  26.56 Angstrom
 Size of the supercell along the z axis:  62.74 Bohr
 Size of the supercell along the z axis:  33.20 Angstrom

 Primitive lattice vectors:
        7.68427081        4.43651582         .00000000
         .00000000        8.87303164         .00000000
         .00000000         .00000000       62.74180845

 Supercell lattice vectors:
         .00000000         .00000000         .00000000
         .00000000         .00000000         .00000000
         .00000000         .00000000       62.74180845
 Number of atoms:    9
 Atoms: 
         .00000000         .00000000         .00000000
        2.56142360        4.43651582         .00000000
        5.12284721        8.87303164         .00000000
         .00000000        2.95767721       -4.18278723
        2.56142360        7.39419304       -4.18278723
        5.12284721       11.83070886       -4.18278723
         .00000000       -2.95767721       -8.36557446
        2.56142360        1.47883861       -8.36557446
        5.12284721        5.91535443       -8.36557446
 Water(1):
 Hydrogen:
        2.56142360        4.43651582        8.30350000
        3.44607274        5.96877308        5.95556188
 Oxygen:
        2.56142360        4.43651582        6.46290000
 Water(2):
 Hydrogen:
        6.98339877        9.06858349        5.20676497
        4.36192430       10.58209249        5.20676497
 Oxygen:
        5.12284721        8.87303164        4.97000000
