
 ******************************************************************
 *** This program generates an fcc (111) 1x1 clean surface      ***
 ******************************************************************


 a_0=         6.86903667
 a  =         4.85714241

 Slab of  5 ML
 Vacuum region corresponds to 12 ML
 Slabs are separated by  47.59 Bohr
 Slabs are separated by  25.18 Angstrom

 Inter-layer distance =         3.96584017
 Slab-slab distance   =        47.59008202


 Lattice vectors:
      4.857142406823      0.000000000000      0.000000000000
      2.428571203411      4.206408714107      0.000000000000
      0.000000000000      0.000000000000     67.419282860246

 Supercell Lattice vectors:
     14.571427220468      0.000000000000      0.000000000000
      7.285713610234     12.619226142321      0.000000000000
      0.000000000000      0.000000000000     67.419282860246

 Surface area:     183.880135311459
 Surface area:     183.880135311459

 Volume of unit cell:   12397.066854943503

 Number of atoms:   45
 Atoms: 
      0.000000000000      0.000000000000     -0.000000000000
      4.857142406823      0.000000000000     -0.000000000000
      9.714284813645      0.000000000000     -0.000000000000
      2.428571203411      4.206408714107     -0.000000000000
      7.285713610234      4.206408714107     -0.000000000000
     12.142856017057      4.206408714107     -0.000000000000
      4.857142406823      8.412817428214     -0.000000000000
      9.714284813645      8.412817428214     -0.000000000000
     14.571427220468      8.412817428214     -0.000000000000
      0.000000000000      2.804272476071     -3.965840168250
      4.857142406823      2.804272476071     -3.965840168250
      9.714284813645      2.804272476071     -3.965840168250
      2.428571203411      7.010681190178     -3.965840168250
      7.285713610234      7.010681190178     -3.965840168250
     12.142856017057      7.010681190178     -3.965840168250
      4.857142406823     11.217089904286     -3.965840168250
      9.714284813645     11.217089904286     -3.965840168250
     14.571427220468     11.217089904286     -3.965840168250
      0.000000000000     -2.804272476071     -7.931680336499
      4.857142406823     -2.804272476071     -7.931680336499
      9.714284813645     -2.804272476071     -7.931680336499
      2.428571203411      1.402136238036     -7.931680336499
      7.285713610234      1.402136238036     -7.931680336499
     12.142856017057      1.402136238036     -7.931680336499
      4.857142406823      5.608544952143     -7.931680336499
      9.714284813645      5.608544952143     -7.931680336499
     14.571427220468      5.608544952143     -7.931680336499
      0.000000000000      0.000000000000    -11.897520504749
      4.857142406823      0.000000000000    -11.897520504749
      9.714284813645      0.000000000000    -11.897520504749
      2.428571203411      4.206408714107    -11.897520504749
      7.285713610234      4.206408714107    -11.897520504749
     12.142856017057      4.206408714107    -11.897520504749
      4.857142406823      8.412817428214    -11.897520504749
      9.714284813645      8.412817428214    -11.897520504749
     14.571427220468      8.412817428214    -11.897520504749
      0.000000000000      2.804272476071    -15.863360672999
      4.857142406823      2.804272476071    -15.863360672999
      9.714284813645      2.804272476071    -15.863360672999
      2.428571203411      7.010681190178    -15.863360672999
      7.285713610234      7.010681190178    -15.863360672999
     12.142856017057      7.010681190178    -15.863360672999
      4.857142406823     11.217089904286    -15.863360672999
      9.714284813645     11.217089904286    -15.863360672999
     14.571427220468     11.217089904286    -15.863360672999

 Atomic coordinates in reduced coordinate 
          0.000000000000          0.000000000000          0.000000000000
          1.000000000000          0.000000000000          0.000000000000
          2.000000000000          0.000000000000          0.000000000000
          0.000000000000          1.000000000000          0.000000000000
          1.000000000000          1.000000000000          0.000000000000
          2.000000000000          1.000000000000          0.000000000000
          0.000000000000          2.000000000000          0.000000000000
          1.000000000000          2.000000000000          0.000000000000
          2.000000000000          2.000000000000          0.000000000000
         -0.333333333333          0.666666666667         -0.058823529412
          0.666666666667          0.666666666667         -0.058823529412
          1.666666666667          0.666666666667         -0.058823529412
         -0.333333333333          1.666666666667         -0.058823529412
          0.666666666667          1.666666666667         -0.058823529412
          1.666666666667          1.666666666667         -0.058823529412
         -0.333333333333          2.666666666667         -0.058823529412
          0.666666666667          2.666666666667         -0.058823529412
          1.666666666667          2.666666666667         -0.058823529412
          0.333333333333         -0.666666666667         -0.117647058824
          1.333333333333         -0.666666666667         -0.117647058824
          2.333333333333         -0.666666666667         -0.117647058824
          0.333333333333          0.333333333333         -0.117647058824
          1.333333333333          0.333333333333         -0.117647058824
          2.333333333333          0.333333333333         -0.117647058824
          0.333333333333          1.333333333333         -0.117647058824
          1.333333333333          1.333333333333         -0.117647058824
          2.333333333333          1.333333333333         -0.117647058824
          0.000000000000          0.000000000000         -0.176470588235
          1.000000000000          0.000000000000         -0.176470588235
          2.000000000000          0.000000000000         -0.176470588235
          0.000000000000          1.000000000000         -0.176470588235
          1.000000000000          1.000000000000         -0.176470588235
          2.000000000000          1.000000000000         -0.176470588235
          0.000000000000          2.000000000000         -0.176470588235
          1.000000000000          2.000000000000         -0.176470588235
          2.000000000000          2.000000000000         -0.176470588235
         -0.333333333333          0.666666666667         -0.235294117647
          0.666666666667          0.666666666667         -0.235294117647
          1.666666666667          0.666666666667         -0.235294117647
         -0.333333333333          1.666666666667         -0.235294117647
          0.666666666667          1.666666666667         -0.235294117647
          1.666666666667          1.666666666667         -0.235294117647
         -0.333333333333          2.666666666667         -0.235294117647
          0.666666666667          2.666666666667         -0.235294117647
          1.666666666667          2.666666666667         -0.235294117647

 Atoms (center of the slab is set to the origin):
          0.000000000000          0.000000000000          7.931680336499
          4.857142406823          0.000000000000          7.931680336499
          9.714284813645          0.000000000000          7.931680336499
          2.428571203411          4.206408714107          7.931680336499
          7.285713610234          4.206408714107          7.931680336499
         12.142856017057          4.206408714107          7.931680336499
          4.857142406823          8.412817428214          7.931680336499
          9.714284813645          8.412817428214          7.931680336499
         14.571427220468          8.412817428214          7.931680336499
          0.000000000000          2.804272476071          3.965840168250
          4.857142406823          2.804272476071          3.965840168250
          9.714284813645          2.804272476071          3.965840168250
          2.428571203411          7.010681190178          3.965840168250
          7.285713610234          7.010681190178          3.965840168250
         12.142856017057          7.010681190178          3.965840168250
          4.857142406823         11.217089904286          3.965840168250
          9.714284813645         11.217089904286          3.965840168250
         14.571427220468         11.217089904286          3.965840168250
          0.000000000000         -2.804272476071          0.000000000000
          4.857142406823         -2.804272476071          0.000000000000
          9.714284813645         -2.804272476071          0.000000000000
          2.428571203411          1.402136238036          0.000000000000
          7.285713610234          1.402136238036          0.000000000000
         12.142856017057          1.402136238036          0.000000000000
          4.857142406823          5.608544952143          0.000000000000
          9.714284813645          5.608544952143          0.000000000000
         14.571427220468          5.608544952143          0.000000000000
          0.000000000000          0.000000000000         -3.965840168250
          4.857142406823          0.000000000000         -3.965840168250
          9.714284813645          0.000000000000         -3.965840168250
          2.428571203411          4.206408714107         -3.965840168250
          7.285713610234          4.206408714107         -3.965840168250
         12.142856017057          4.206408714107         -3.965840168250
          4.857142406823          8.412817428214         -3.965840168250
          9.714284813645          8.412817428214         -3.965840168250
         14.571427220468          8.412817428214         -3.965840168250
          0.000000000000          2.804272476071         -7.931680336499
          4.857142406823          2.804272476071         -7.931680336499
          9.714284813645          2.804272476071         -7.931680336499
          2.428571203411          7.010681190178         -7.931680336499
          7.285713610234          7.010681190178         -7.931680336499
         12.142856017057          7.010681190178         -7.931680336499
          4.857142406823         11.217089904286         -7.931680336499
          9.714284813645         11.217089904286         -7.931680336499
         14.571427220468         11.217089904286         -7.931680336499
