
 ******************************************************************
 *** This program generates an bcc (110) 1x1 clean surface      ***
 ******************************************************************


 a_0=         6.49313667
 a  =         6.49313667

 Slab of  3 ML
 Vacuum region corresponds to  5 ML
 Slabs are separated by  19.48 Bohr
 Slabs are separated by  10.31 Angstrom

 Inter-layer distance =         3.24656833
 Slab-slab distance   =        19.47941000


 Lattice vectors:
      6.493136665426      0.000000000000      0.000000000000
      0.000000000000      6.493136665426      0.000000000000
      0.000000000000      0.000000000000     25.972546661704

 Supercell Lattice vectors:
     25.972546661704      0.000000000000      0.000000000000
      0.000000000000     25.972546661704      0.000000000000
      0.000000000000      0.000000000000     25.972546661704

 Surface area:     674.573180094414
 Surface area:     674.573180094413

 Volume of unit cell:   17520.383396736495

 Number of atoms:   48
 Atoms: 
      0.000000000000      0.000000000000     -0.000000000000    1    1    1
      6.493136665426      0.000000000000     -0.000000000000    1    1    1
     12.986273330852      0.000000000000     -0.000000000000    1    1    1
     19.479409996278      0.000000000000     -0.000000000000    1    1    1
      0.000000000000      6.493136665426     -0.000000000000    1    1    1
      6.493136665426      6.493136665426     -0.000000000000    1    1    1
     12.986273330852      6.493136665426     -0.000000000000    1    1    1
     19.479409996278      6.493136665426     -0.000000000000    1    1    1
      0.000000000000     12.986273330852     -0.000000000000    1    1    1
      6.493136665426     12.986273330852     -0.000000000000    1    1    1
     12.986273330852     12.986273330852     -0.000000000000    1    1    1
     19.479409996278     12.986273330852     -0.000000000000    1    1    1
      0.000000000000     19.479409996278     -0.000000000000    1    1    1
      6.493136665426     19.479409996278     -0.000000000000    1    1    1
     12.986273330852     19.479409996278     -0.000000000000    1    1    1
     19.479409996278     19.479409996278     -0.000000000000    1    1    1
      3.246568332713      3.246568332713     -3.246568332713    1    1    1
      9.739704998139      3.246568332713     -3.246568332713    1    1    1
     16.232841663565      3.246568332713     -3.246568332713    1    1    1
     22.725978328991      3.246568332713     -3.246568332713    1    1    1
      3.246568332713      9.739704998139     -3.246568332713    1    1    1
      9.739704998139      9.739704998139     -3.246568332713    1    1    1
     16.232841663565      9.739704998139     -3.246568332713    1    1    1
     22.725978328991      9.739704998139     -3.246568332713    1    1    1
      3.246568332713     16.232841663565     -3.246568332713    1    1    1
      9.739704998139     16.232841663565     -3.246568332713    1    1    1
     16.232841663565     16.232841663565     -3.246568332713    1    1    1
     22.725978328991     16.232841663565     -3.246568332713    1    1    1
      3.246568332713     22.725978328991     -3.246568332713    1    1    1
      9.739704998139     22.725978328991     -3.246568332713    1    1    1
     16.232841663565     22.725978328991     -3.246568332713    1    1    1
     22.725978328991     22.725978328991     -3.246568332713    1    1    1
      0.000000000000      0.000000000000     -6.493136665426    1    1    1
      6.493136665426      0.000000000000     -6.493136665426    1    1    1
     12.986273330852      0.000000000000     -6.493136665426    1    1    1
     19.479409996278      0.000000000000     -6.493136665426    1    1    1
      0.000000000000      6.493136665426     -6.493136665426    1    1    1
      6.493136665426      6.493136665426     -6.493136665426    1    1    1
     12.986273330852      6.493136665426     -6.493136665426    1    1    1
     19.479409996278      6.493136665426     -6.493136665426    1    1    1
      0.000000000000     12.986273330852     -6.493136665426    1    1    1
      6.493136665426     12.986273330852     -6.493136665426    1    1    1
     12.986273330852     12.986273330852     -6.493136665426    1    1    1
     19.479409996278     12.986273330852     -6.493136665426    1    1    1
      0.000000000000     19.479409996278     -6.493136665426    1    1    1
      6.493136665426     19.479409996278     -6.493136665426    1    1    1
     12.986273330852     19.479409996278     -6.493136665426    1    1    1
     19.479409996278     19.479409996278     -6.493136665426    1    1    1

 Atomic coordinates in reduced coordinate 
      0.000000000000      0.000000000000      0.000000000000    1    1    1
      1.000000000000      0.000000000000      0.000000000000    1    1    1
      2.000000000000      0.000000000000      0.000000000000    1    1    1
      3.000000000000      0.000000000000      0.000000000000    1    1    1
      0.000000000000      1.000000000000      0.000000000000    1    1    1
      1.000000000000      1.000000000000      0.000000000000    1    1    1
      2.000000000000      1.000000000000      0.000000000000    1    1    1
      3.000000000000      1.000000000000      0.000000000000    1    1    1
      0.000000000000      2.000000000000      0.000000000000    1    1    1
      1.000000000000      2.000000000000      0.000000000000    1    1    1
      2.000000000000      2.000000000000      0.000000000000    1    1    1
      3.000000000000      2.000000000000      0.000000000000    1    1    1
      0.000000000000      3.000000000000      0.000000000000    1    1    1
      1.000000000000      3.000000000000      0.000000000000    1    1    1
      2.000000000000      3.000000000000      0.000000000000    1    1    1
      3.000000000000      3.000000000000      0.000000000000    1    1    1
      0.500000000000      0.500000000000     -0.125000000000    1    1    1
      1.500000000000      0.500000000000     -0.125000000000    1    1    1
      2.500000000000      0.500000000000     -0.125000000000    1    1    1
      3.500000000000      0.500000000000     -0.125000000000    1    1    1
      0.500000000000      1.500000000000     -0.125000000000    1    1    1
      1.500000000000      1.500000000000     -0.125000000000    1    1    1
      2.500000000000      1.500000000000     -0.125000000000    1    1    1
      3.500000000000      1.500000000000     -0.125000000000    1    1    1
      0.500000000000      2.500000000000     -0.125000000000    1    1    1
      1.500000000000      2.500000000000     -0.125000000000    1    1    1
      2.500000000000      2.500000000000     -0.125000000000    1    1    1
      3.500000000000      2.500000000000     -0.125000000000    1    1    1
      0.500000000000      3.500000000000     -0.125000000000    1    1    1
      1.500000000000      3.500000000000     -0.125000000000    1    1    1
      2.500000000000      3.500000000000     -0.125000000000    1    1    1
      3.500000000000      3.500000000000     -0.125000000000    1    1    1
      0.000000000000      0.000000000000     -0.250000000000    1    1    1
      1.000000000000      0.000000000000     -0.250000000000    1    1    1
      2.000000000000      0.000000000000     -0.250000000000    1    1    1
      3.000000000000      0.000000000000     -0.250000000000    1    1    1
      0.000000000000      1.000000000000     -0.250000000000    1    1    1
      1.000000000000      1.000000000000     -0.250000000000    1    1    1
      2.000000000000      1.000000000000     -0.250000000000    1    1    1
      3.000000000000      1.000000000000     -0.250000000000    1    1    1
      0.000000000000      2.000000000000     -0.250000000000    1    1    1
      1.000000000000      2.000000000000     -0.250000000000    1    1    1
      2.000000000000      2.000000000000     -0.250000000000    1    1    1
      3.000000000000      2.000000000000     -0.250000000000    1    1    1
      0.000000000000      3.000000000000     -0.250000000000    1    1    1
      1.000000000000      3.000000000000     -0.250000000000    1    1    1
      2.000000000000      3.000000000000     -0.250000000000    1    1    1
      3.000000000000      3.000000000000     -0.250000000000    1    1    1

 Atoms (center of the slab is set to the origin):
      0.000000000000      0.000000000000      3.246568332713    1    1    1
      6.493136665426      0.000000000000      3.246568332713    1    1    1
     12.986273330852      0.000000000000      3.246568332713    1    1    1
     19.479409996278      0.000000000000      3.246568332713    1    1    1
      0.000000000000      6.493136665426      3.246568332713    1    1    1
      6.493136665426      6.493136665426      3.246568332713    1    1    1
     12.986273330852      6.493136665426      3.246568332713    1    1    1
     19.479409996278      6.493136665426      3.246568332713    1    1    1
      0.000000000000     12.986273330852      3.246568332713    1    1    1
      6.493136665426     12.986273330852      3.246568332713    1    1    1
     12.986273330852     12.986273330852      3.246568332713    1    1    1
     19.479409996278     12.986273330852      3.246568332713    1    1    1
      0.000000000000     19.479409996278      3.246568332713    1    1    1
      6.493136665426     19.479409996278      3.246568332713    1    1    1
     12.986273330852     19.479409996278      3.246568332713    1    1    1
     19.479409996278     19.479409996278      3.246568332713    1    1    1
      3.246568332713      3.246568332713      0.000000000000    1    1    1
      9.739704998139      3.246568332713      0.000000000000    1    1    1
     16.232841663565      3.246568332713      0.000000000000    1    1    1
     22.725978328991      3.246568332713      0.000000000000    1    1    1
      3.246568332713      9.739704998139      0.000000000000    1    1    1
      9.739704998139      9.739704998139      0.000000000000    1    1    1
     16.232841663565      9.739704998139      0.000000000000    1    1    1
     22.725978328991      9.739704998139      0.000000000000    1    1    1
      3.246568332713     16.232841663565      0.000000000000    1    1    1
      9.739704998139     16.232841663565      0.000000000000    1    1    1
     16.232841663565     16.232841663565      0.000000000000    1    1    1
     22.725978328991     16.232841663565      0.000000000000    1    1    1
      3.246568332713     22.725978328991      0.000000000000    1    1    1
      9.739704998139     22.725978328991      0.000000000000    1    1    1
     16.232841663565     22.725978328991      0.000000000000    1    1    1
     22.725978328991     22.725978328991      0.000000000000    1    1    1
      0.000000000000      0.000000000000     -3.246568332713    1    1    1
      6.493136665426      0.000000000000     -3.246568332713    1    1    1
     12.986273330852      0.000000000000     -3.246568332713    1    1    1
     19.479409996278      0.000000000000     -3.246568332713    1    1    1
      0.000000000000      6.493136665426     -3.246568332713    1    1    1
      6.493136665426      6.493136665426     -3.246568332713    1    1    1
     12.986273330852      6.493136665426     -3.246568332713    1    1    1
     19.479409996278      6.493136665426     -3.246568332713    1    1    1
      0.000000000000     12.986273330852     -3.246568332713    1    1    1
      6.493136665426     12.986273330852     -3.246568332713    1    1    1
     12.986273330852     12.986273330852     -3.246568332713    1    1    1
     19.479409996278     12.986273330852     -3.246568332713    1    1    1
      0.000000000000     19.479409996278     -3.246568332713    1    1    1
      6.493136665426     19.479409996278     -3.246568332713    1    1    1
     12.986273330852     19.479409996278     -3.246568332713    1    1    1
     19.479409996278     19.479409996278     -3.246568332713    1    1    1
