
 ******************************************************************
 *** This program generates a graphite surface                  ***
 ******************************************************************


 a_0=         4.65470981
 c_0=        12.55663615
 Inter layer distance:         6.27831807

 Slab of 20 ML
 Slabs are separated by   6.28 Bohr
 Slabs are separated by   0.00 Angstrom
 Size of the supercell along the z axis: 125.57 Bohr
 Size of the supercell along the z axis:  66.45 Angstrom

 Primitive lattice vectors:
      4.654709810000      0.000000000000      0.000000000000
     -2.327354905000      4.031096942705      0.000000000000
      0.000000000000      0.000000000000    125.566361500000
 Number of atoms:   40
 Atoms: 
      0.000000000000      0.000000000000     -0.000000000000    1    1    1
      0.000000000000      2.687397961803     -0.000000000000    1    1    1
      0.000000000000      0.000000000000     -6.278318075000    1    1    1
      2.327354905000      1.343698980902     -6.278318075000    1    1    1
      0.000000000000      0.000000000000    -12.556636150000    1    1    1
      0.000000000000      2.687397961803    -12.556636150000    1    1    1
      0.000000000000      0.000000000000    -18.834954225000    1    1    1
      2.327354905000      1.343698980902    -18.834954225000    1    1    1
      0.000000000000      0.000000000000    -25.113272300000    1    1    1
      0.000000000000      2.687397961803    -25.113272300000    1    1    1
      0.000000000000      0.000000000000    -31.391590375000    1    1    1
      2.327354905000      1.343698980902    -31.391590375000    1    1    1
      0.000000000000      0.000000000000    -37.669908450000    1    1    1
      0.000000000000      2.687397961803    -37.669908450000    1    1    1
      0.000000000000      0.000000000000    -43.948226525000    1    1    1
      2.327354905000      1.343698980902    -43.948226525000    1    1    1
      0.000000000000      0.000000000000    -50.226544600000    1    1    1
      0.000000000000      2.687397961803    -50.226544600000    1    1    1
      0.000000000000      0.000000000000    -56.504862675000    1    1    1
      2.327354905000      1.343698980902    -56.504862675000    1    1    1
      0.000000000000      0.000000000000    -62.783180750000    1    1    1
      0.000000000000      2.687397961803    -62.783180750000    1    1    1
      0.000000000000      0.000000000000    -69.061498825000    1    1    1
      2.327354905000      1.343698980902    -69.061498825000    1    1    1
      0.000000000000      0.000000000000    -75.339816900000    1    1    1
      0.000000000000      2.687397961803    -75.339816900000    1    1    1
      0.000000000000      0.000000000000    -81.618134975000    1    1    1
      2.327354905000      1.343698980902    -81.618134975000    1    1    1
      0.000000000000      0.000000000000    -87.896453050000    1    1    1
      0.000000000000      2.687397961803    -87.896453050000    1    1    1
      0.000000000000      0.000000000000    -94.174771125000    1    1    1
      2.327354905000      1.343698980902    -94.174771125000    1    1    1
      0.000000000000      0.000000000000   -100.453089200000    1    1    1
      0.000000000000      2.687397961803   -100.453089200000    1    1    1
      0.000000000000      0.000000000000   -106.731407275000    1    1    1
      2.327354905000      1.343698980902   -106.731407275000    1    1    1
      0.000000000000      0.000000000000   -113.009725350000    1    1    1
      0.000000000000      2.687397961803   -113.009725350000    1    1    1
      0.000000000000      0.000000000000   -119.288043425000    1    1    1
      2.327354905000      1.343698980902   -119.288043425000    1    1    1

 Atoms (center of the slab is set to the origin):
      0.000000000000      0.000000000000     59.644021712500    1    1    1
      0.000000000000      2.687397961803     59.644021712500    1    1    1
      0.000000000000      0.000000000000     53.365703637500    1    1    1
      2.327354905000      1.343698980902     53.365703637500    1    1    1
      0.000000000000      0.000000000000     47.087385562500    1    1    1
      0.000000000000      2.687397961803     47.087385562500    1    1    1
      0.000000000000      0.000000000000     40.809067487500    1    1    1
      2.327354905000      1.343698980902     40.809067487500    1    1    1
      0.000000000000      0.000000000000     34.530749412500    1    1    1
      0.000000000000      2.687397961803     34.530749412500    1    1    1
      0.000000000000      0.000000000000     28.252431337500    1    1    1
      2.327354905000      1.343698980902     28.252431337500    1    1    1
      0.000000000000      0.000000000000     21.974113262500    1    1    1
      0.000000000000      2.687397961803     21.974113262500    1    1    1
      0.000000000000      0.000000000000     15.695795187500    1    1    1
      2.327354905000      1.343698980902     15.695795187500    1    1    1
      0.000000000000      0.000000000000      9.417477112500    1    1    1
      0.000000000000      2.687397961803      9.417477112500    1    1    1
      0.000000000000      0.000000000000      3.139159037500    1    1    1
      2.327354905000      1.343698980902      3.139159037500    1    1    1
      0.000000000000      0.000000000000     -3.139159037500    1    1    1
      0.000000000000      2.687397961803     -3.139159037500    1    1    1
      0.000000000000      0.000000000000     -9.417477112500    1    1    1
      2.327354905000      1.343698980902     -9.417477112500    1    1    1
      0.000000000000      0.000000000000    -15.695795187500    1    1    1
      0.000000000000      2.687397961803    -15.695795187500    1    1    1
      0.000000000000      0.000000000000    -21.974113262500    1    1    1
      2.327354905000      1.343698980902    -21.974113262500    1    1    1
      0.000000000000      0.000000000000    -28.252431337500    1    1    1
      0.000000000000      2.687397961803    -28.252431337500    1    1    1
      0.000000000000      0.000000000000    -34.530749412500    1    1    1
      2.327354905000      1.343698980902    -34.530749412500    1    1    1
      0.000000000000      0.000000000000    -40.809067487500    1    1    1
      0.000000000000      2.687397961803    -40.809067487500    1    1    1
      0.000000000000      0.000000000000    -47.087385562500    1    1    1
      2.327354905000      1.343698980902    -47.087385562500    1    1    1
      0.000000000000      0.000000000000    -53.365703637500    1    1    1
      0.000000000000      2.687397961803    -53.365703637500    1    1    1
      0.000000000000      0.000000000000    -59.644021712500    1    1    1
      2.327354905000      1.343698980902    -59.644021712500    1    1    1
