
 ******************************************************************
 *** This program generates a graphite surface                  ***
 ******************************************************************


 a_0=         4.65470981
 c_0=        12.55663615
 Inter layer distance:         6.27831807

 Slab of 19 ML
 Slabs are separated by 113.38 Bohr
 Slabs are separated by  60.00 Angstrom
 Size of the supercell along the z axis: 226.39 Bohr
 Size of the supercell along the z axis: 119.80 Angstrom

 Primitive lattice vectors:
      4.654709810000      0.000000000000      0.000000000000
     -2.327354905000      4.031096942705      0.000000000000
      0.000000000000      0.000000000000    226.393335861103
 Number of atoms:   38
 Atoms: 
      0.000000000000      0.000000000000     -0.000000000000    1    1    1
      0.000000000000      2.687397961803     -0.000000000000    1    1    1
      0.000000000000      0.000000000000     -6.278318075000    1    1    1
      2.327354905000      1.343698980902     -6.278318075000    1    1    1
      0.000000000000      0.000000000000    -12.556636150000    1    1    1
      0.000000000000      2.687397961803    -12.556636150000    1    1    1
      0.000000000000      0.000000000000    -18.834954225000    1    1    1
      2.327354905000      1.343698980902    -18.834954225000    1    1    1
      0.000000000000      0.000000000000    -25.113272300000    1    1    1
      0.000000000000      2.687397961803    -25.113272300000    1    1    1
      0.000000000000      0.000000000000    -31.391590375000    1    1    1
      2.327354905000      1.343698980902    -31.391590375000    1    1    1
      0.000000000000      0.000000000000    -37.669908450000    1    1    1
      0.000000000000      2.687397961803    -37.669908450000    1    1    1
      0.000000000000      0.000000000000    -43.948226525000    1    1    1
      2.327354905000      1.343698980902    -43.948226525000    1    1    1
      0.000000000000      0.000000000000    -50.226544600000    1    1    1
      0.000000000000      2.687397961803    -50.226544600000    1    1    1
      0.000000000000      0.000000000000    -56.504862675000    1    1    1
      2.327354905000      1.343698980902    -56.504862675000    1    1    1
      0.000000000000      0.000000000000    -62.783180750000    1    1    1
      0.000000000000      2.687397961803    -62.783180750000    1    1    1
      0.000000000000      0.000000000000    -69.061498825000    1    1    1
      2.327354905000      1.343698980902    -69.061498825000    1    1    1
      0.000000000000      0.000000000000    -75.339816900000    1    1    1
      0.000000000000      2.687397961803    -75.339816900000    1    1    1
      0.000000000000      0.000000000000    -81.618134975000    1    1    1
      2.327354905000      1.343698980902    -81.618134975000    1    1    1
      0.000000000000      0.000000000000    -87.896453050000    1    1    1
      0.000000000000      2.687397961803    -87.896453050000    1    1    1
      0.000000000000      0.000000000000    -94.174771125000    1    1    1
      2.327354905000      1.343698980902    -94.174771125000    1    1    1
      0.000000000000      0.000000000000   -100.453089200000    1    1    1
      0.000000000000      2.687397961803   -100.453089200000    1    1    1
      0.000000000000      0.000000000000   -106.731407275000    1    1    1
      2.327354905000      1.343698980902   -106.731407275000    1    1    1
      0.000000000000      0.000000000000   -113.009725350000    1    1    1
      0.000000000000      2.687397961803   -113.009725350000    1    1    1

 Atoms (center of the slab is set to the origin):
      0.000000000000      0.000000000000     56.504862675000    1    1    1
      0.000000000000      2.687397961803     56.504862675000    1    1    1
      0.000000000000      0.000000000000     50.226544600000    1    1    1
      2.327354905000      1.343698980902     50.226544600000    1    1    1
      0.000000000000      0.000000000000     43.948226525000    1    1    1
      0.000000000000      2.687397961803     43.948226525000    1    1    1
      0.000000000000      0.000000000000     37.669908450000    1    1    1
      2.327354905000      1.343698980902     37.669908450000    1    1    1
      0.000000000000      0.000000000000     31.391590375000    1    1    1
      0.000000000000      2.687397961803     31.391590375000    1    1    1
      0.000000000000      0.000000000000     25.113272300000    1    1    1
      2.327354905000      1.343698980902     25.113272300000    1    1    1
      0.000000000000      0.000000000000     18.834954225000    1    1    1
      0.000000000000      2.687397961803     18.834954225000    1    1    1
      0.000000000000      0.000000000000     12.556636150000    1    1    1
      2.327354905000      1.343698980902     12.556636150000    1    1    1
      0.000000000000      0.000000000000      6.278318075000    1    1    1
      0.000000000000      2.687397961803      6.278318075000    1    1    1
      0.000000000000      0.000000000000      0.000000000000    1    1    1
      2.327354905000      1.343698980902      0.000000000000    1    1    1
      0.000000000000      0.000000000000     -6.278318075000    1    1    1
      0.000000000000      2.687397961803     -6.278318075000    1    1    1
      0.000000000000      0.000000000000    -12.556636150000    1    1    1
      2.327354905000      1.343698980902    -12.556636150000    1    1    1
      0.000000000000      0.000000000000    -18.834954225000    1    1    1
      0.000000000000      2.687397961803    -18.834954225000    1    1    1
      0.000000000000      0.000000000000    -25.113272300000    1    1    1
      2.327354905000      1.343698980902    -25.113272300000    1    1    1
      0.000000000000      0.000000000000    -31.391590375000    1    1    1
      0.000000000000      2.687397961803    -31.391590375000    1    1    1
      0.000000000000      0.000000000000    -37.669908450000    1    1    1
      2.327354905000      1.343698980902    -37.669908450000    1    1    1
      0.000000000000      0.000000000000    -43.948226525000    1    1    1
      0.000000000000      2.687397961803    -43.948226525000    1    1    1
      0.000000000000      0.000000000000    -50.226544600000    1    1    1
      2.327354905000      1.343698980902    -50.226544600000    1    1    1
      0.000000000000      0.000000000000    -56.504862675000    1    1    1
      0.000000000000      2.687397961803    -56.504862675000    1    1    1
