
 ******************************************************************
 *** This program generates a graphite surface                  ***
 ******************************************************************


 a_0=         4.65470981
 c_0=        12.55663615
 Inter layer distance:         6.27831807

 Slab of  5 ML
 Slabs are separated by 113.38 Bohr
 Slabs are separated by  60.00 Angstrom
 Size of the supercell along the z axis: 138.50 Bohr
 Size of the supercell along the z axis:  73.29 Angstrom

 Primitive lattice vectors:
      4.654709810000      0.000000000000      0.000000000000
     -2.327354905000      4.031096942705      0.000000000000
      0.000000000000      0.000000000000    138.496882811103
 Number of atoms:   10
 Atoms: 
      0.000000000000      0.000000000000     -0.000000000000    1    1    1
      0.000000000000      2.687397961803     -0.000000000000    1    1    1
      0.000000000000      0.000000000000     -6.278318075000    1    1    1
      2.327354905000      1.343698980902     -6.278318075000    1    1    1
      0.000000000000      0.000000000000    -12.556636150000    1    1    1
      0.000000000000      2.687397961803    -12.556636150000    1    1    1
      0.000000000000      0.000000000000    -18.834954225000    1    1    1
      2.327354905000      1.343698980902    -18.834954225000    1    1    1
      0.000000000000      0.000000000000    -25.113272300000    1    1    1
      0.000000000000      2.687397961803    -25.113272300000    1    1    1

 Atoms (center of the slab is set to the origin):
      0.000000000000      0.000000000000     12.556636150000    1    1    1
      0.000000000000      2.687397961803     12.556636150000    1    1    1
      0.000000000000      0.000000000000      6.278318075000    1    1    1
      2.327354905000      1.343698980902      6.278318075000    1    1    1
      0.000000000000      0.000000000000      0.000000000000    1    1    1
      0.000000000000      2.687397961803      0.000000000000    1    1    1
      0.000000000000      0.000000000000     -6.278318075000    1    1    1
      2.327354905000      1.343698980902     -6.278318075000    1    1    1
      0.000000000000      0.000000000000    -12.556636150000    1    1    1
      0.000000000000      2.687397961803    -12.556636150000    1    1    1
