
 ******************************************************************
 *** This program generates an fcc (111) 1x1 clean surface      ***
 ******************************************************************


 a_0=         7.51503541
 a  =         5.31393250

 Slab of  5 ML
 Vacuum region corresponds to 10 ML
 Slabs are separated by  43.39 Bohr
 Slabs are separated by  22.96 Angstrom

 Inter-layer distance =         4.33880772
 Slab-slab distance   =        43.38807719


 Lattice vectors:
      5.313932501420      0.000000000000      0.000000000000
      2.656966250710      4.602000540225      0.000000000000
      0.000000000000      0.000000000000     65.082115780349

 Supercell Lattice vectors:
     10.627865002840      0.000000000000      0.000000000000
      5.313932501420      9.204001080451      0.000000000000
      0.000000000000      0.000000000000     65.082115780349

 Surface area:      97.818880969018
 Surface area:      97.818880969018

 Volume of unit cell:    6366.259736729813

 Number of atoms:   20
 Atoms: 
      0.000000000000      0.000000000000     -0.000000000000
      5.313932501420      0.000000000000     -0.000000000000
      2.656966250710      4.602000540225     -0.000000000000
      7.970898752130      4.602000540225     -0.000000000000
      0.000000000000      3.068000360150     -4.338807718690
      5.313932501420      3.068000360150     -4.338807718690
      2.656966250710      7.670000900375     -4.338807718690
      7.970898752130      7.670000900375     -4.338807718690
      0.000000000000     -3.068000360150     -8.677615437380
      5.313932501420     -3.068000360150     -8.677615437380
      2.656966250710      1.534000180075     -8.677615437380
      7.970898752130      1.534000180075     -8.677615437380
      0.000000000000      0.000000000000    -13.016423156070
      5.313932501420      0.000000000000    -13.016423156070
      2.656966250710      4.602000540225    -13.016423156070
      7.970898752130      4.602000540225    -13.016423156070
      0.000000000000      3.068000360150    -17.355230874760
      5.313932501420      3.068000360150    -17.355230874760
      2.656966250710      7.670000900375    -17.355230874760
      7.970898752130      7.670000900375    -17.355230874760

 Atomic coordinates in reduced coordinate 
          0.000000000000          0.000000000000          0.000000000000
          1.000000000000          0.000000000000          0.000000000000
          0.000000000000          1.000000000000          0.000000000000
          1.000000000000          1.000000000000          0.000000000000
         -0.333333333333          0.666666666667         -0.066666666667
          0.666666666667          0.666666666667         -0.066666666667
         -0.333333333333          1.666666666667         -0.066666666667
          0.666666666667          1.666666666667         -0.066666666667
          0.333333333333         -0.666666666667         -0.133333333333
          1.333333333333         -0.666666666667         -0.133333333333
          0.333333333333          0.333333333333         -0.133333333333
          1.333333333333          0.333333333333         -0.133333333333
          0.000000000000          0.000000000000         -0.200000000000
          1.000000000000          0.000000000000         -0.200000000000
          0.000000000000          1.000000000000         -0.200000000000
          1.000000000000          1.000000000000         -0.200000000000
         -0.333333333333          0.666666666667         -0.266666666667
          0.666666666667          0.666666666667         -0.266666666667
         -0.333333333333          1.666666666667         -0.266666666667
          0.666666666667          1.666666666667         -0.266666666667

 Atoms (center of the slab is set to the origin):
          0.000000000000          0.000000000000          8.677615437380
          5.313932501420          0.000000000000          8.677615437380
          2.656966250710          4.602000540225          8.677615437380
          7.970898752130          4.602000540225          8.677615437380
          0.000000000000          3.068000360150          4.338807718690
          5.313932501420          3.068000360150          4.338807718690
          2.656966250710          7.670000900375          4.338807718690
          7.970898752130          7.670000900375          4.338807718690
          0.000000000000         -3.068000360150          0.000000000000
          5.313932501420         -3.068000360150          0.000000000000
          2.656966250710          1.534000180075          0.000000000000
          7.970898752130          1.534000180075          0.000000000000
          0.000000000000          0.000000000000         -4.338807718690
          5.313932501420          0.000000000000         -4.338807718690
          2.656966250710          4.602000540225         -4.338807718690
          7.970898752130          4.602000540225         -4.338807718690
          0.000000000000          3.068000360150         -8.677615437380
          5.313932501420          3.068000360150         -8.677615437380
          2.656966250710          7.670000900375         -8.677615437380
          7.970898752130          7.670000900375         -8.677615437380
