
 ******************************************************************
 *** This program generates an fcc (111) 1x1 clean surface      ***
 ******************************************************************


 a_0=         7.48135872
 a  =         5.29011949

 Slab of  5 ML
 Vacuum region corresponds to 10 ML
 Slabs are separated by  43.19 Bohr
 Slabs are separated by  22.86 Angstrom

 Inter-layer distance =         4.31936447
 Slab-slab distance   =        43.19364473


 Lattice vectors:
      5.290119486191      0.000000000000      0.000000000000
      2.645059743095      4.581377864096      0.000000000000
      0.000000000000      0.000000000000     64.790467097607

 Supercell Lattice vectors:
     10.580238972381      0.000000000000      0.000000000000
      5.290119486191      9.162755728192      0.000000000000
      0.000000000000      0.000000000000     64.790467097607

 Surface area:      96.944145249831
 Surface area:      96.944145249831

 Volume of unit cell:    6281.056453114794

 Number of atoms:   20
 Atoms: 
      0.000000000000      0.000000000000     -0.000000000000
      5.290119486191      0.000000000000     -0.000000000000
      2.645059743095      4.581377864096     -0.000000000000
      7.935179229286      4.581377864096     -0.000000000000
      0.000000000000      3.054251909397     -4.319364473174
      5.290119486191      3.054251909397     -4.319364473174
      2.645059743095      7.635629773494     -4.319364473174
      7.935179229286      7.635629773494     -4.319364473174
      0.000000000000     -3.054251909397     -8.638728946348
      5.290119486191     -3.054251909397     -8.638728946348
      2.645059743095      1.527125954699     -8.638728946348
      7.935179229286      1.527125954699     -8.638728946348
      0.000000000000      0.000000000000    -12.958093419521
      5.290119486191      0.000000000000    -12.958093419521
      2.645059743095      4.581377864096    -12.958093419521
      7.935179229286      4.581377864096    -12.958093419521
      0.000000000000      3.054251909397    -17.277457892695
      5.290119486191      3.054251909397    -17.277457892695
      2.645059743095      7.635629773494    -17.277457892695
      7.935179229286      7.635629773494    -17.277457892695

 Atomic coordinates in reduced coordinate 
          0.000000000000          0.000000000000          0.000000000000
          1.000000000000          0.000000000000          0.000000000000
          0.000000000000          1.000000000000          0.000000000000
          1.000000000000          1.000000000000          0.000000000000
         -0.333333333333          0.666666666667         -0.066666666667
          0.666666666667          0.666666666667         -0.066666666667
         -0.333333333333          1.666666666667         -0.066666666667
          0.666666666667          1.666666666667         -0.066666666667
          0.333333333333         -0.666666666667         -0.133333333333
          1.333333333333         -0.666666666667         -0.133333333333
          0.333333333333          0.333333333333         -0.133333333333
          1.333333333333          0.333333333333         -0.133333333333
          0.000000000000          0.000000000000         -0.200000000000
          1.000000000000          0.000000000000         -0.200000000000
          0.000000000000          1.000000000000         -0.200000000000
          1.000000000000          1.000000000000         -0.200000000000
         -0.333333333333          0.666666666667         -0.266666666667
          0.666666666667          0.666666666667         -0.266666666667
         -0.333333333333          1.666666666667         -0.266666666667
          0.666666666667          1.666666666667         -0.266666666667

 Atoms (center of the slab is set to the origin):
          0.000000000000          0.000000000000          8.638728946348
          5.290119486191          0.000000000000          8.638728946348
          2.645059743095          4.581377864096          8.638728946348
          7.935179229286          4.581377864096          8.638728946348
          0.000000000000          3.054251909397          4.319364473174
          5.290119486191          3.054251909397          4.319364473174
          2.645059743095          7.635629773494          4.319364473174
          7.935179229286          7.635629773494          4.319364473174
          0.000000000000         -3.054251909397          0.000000000000
          5.290119486191         -3.054251909397          0.000000000000
          2.645059743095          1.527125954699          0.000000000000
          7.935179229286          1.527125954699          0.000000000000
          0.000000000000          0.000000000000         -4.319364473174
          5.290119486191          0.000000000000         -4.319364473174
          2.645059743095          4.581377864096         -4.319364473174
          7.935179229286          4.581377864096         -4.319364473174
          0.000000000000          3.054251909397         -8.638728946348
          5.290119486191          3.054251909397         -8.638728946348
          2.645059743095          7.635629773494         -8.638728946348
          7.935179229286          7.635629773494         -8.638728946348
