 15
Ni15 
Ni        0.00000000        0.00000000        0.00000000
Ni        1.24708655        2.16001726        0.00000000
Ni        2.49417310        4.32003453        0.00000000
Ni        0.00000000        1.44001151       -2.03648381
Ni        1.24708655        3.60002877       -2.03648381
Ni        2.49417310        5.76004604       -2.03648381
Ni        0.00000000       -1.44001151       -4.07296761
Ni        1.24708655        0.72000575       -4.07296761
Ni        2.49417310        2.88002302       -4.07296761
Ni        0.00000000        0.00000000       -6.10945142
Ni        1.24708655        2.16001726       -6.10945142
Ni        2.49417310        4.32003453       -6.10945142
Ni        0.00000000        1.44001151       -8.14593523
Ni        1.24708655        3.60002877       -8.14593523
Ni        2.49417310        5.76004604       -8.14593523
