  5
Ni5  
Ni        0.00000000        0.00000000        0.00000000
Ni        0.00000000        1.44001151       -2.03648381
Ni        0.00000000       -1.44001151       -4.07296761
Ni        0.00000000        0.00000000       -6.10945142
Ni        0.00000000        1.44001151       -8.14593523
