 12
Al12 
Al        0.00000000        0.00000000       -0.00000000
Al        2.85671145        0.00000000       -0.00000000
Al       -1.42835573        2.47398469       -0.00000000
Al        1.42835573        2.47398469       -0.00000000
Al        0.00000000        1.64932312       -2.33249513
Al        2.85671145        1.64932312       -2.33249513
Al       -1.42835573        4.12330781       -2.33249513
Al        1.42835573        4.12330781       -2.33249513
Al        0.00000000       -1.64932312       -4.66499026
Al        2.85671145       -1.64932312       -4.66499026
Al       -1.42835573        0.82466156       -4.66499026
Al        1.42835573        0.82466156       -4.66499026
