  4
Al4  
Al        0.00000000        0.00000000        0.00000000
Al        0.00000000        1.65340694       -2.33827051
Al        0.00000000       -1.65340694       -4.67654102
Al        0.00000000        0.00000000       -7.01481154
