
 ******************************************************************
 *** This program generates an fcc (111) 1x1 clean surface      ***
 ******************************************************************

 
 a_0=         7.65340000
 a  =         5.41177104

 Slab of  4 ML
 Vacuum region corresponds to  6 ML
 Slabs are separated by  26.51 Bohr
 Slabs are separated by  14.03 Angstrom

 Lattice vectors:
        5.41177104         .00000000         .00000000
        2.70588552        4.68673120         .00000000
         .00000000         .00000000       44.18692550

 Supercell Lattice vectors:
        5.41177104         .00000000         .00000000
        2.70588552        4.68673120         .00000000
         .00000000         .00000000       44.18692550

 Surface area:        25.36351617
 Surface area:        25.36351617

 Volume of unit cell:      1120.73579960

 Number of atoms:    4
 Atoms: 
         .00000000         .00000000         .00000000
         .00000000        3.12448747       -4.41869255
         .00000000       -3.12448747       -8.83738510
         .00000000         .00000000      -13.25607765

 Atomic coordinates in reduced coordinate 
           .000000000000           .000000000000           .000000000000
          -.333333333333           .666666666667          -.100000000000
           .333333333333          -.666666666667          -.200000000000
           .000000000000           .000000000000          -.300000000000

 Atoms (center of the slab is set to the origin):
           .000000000000           .000000000000          6.628038825324
           .000000000000          3.124487466236          2.209346275108
           .000000000000         -3.124487466236         -2.209346275108
           .000000000000           .000000000000         -6.628038825324
