 15
H up water bylayer on Rh9  
H         1.35481037        2.34660040        2.12305816
H         1.85481914        3.21264100        3.30641913
O         1.35481037        2.34660040        3.13727882
H         3.70572567        4.81462482        2.65835684
H         2.31672457        5.61656498        2.65835684
O         2.70962074        4.69320079        2.53290576
Rh         .00000000         .00000000         .00000000
Rh        1.35481037        2.34660040         .00000000
Rh        2.70962074        4.69320079         .00000000
Rh         .00000000        1.56440026       -2.21239607
Rh        1.35481037        3.91100066       -2.21239607
Rh        2.70962074        6.25760106       -2.21239607
Rh         .00000000       -1.56440026       -4.42479214
Rh        1.35481037         .78220013       -4.42479214
Rh        2.70962074        3.12880053       -4.42479214
