 21
Pt21 
Pt        0.00000000        0.00000000        0.00000000
Pt        1.39602681        2.41798936        0.00000000
Pt        2.79205362        4.83597873        0.00000000
Pt        0.00000000        1.61199291       -2.27970223
Pt        1.39602681        4.02998227       -2.27970223
Pt        2.79205362        6.44797164       -2.27970223
Pt        0.00000000       -1.61199291       -4.55940447
Pt        1.39602681        0.80599645       -4.55940447
Pt        2.79205362        3.22398582       -4.55940447
Pt        0.00000000        0.00000000       -6.83910670
Pt        1.39602681        2.41798936       -6.83910670
Pt        2.79205362        4.83597873       -6.83910670
Pt        0.00000000        1.61199291       -9.11880894
Pt        1.39602681        4.02998227       -9.11880894
Pt        2.79205362        6.44797164       -9.11880894
Pt        0.00000000       -1.61199291      -11.39851117
Pt        1.39602681        0.80599645      -11.39851117
Pt        2.79205362        3.22398582      -11.39851117
Pt        0.00000000        0.00000000      -13.67821341
Pt        1.39602681        2.41798936      -13.67821341
Pt        2.79205362        4.83597873      -13.67821341
