 28
Pt28 
Pt        0.00000000        0.00000000        0.00000000
Pt        2.79205362        0.00000000        0.00000000
Pt        1.39602681        2.41798936        0.00000000
Pt        4.18808043        2.41798936        0.00000000
Pt        0.00000000        1.61199291       -2.27970223
Pt        2.79205362        1.61199291       -2.27970223
Pt        1.39602681        4.02998227       -2.27970223
Pt        4.18808043        4.02998227       -2.27970223
Pt        0.00000000       -1.61199291       -4.55940447
Pt        2.79205362       -1.61199291       -4.55940447
Pt        1.39602681        0.80599645       -4.55940447
Pt        4.18808043        0.80599645       -4.55940447
Pt        0.00000000        0.00000000       -6.83910670
Pt        2.79205362        0.00000000       -6.83910670
Pt        1.39602681        2.41798936       -6.83910670
Pt        4.18808043        2.41798936       -6.83910670
Pt        0.00000000        1.61199291       -9.11880894
Pt        2.79205362        1.61199291       -9.11880894
Pt        1.39602681        4.02998227       -9.11880894
Pt        4.18808043        4.02998227       -9.11880894
Pt        0.00000000       -1.61199291      -11.39851117
Pt        2.79205362       -1.61199291      -11.39851117
Pt        1.39602681        0.80599645      -11.39851117
Pt        4.18808043        0.80599645      -11.39851117
Pt        0.00000000        0.00000000      -13.67821341
Pt        2.79205362        0.00000000      -13.67821341
Pt        1.39602681        2.41798936      -13.67821341
Pt        4.18808043        2.41798936      -13.67821341
