  6
Pt6  
Pt        0.00000000        0.00000000        0.00000000
Pt        0.00000000        1.62132565       -2.29290072
Pt        0.00000000       -1.62132565       -4.58580144
Pt        0.00000000        0.00000000       -6.87870216
Pt        0.00000000        1.62132565       -9.17160288
Pt        0.00000000       -1.62132565      -11.46450360
