  9
Pt9  
Pt        0.00000000        0.00000000        0.00000000
Pt        0.00000000        1.61199291       -2.27970223
Pt        0.00000000       -1.61199291       -4.55940447
Pt        0.00000000        0.00000000       -6.83910670
Pt        0.00000000        1.61199291       -9.11880894
Pt        0.00000000       -1.61199291      -11.39851117
Pt        0.00000000        0.00000000      -13.67821341
Pt        0.00000000        1.61199291      -15.95791564
Pt        0.00000000       -1.61199291      -18.23761787
