
 ******************************************************************
 *** This program generates an fcc (111) 1x1 clean surface      ***
 ******************************************************************


 a_0=         7.46170000
 a  =         5.27621867

 Slab of  8 ML
 Vacuum region corresponds to  6 ML
 Slabs are separated by  25.85 Bohr
 Slabs are separated by  13.68 Angstrom

 Inter-layer distance =         4.30801450
 Slab-slab distance   =        25.84808702


 Lattice vectors:
      5.276218669180      0.000000000000      0.000000000000
      2.638109334590      4.569339403431      0.000000000000
      0.000000000000      0.000000000000     60.312203050571

 Supercell Lattice vectors:
      5.276218669180      0.000000000000      0.000000000000
      2.638109334590      4.569339403431      0.000000000000
      0.000000000000      0.000000000000     60.312203050571

 Surface area:      24.108833866203
 Surface area:      24.108833866203

 Volume of unit cell:    1454.056883450896

 Number of atoms:    8
 Atoms: 
      0.000000000000      0.000000000000      0.000000000000
      0.000000000000      3.046226268954     -4.308014503612
      0.000000000000     -3.046226268954     -8.616029007224
      0.000000000000      0.000000000000    -12.924043510837
      0.000000000000      3.046226268954    -17.232058014449
      0.000000000000     -3.046226268954    -21.540072518061
      0.000000000000      0.000000000000    -25.848087021673
      0.000000000000      3.046226268954    -30.156101525286

 Atomic coordinates in reduced coordinate 
          0.000000000000          0.000000000000          0.000000000000
         -0.333333333333          0.666666666667         -0.071428571429
          0.333333333333         -0.666666666667         -0.142857142857
          0.000000000000          0.000000000000         -0.214285714286
         -0.333333333333          0.666666666667         -0.285714285714
          0.333333333333         -0.666666666667         -0.357142857143
          0.000000000000          0.000000000000         -0.428571428571
         -0.333333333333          0.666666666667         -0.500000000000

 Atoms (center of the slab is set to the origin):
          0.000000000000          0.000000000000         15.078050762643
          0.000000000000          3.046226268954         10.770036259031
          0.000000000000         -3.046226268954          6.462021755418
          0.000000000000          0.000000000000          2.154007251806
          0.000000000000          3.046226268954         -2.154007251806
          0.000000000000         -3.046226268954         -6.462021755418
          0.000000000000          0.000000000000        -10.770036259031
          0.000000000000          3.046226268954        -15.078050762643
