
 ******************************************************************
 *** This program generates an fcc (111) 1x1 clean surface      ***
 ******************************************************************

 
 a_0=         7.46170000
 a  =         5.27621867

 Slab of  2 ML
 Vacuum region corresponds to  6 ML
 Slabs are separated by  25.85 Bohr
 Slabs are separated by  13.68 Angstrom

 Lattice vectors:
       15.82865601         .00000000         .00000000
         .00000000        9.13867881         .00000000
         .00000000         .00000000       34.46411603

 Supercell Lattice vectors:
       15.82865601         .00000000         .00000000
         .00000000        9.13867881         .00000000
         .00000000         .00000000       34.46411603

 Surface area:       144.65300320
 Surface area:       144.65300320

 Volume of unit cell:      4985.33788612

 Number of atoms:   12
 Atoms: 
         .00000000         .00000000         .00000000
        5.27621867         .00000000         .00000000
       -5.27621867         .00000000         .00000000
        2.63810933        4.56933940         .00000000
        7.91432800        4.56933940         .00000000
       -2.63810933        4.56933940         .00000000
         .00000000        3.04622627       -4.30801450
        5.27621867        3.04622627       -4.30801450
       -5.27621867        3.04622627       -4.30801450
        2.63810933        7.61556567       -4.30801450
        7.91432800        7.61556567       -4.30801450
       -2.63810933        7.61556567       -4.30801450

 Atomic coordinates in reduced coordinate 
           .000000000000           .000000000000           .000000000000
           .333333333333           .000000000000           .000000000000
          -.333333333333           .000000000000           .000000000000
           .166666666667           .500000000000           .000000000000
           .500000000000           .500000000000           .000000000000
          -.166666666667           .500000000000           .000000000000
           .000000000000           .333333333333          -.125000000000
           .333333333333           .333333333333          -.125000000000
          -.333333333333           .333333333333          -.125000000000
           .166666666667           .833333333333          -.125000000000
           .500000000000           .833333333333          -.125000000000
          -.166666666667           .833333333333          -.125000000000
