
 ******************************************************************
 *** This program generates an fcc (111) 1x1 clean surface      ***
 ******************************************************************

 
 a_0=         7.46170000
 a  =         5.27621867

 Slab of  4 ML
 Vacuum region corresponds to  6 ML
 Slabs are separated by  25.85 Bohr
 Slabs are separated by  13.68 Angstrom

 Lattice vectors:
        5.27621867         .00000000         .00000000
        2.63810933        4.56933940         .00000000
         .00000000         .00000000       43.08014504

 Supercell Lattice vectors:
        5.27621867         .00000000         .00000000
        2.63810933        4.56933940         .00000000
         .00000000         .00000000       43.08014504

 Surface area:        24.10883387
 Surface area:        24.10883387

 Volume of unit cell:      1038.61205961

 Number of atoms:    4
 Atoms: 
         .00000000         .00000000         .00000000
         .00000000        3.04622627       -4.30801450
         .00000000       -3.04622627       -8.61602901
         .00000000         .00000000      -12.92404351

 Atomic coordinates in reduced coordinate 
           .000000000000           .000000000000           .000000000000
          -.333333333333           .666666666667          -.100000000000
           .333333333333          -.666666666667          -.200000000000
           .000000000000           .000000000000          -.300000000000
