
 ******************************************************************
 *** This program generates an fcc (111) 1x1 clean surface      ***
 ******************************************************************

 
 a_0=         7.46170000
 a  =         5.27621867

 Slab of  3 ML
 Vacuum region corresponds to  6 ML
 Slabs are separated by  25.85 Bohr
 Slabs are separated by  13.68 Angstrom

 Lattice vectors:
        5.27621867         .00000000         .00000000
        2.63810933        4.56933940         .00000000
         .00000000         .00000000       38.77213053

 Supercell Lattice vectors:
       10.55243734         .00000000         .00000000
        5.27621867        9.13867881         .00000000
         .00000000         .00000000       38.77213053

 Surface area:        96.43533546
 Surface area:        96.43533546

 Volume of unit cell:      3739.00341459

 Number of atoms:   12
 Atoms: 
         .00000000         .00000000         .00000000
        5.27621867         .00000000         .00000000
        2.63810933        4.56933940         .00000000
        7.91432800        4.56933940         .00000000
         .00000000        3.04622627       -4.30801450
        5.27621867        3.04622627       -4.30801450
        2.63810933        7.61556567       -4.30801450
        7.91432800        7.61556567       -4.30801450
         .00000000       -3.04622627       -8.61602901
        5.27621867       -3.04622627       -8.61602901
        2.63810933        1.52311313       -8.61602901
        7.91432800        1.52311313       -8.61602901

 Atomic coordinates in reduced coordinate 
           .000000000000           .000000000000           .000000000000
          1.000000000000           .000000000000           .000000000000
           .000000000000          1.000000000000           .000000000000
          1.000000000000          1.000000000000           .000000000000
          -.333333333333           .666666666667          -.111111111111
           .666666666667           .666666666667          -.111111111111
          -.333333333333          1.666666666667          -.111111111111
           .666666666667          1.666666666667          -.111111111111
           .333333333333          -.666666666667          -.222222222222
          1.333333333333          -.666666666667          -.222222222222
           .333333333333           .333333333333          -.222222222222
          1.333333333333           .333333333333          -.222222222222
