
 ******************************************************************
 *** This program generates an fcc (111) 1x1 clean surface      ***
 ******************************************************************


 a_0=         7.40770000
 a  =         5.23803490

 Slab of  5 ML
 Vacuum region corresponds to  6 ML
 Slabs are separated by  25.66 Bohr
 Slabs are separated by  13.58 Angstrom

 Inter-layer distance =         4.27683759
 Slab-slab distance   =        25.66102553


 Lattice vectors:
      5.238034902996      0.000000000000      0.000000000000
      2.619017451498      4.536271291904      0.000000000000
      0.000000000000      0.000000000000     47.045213479836

 Supercell Lattice vectors:
     10.476069805991      0.000000000000      0.000000000000
      5.238034902996      9.072542583807      0.000000000000
      0.000000000000      0.000000000000     47.045213479836

 Surface area:      95.044589425795
 Surface area:      95.044589425795

 Volume of unit cell:    4471.392999639863

 Number of atoms:   20
 Atoms: 
      0.000000000000      0.000000000000      0.000000000000
      5.238034902996      0.000000000000      0.000000000000
      2.619017451498      4.536271291904      0.000000000000
      7.857052354493      4.536271291904      0.000000000000
      0.000000000000      3.024180861269     -4.276837589076
      5.238034902996      3.024180861269     -4.276837589076
      2.619017451498      7.560452153173     -4.276837589076
      7.857052354493      7.560452153173     -4.276837589076
      0.000000000000     -3.024180861269     -8.553675178152
      5.238034902996     -3.024180861269     -8.553675178152
      2.619017451498      1.512090430635     -8.553675178152
      7.857052354493      1.512090430635     -8.553675178152
      0.000000000000      0.000000000000    -12.830512767228
      5.238034902996      0.000000000000    -12.830512767228
      2.619017451498      4.536271291904    -12.830512767228
      7.857052354493      4.536271291904    -12.830512767228
      0.000000000000      3.024180861269    -17.107350356304
      5.238034902996      3.024180861269    -17.107350356304
      2.619017451498      7.560452153173    -17.107350356304
      7.857052354493      7.560452153173    -17.107350356304

 Atomic coordinates in reduced coordinate 
          0.000000000000          0.000000000000          0.000000000000
          1.000000000000          0.000000000000          0.000000000000
          0.000000000000          1.000000000000          0.000000000000
          1.000000000000          1.000000000000          0.000000000000
         -0.333333333333          0.666666666667         -0.090909090909
          0.666666666667          0.666666666667         -0.090909090909
         -0.333333333333          1.666666666667         -0.090909090909
          0.666666666667          1.666666666667         -0.090909090909
          0.333333333333         -0.666666666667         -0.181818181818
          1.333333333333         -0.666666666667         -0.181818181818
          0.333333333333          0.333333333333         -0.181818181818
          1.333333333333          0.333333333333         -0.181818181818
          0.000000000000          0.000000000000         -0.272727272727
          1.000000000000          0.000000000000         -0.272727272727
          0.000000000000          1.000000000000         -0.272727272727
          1.000000000000          1.000000000000         -0.272727272727
         -0.333333333333          0.666666666667         -0.363636363636
          0.666666666667          0.666666666667         -0.363636363636
         -0.333333333333          1.666666666667         -0.363636363636
          0.666666666667          1.666666666667         -0.363636363636

 Atoms (center of the slab is set to the origin):
          0.000000000000          0.000000000000          8.553675178152
          5.238034902996          0.000000000000          8.553675178152
          2.619017451498          4.536271291904          8.553675178152
          7.857052354493          4.536271291904          8.553675178152
          0.000000000000          3.024180861269          4.276837589076
          5.238034902996          3.024180861269          4.276837589076
          2.619017451498          7.560452153173          4.276837589076
          7.857052354493          7.560452153173          4.276837589076
          0.000000000000         -3.024180861269          0.000000000000
          5.238034902996         -3.024180861269          0.000000000000
          2.619017451498          1.512090430635          0.000000000000
          7.857052354493          1.512090430635          0.000000000000
          0.000000000000          0.000000000000         -4.276837589076
          5.238034902996          0.000000000000         -4.276837589076
          2.619017451498          4.536271291904         -4.276837589076
          7.857052354493          4.536271291904         -4.276837589076
          0.000000000000          3.024180861269         -8.553675178152
          5.238034902996          3.024180861269         -8.553675178152
          2.619017451498          7.560452153173         -8.553675178152
          7.857052354493          7.560452153173         -8.553675178152
