
 ******************************************************************
 *** This program generates an fcc (111) 1x1 clean surface      ***
 ******************************************************************


 a_0=         7.50490000
 a  =         5.30676568

 Slab of  4 ML
 Vacuum region corresponds to  6 ML
 Slabs are separated by  26.00 Bohr
 Slabs are separated by  13.76 Angstrom

 Inter-layer distance =         4.33295604
 Slab-slab distance   =        25.99773621


 Lattice vectors:
      5.306765682127      0.000000000000      0.000000000000
      2.653382841063      4.595793892653      0.000000000000
      0.000000000000      0.000000000000     43.329560352412

 Supercell Lattice vectors:
      5.306765682127      0.000000000000      0.000000000000
      2.653382841063      4.595793892653      0.000000000000
      0.000000000000      0.000000000000     43.329560352412

 Surface area:      24.388801311661
 Surface area:      24.388801311661

 Volume of unit cell:    1056.756038356623

 Number of atoms:    4
 Atoms: 
      0.000000000000      0.000000000000      0.000000000000
      0.000000000000      3.063862595102     -4.332956035241
      0.000000000000     -3.063862595102     -8.665912070482
      0.000000000000      0.000000000000    -12.998868105724

 Atomic coordinates in reduced coordinate 
          0.000000000000          0.000000000000          0.000000000000
         -0.333333333333          0.666666666667         -0.100000000000
          0.333333333333         -0.666666666667         -0.200000000000
          0.000000000000          0.000000000000         -0.300000000000

 Atoms (center of the slab is set to the origin):
          0.000000000000          0.000000000000          6.499434052862
          0.000000000000          3.063862595102          2.166478017621
          0.000000000000         -3.063862595102         -2.166478017621
          0.000000000000          0.000000000000         -6.499434052862
