
 ******************************************************************
 *** This program generates an fcc (111) sqrt(3) x sqrt(3) R30  ***
 *** clean surface                                              ***
 ******************************************************************

 
 a_0=         7.46170000
 Inter layer distance:         4.30801450

 Slab of  3 ML
 Vacuum region corresponds to  8 ML
 Slabs are separated by  34.46 Bohr
 Slabs are separated by  18.24 Angstrom
 Size of the supercell along the z axis:  47.39 Bohr
 Size of the supercell along the z axis:  25.08 Angstrom

 Primitive lattice vectors:
        7.91432800        4.56933940         .00000000
         .00000000        9.13867881         .00000000
         .00000000         .00000000       47.38815954

 Supercell lattice vectors:
        7.91432800         .00000000         .00000000
         .00000000        9.13867881         .00000000
         .00000000         .00000000       47.38815954
 Number of atoms:    9
 Atoms: 
         .00000000         .00000000         .00000000
        2.63810933        4.56933940         .00000000
        5.27621867        9.13867881         .00000000
         .00000000        3.04622627       -4.30801450
        2.63810933        7.61556567       -4.30801450
        5.27621867       12.18490508       -4.30801450
         .00000000       -3.04622627       -8.61602901
        2.63810933        1.52311313       -8.61602901
        5.27621867        6.09245254       -8.61602901

 Atoms (center of the slab is set to the origin):
         .00000000         .00000000        4.30801450
        2.63810933        4.56933940        4.30801450
        5.27621867        9.13867881        4.30801450
         .00000000        3.04622627         .00000000
        2.63810933        7.61556567         .00000000
        5.27621867       12.18490508         .00000000
         .00000000       -3.04622627       -4.30801450
        2.63810933        1.52311313       -4.30801450
        5.27621867        6.09245254       -4.30801450
