
 ******************************************************************
 *** This program generates an fcc (111) 1x1 clean surface      ***
 ******************************************************************


 a_0=         7.50490000
 a  =         5.30676568

 Slab of  3 ML
 Vacuum region corresponds to  6 ML
 Slabs are separated by  26.00 Bohr
 Slabs are separated by  13.76 Angstrom

 Lattice vectors:
     15.920297046381      0.000000000000      0.000000000000
      0.000000000000      9.191587785307      0.000000000000
      0.000000000000      0.000000000000     38.996604317171

 Supercell Lattice vectors:
     15.920297046381      0.000000000000      0.000000000000
      0.000000000000     18.383175570613      0.000000000000
      0.000000000000      0.000000000000     38.996604317171

 Surface area:     292.665615739937
 Surface area:     292.665615739937

 Volume of unit cell:   11412.965214251526

 Number of atoms:   18
 Atoms: 
      0.000000000000      0.000000000000      0.000000000000
      5.306765682127      0.000000000000      0.000000000000
     -5.306765682127      0.000000000000      0.000000000000
      2.653382841063      4.595793892653      0.000000000000
      7.960148523190      4.595793892653      0.000000000000
     -2.653382841063      4.595793892653      0.000000000000
      0.000000000000      3.063862595102     -4.332956035241
      5.306765682127      3.063862595102     -4.332956035241
     -5.306765682127      3.063862595102     -4.332956035241
      2.653382841063      7.659656487756     -4.332956035241
      7.960148523190      7.659656487756     -4.332956035241
     -2.653382841063      7.659656487756     -4.332956035241
      0.000000000000     -3.063862595102     -8.665912070482
      5.306765682127     -3.063862595102     -8.665912070482
     -5.306765682127     -3.063862595102     -8.665912070482
      2.653382841063      1.531931297551     -8.665912070482
      7.960148523190      1.531931297551     -8.665912070482
     -2.653382841063      1.531931297551     -8.665912070482

 Atomic coordinates in reduced coordinate 
      0.000000000000      0.000000000000      0.000000000000
      0.333333333333      0.000000000000      0.000000000000
     -0.333333333333      0.000000000000      0.000000000000
      0.166666666667      0.500000000000      0.000000000000
      0.500000000000      0.500000000000      0.000000000000
     -0.166666666667      0.500000000000      0.000000000000
      0.000000000000      0.333333333333     -0.111111111111
      0.333333333333      0.333333333333     -0.111111111111
     -0.333333333333      0.333333333333     -0.111111111111
      0.166666666667      0.833333333333     -0.111111111111
      0.500000000000      0.833333333333     -0.111111111111
     -0.166666666667      0.833333333333     -0.111111111111
      0.000000000000     -0.333333333333     -0.222222222222
      0.333333333333     -0.333333333333     -0.222222222222
     -0.333333333333     -0.333333333333     -0.222222222222
      0.166666666667      0.166666666667     -0.222222222222
      0.500000000000      0.166666666667     -0.222222222222
     -0.166666666667      0.166666666667     -0.222222222222
