
 ******************************************************************
 *** This program generates an fcc (111) 1x1 slab               ***
 ******************************************************************

 a_0=         7.46100000
 a  =         5.27572369
 Lattice vectors:
        2.63786185        4.56891074         .00000000
       -2.63786185        4.56891074         .00000000
         .00000000         .00000000       64.61415538
 Number of atoms:    6
 Atoms: 
         .00000000         .00000000         .00000000
         .00000000       -3.04594050       -4.30761036
         .00000000        3.04594050       -8.61522072
         .00000000         .00000000      -12.92283108
         .00000000       -3.04594050      -17.23044143
         .00000000        3.04594050      -21.53805179
