 
 a_0=         7.46100000
 a  =         5.27572369

 Slab of  3 ML
 Vacuum region corresponds to  8 ML
 Slabs are separated by  38.77 Bohr
 Slabs are separated by  20.52 Angstrom

 Lattice vectors:
        2.63786185        4.56891074         .00000000
       -2.63786185        4.56891074         .00000000
         .00000000         .00000000       47.38371394
 Number of atoms:    3
 Atoms: 
         .00000000         .00000000         .00000000
         .00000000       -3.04594050       -4.30761036
         .00000000        3.04594050       -8.61522072
