
 ******************************************************************
 *** This program generates an fcc (111) 1x1 clean surface      ***
 ******************************************************************

 
 a_0=         7.46170000
 a  =          .00000000

 Slab of  3 ML
 Vacuum region corresponds to  6 ML
 Slabs are separated by  25.85 Bohr
 Slabs are separated by  13.68 Angstrom

 Lattice vectors:
        5.27621867         .00000000         .00000000
        2.63810933        4.56933940         .00000000
         .00000000         .00000000       38.77213053
 Number of atoms:    3
 Atoms: 
         .00000000         .00000000         .00000000
         .00000000        3.04622627       -4.30801450
         .00000000       -3.04622627       -8.61602901
