
 ******************************************************************
 *** This program generates an fcc (111) 1x1 slab               ***
 ******************************************************************

Enter atomic symbol> Enter lattice constant of the bulk> Enter the number of layers> Enter the number of layers in the vacum region > Enter two integers to construct an (N1xN2) supercell >  
 a_0=         7.46400000
 a  =         5.27784501
 Lattice vectors:
        2.63892251        4.57074786         .00000000
       -2.63892251        4.57074786         .00000000
         .00000000         .00000000       43.09342409
 Number of atoms:    4
 Atoms: 
         .00000000         .00000000         .00000000
         .00000000       -3.04716524       -4.30934241
         .00000000        3.04716524       -8.61868482
         .00000000         .00000000      -12.92802723
