
 ******************************************************************
 *** This program generates an fcc (111) 1x1 clean surface      ***
 ******************************************************************


 a_0=         7.50490000
 a  =         5.30676568

 Slab of  6 ML
 Vacuum region corresponds to  6 ML
 Slabs are separated by  26.00 Bohr
 Slabs are separated by  13.76 Angstrom

 Inter-layer distance =         4.33295604
 Slab-slab distance   =        25.99773621


 Lattice vectors:
      5.306765682127      0.000000000000      0.000000000000
      2.653382841063      4.595793892653      0.000000000000
      0.000000000000      0.000000000000     51.995472422895

 Supercell Lattice vectors:
      5.306765682127      0.000000000000      0.000000000000
      2.653382841063      4.595793892653      0.000000000000
      0.000000000000      0.000000000000     51.995472422895

 Surface area:      24.388801311661
 Surface area:      24.388801311661

 Volume of unit cell:    1268.107246027947

 Number of atoms:    6
 Atoms: 
      0.000000000000      0.000000000000      0.000000000000
      0.000000000000      3.063862595102     -4.332956035241
      0.000000000000     -3.063862595102     -8.665912070482
      0.000000000000      0.000000000000    -12.998868105724
      0.000000000000      3.063862595102    -17.331824140965
      0.000000000000     -3.063862595102    -21.664780176206

 Atomic coordinates in reduced coordinate 
          0.000000000000          0.000000000000          0.000000000000
         -0.333333333333          0.666666666667         -0.083333333333
          0.333333333333         -0.666666666667         -0.166666666667
          0.000000000000          0.000000000000         -0.250000000000
         -0.333333333333          0.666666666667         -0.333333333333
          0.333333333333         -0.666666666667         -0.416666666667

 Atoms (center of the slab is set to the origin):
          0.000000000000          0.000000000000         10.832390088103
          0.000000000000          3.063862595102          6.499434052862
          0.000000000000         -3.063862595102          2.166478017621
          0.000000000000          0.000000000000         -2.166478017621
          0.000000000000          3.063862595102         -6.499434052862
          0.000000000000         -3.063862595102        -10.832390088103
