
 ******************************************************************
 *** This program generates an fcc (111) 1x1 clean surface      ***
 ******************************************************************

 
 a_0=         7.46170000
 a  =         5.27621867

 Slab of  4 ML
 Vacuum region corresponds to  6 ML
 Slabs are separated by  25.85 Bohr
 Slabs are separated by  13.68 Angstrom

 Lattice vectors:
       15.82865601         .00000000         .00000000
         .00000000        9.13867881         .00000000
         .00000000         .00000000       43.08014504

 Supercell Lattice vectors:
       15.82865601         .00000000         .00000000
         .00000000       18.27735761         .00000000
         .00000000         .00000000       43.08014504

 Surface area:       289.30600639
 Surface area:       289.30600639

 Volume of unit cell:     12463.34471529

 Number of atoms:   24
 Atoms: 
         .00000000         .00000000         .00000000
        5.27621867         .00000000         .00000000
       -5.27621867         .00000000         .00000000
        2.63810933        4.56933940         .00000000
        7.91432800        4.56933940         .00000000
       -2.63810933        4.56933940         .00000000
         .00000000        3.04622627       -4.30801450
        5.27621867        3.04622627       -4.30801450
       -5.27621867        3.04622627       -4.30801450
        2.63810933        7.61556567       -4.30801450
        7.91432800        7.61556567       -4.30801450
       -2.63810933        7.61556567       -4.30801450
         .00000000       -3.04622627       -8.61602901
        5.27621867       -3.04622627       -8.61602901
       -5.27621867       -3.04622627       -8.61602901
        2.63810933        1.52311313       -8.61602901
        7.91432800        1.52311313       -8.61602901
       -2.63810933        1.52311313       -8.61602901
         .00000000         .00000000      -12.92404351
        5.27621867         .00000000      -12.92404351
       -5.27621867         .00000000      -12.92404351
        2.63810933        4.56933940      -12.92404351
        7.91432800        4.56933940      -12.92404351
       -2.63810933        4.56933940      -12.92404351

 Atomic coordinates in reduced coordinate 
           .000000000000           .000000000000           .000000000000
           .333333333333           .000000000000           .000000000000
          -.333333333333           .000000000000           .000000000000
           .166666666667           .500000000000           .000000000000
           .500000000000           .500000000000           .000000000000
          -.166666666667           .500000000000           .000000000000
           .000000000000           .333333333333          -.100000000000
           .333333333333           .333333333333          -.100000000000
          -.333333333333           .333333333333          -.100000000000
           .166666666667           .833333333333          -.100000000000
           .500000000000           .833333333333          -.100000000000
          -.166666666667           .833333333333          -.100000000000
           .000000000000          -.333333333333          -.200000000000
           .333333333333          -.333333333333          -.200000000000
          -.333333333333          -.333333333333          -.200000000000
           .166666666667           .166666666667          -.200000000000
           .500000000000           .166666666667          -.200000000000
          -.166666666667           .166666666667          -.200000000000
           .000000000000           .000000000000          -.300000000000
           .333333333333           .000000000000          -.300000000000
          -.333333333333           .000000000000          -.300000000000
           .166666666667           .500000000000          -.300000000000
           .500000000000           .500000000000          -.300000000000
          -.166666666667           .500000000000          -.300000000000
