 12
Pt12 
Pt        0.00000000        0.00000000       -4.18808043
Pt        0.00000000        3.94856010        4.18808043
Pt        1.39602681       -1.97428005        2.79205362
Pt        1.39602681        1.97428005        2.79205362
Pt        0.00000000       -3.94856010        1.39602681
Pt        0.00000000        0.00000000        1.39602681
Pt        1.39602681       -1.97428005        0.00000000
Pt        1.39602681        1.97428005        0.00000000
Pt        0.00000000       -3.94856010       -1.39602681
Pt        0.00000000        0.00000000       -1.39602681
Pt        1.39602681       -1.97428005       -2.79205362
Pt        1.39602681        1.97428005       -2.79205362
