 
 a_0=         7.46100000

 Slab of  4 ML
 Vacuum region corresponds to 10 ML
 Slabs are separated by  29.02 Bohr
 Slabs are separated by  15.35 Angstrom

 Primitive lattice vectors:
        5.27572369         .00000000         .00000000
         .00000000        7.46100000         .00000000
         .00000000         .00000000       36.93006586

 Supercell lattice vectors:
        5.27572369         .00000000         .00000000
         .00000000       14.92200000         .00000000
         .00000000         .00000000       36.93006586
 Number of atoms:    8
 Atoms: 
         .00000000         .00000000         .00000000
         .00000000        7.46100000         .00000000
        2.63786185        3.73050000       -2.63786185
        2.63786185       11.19150000       -2.63786185
         .00000000         .00000000       -5.27572369
         .00000000        7.46100000       -5.27572369
        2.63786185        3.73050000       -7.91358554
        2.63786185       11.19150000       -7.91358554

 Atoms (center of the slab is set to the origin):
         .00000000         .00000000        3.95679277
         .00000000        7.46100000        3.95679277
        2.63786185        3.73050000        1.31893092
        2.63786185       11.19150000        1.31893092
         .00000000         .00000000       -1.31893092
         .00000000        7.46100000       -1.31893092
        2.63786185        3.73050000       -3.95679277
        2.63786185       11.19150000       -3.95679277
