 
 a_0=         7.46100000

 Slab of  8 ML
 Vacuum region corresponds to 10 ML
 Slabs are separated by  29.02 Bohr
 Slabs are separated by  15.35 Angstrom

 Primitive lattice vectors:
        5.27572369         .00000000         .00000000
         .00000000        7.46100000         .00000000
         .00000000         .00000000       47.48151325

 Supercell lattice vectors:
        5.27572369         .00000000         .00000000
         .00000000        7.46100000         .00000000
         .00000000         .00000000       47.48151325
 Number of atoms:    8
 Atoms: 
         .00000000         .00000000         .00000000
        2.63786185        3.73050000       -2.63786185
         .00000000         .00000000       -5.27572369
        2.63786185        3.73050000       -7.91358554
         .00000000         .00000000      -10.55144739
        2.63786185        3.73050000      -13.18930924
         .00000000         .00000000      -15.82717108
        2.63786185        3.73050000      -18.46503293

 Atoms (center of the slab is set to the origin):
         .00000000         .00000000        9.23251647
        2.63786185        3.73050000        6.59465462
         .00000000         .00000000        3.95679277
        2.63786185        3.73050000        1.31893092
         .00000000         .00000000       -1.31893092
        2.63786185        3.73050000       -3.95679277
         .00000000         .00000000       -6.59465462
        2.63786185        3.73050000       -9.23251647
