 
 a_0=         7.46100000

 Slab of 10 ML
 Vacuum region corresponds to 10 ML
 Slabs are separated by  29.02 Bohr
 Slabs are separated by  15.35 Angstrom

 Primitive lattice vectors:
        5.27572369         .00000000         .00000000
         .00000000        7.46100000         .00000000
         .00000000         .00000000       52.75723694

 Supercell lattice vectors:
        5.27572369         .00000000         .00000000
         .00000000       14.92200000         .00000000
         .00000000         .00000000       52.75723694
 Number of atoms:   20
 Atoms: 
         .00000000         .00000000         .00000000
         .00000000        7.46100000         .00000000
        2.63786185        3.73050000       -2.63786185
        2.63786185       11.19150000       -2.63786185
         .00000000         .00000000       -5.27572369
         .00000000        7.46100000       -5.27572369
        2.63786185        3.73050000       -7.91358554
        2.63786185       11.19150000       -7.91358554
         .00000000         .00000000      -10.55144739
         .00000000        7.46100000      -10.55144739
        2.63786185        3.73050000      -13.18930924
        2.63786185       11.19150000      -13.18930924
         .00000000         .00000000      -15.82717108
         .00000000        7.46100000      -15.82717108
        2.63786185        3.73050000      -18.46503293
        2.63786185       11.19150000      -18.46503293
         .00000000         .00000000      -21.10289478
         .00000000        7.46100000      -21.10289478
        2.63786185        3.73050000      -23.74075662
        2.63786185       11.19150000      -23.74075662

 Atoms (center of the slab is set to the origin):
         .00000000         .00000000       11.87037831
         .00000000        7.46100000       11.87037831
        2.63786185        3.73050000        9.23251647
        2.63786185       11.19150000        9.23251647
         .00000000         .00000000        6.59465462
         .00000000        7.46100000        6.59465462
        2.63786185        3.73050000        3.95679277
        2.63786185       11.19150000        3.95679277
         .00000000         .00000000        1.31893092
         .00000000        7.46100000        1.31893092
        2.63786185        3.73050000       -1.31893092
        2.63786185       11.19150000       -1.31893092
         .00000000         .00000000       -3.95679277
         .00000000        7.46100000       -3.95679277
        2.63786185        3.73050000       -6.59465462
        2.63786185       11.19150000       -6.59465462
         .00000000         .00000000       -9.23251647
         .00000000        7.46100000       -9.23251647
        2.63786185        3.73050000      -11.87037831
        2.63786185       11.19150000      -11.87037831
