 
 a_0=         7.46100000

 Slab of  9 ML
 Vacuum region corresponds to 11 ML
 Slabs are separated by  31.65 Bohr
 Slabs are separated by  16.75 Angstrom

 Primitive lattice vectors:
        5.27572369         .00000000         .00000000
         .00000000        7.46100000         .00000000
         .00000000         .00000000       52.75723694

 Supercell lattice vectors:
        5.27572369         .00000000         .00000000
         .00000000        7.46100000         .00000000
         .00000000         .00000000       52.75723694
 Number of atoms:    9
 Atoms: 
         .00000000         .00000000         .00000000
        2.63786185        3.73050000       -2.63786185
         .00000000         .00000000       -5.27572369
        2.63786185        3.73050000       -7.91358554
         .00000000         .00000000      -10.55144739
        2.63786185        3.73050000      -13.18930924
         .00000000         .00000000      -15.82717108
        2.63786185        3.73050000      -18.46503293
         .00000000         .00000000      -21.10289478

 Atoms (center of the slab is set to the origin):
         .00000000         .00000000       10.55144739
        2.63786185        3.73050000        7.91358554
         .00000000         .00000000        5.27572369
        2.63786185        3.73050000        2.63786185
         .00000000         .00000000         .00000000
        2.63786185        3.73050000       -2.63786185
         .00000000         .00000000       -5.27572369
        2.63786185        3.73050000       -7.91358554
         .00000000         .00000000      -10.55144739
