 12
Rh12 
Rh        0.00000000        0.00000000        0.00000000
Rh        1.35544648        2.34770218        0.00000000
Rh        2.71089297        4.69540436        0.00000000
Rh        0.00000000        1.56513479       -2.21343484
Rh        1.35544648        3.91283696       -2.21343484
Rh        2.71089297        6.26053914       -2.21343484
Rh        0.00000000       -1.56513479       -4.42686968
Rh        1.35544648        0.78256739       -4.42686968
Rh        2.71089297        3.13026957       -4.42686968
Rh        0.00000000        0.00000000       -6.64030452
Rh        1.35544648        2.34770218       -6.64030452
Rh        2.71089297        4.69540436       -6.64030452
