 15
Rh15 
Rh        0.00000000        0.00000000        0.00000000
Rh        1.36405273        2.36260863        0.00000000
Rh        2.72810546        4.72521727        0.00000000
Rh        0.00000000        1.57507242       -2.22748878
Rh        1.36405273        3.93768106       -2.22748878
Rh        2.72810546        6.30028969       -2.22748878
Rh        0.00000000       -1.57507242       -4.45497757
Rh        1.36405273        0.78753621       -4.45497757
Rh        2.72810546        3.15014485       -4.45497757
Rh        0.00000000        0.00000000       -6.68246635
Rh        1.36405273        2.36260863       -6.68246635
Rh        2.72810546        4.72521727       -6.68246635
Rh        0.00000000        1.57507242       -8.90995513
Rh        1.36405273        3.93768106       -8.90995513
Rh        2.72810546        6.30028969       -8.90995513
