
 ******************************************************************
 *** This program generates an fcc (111) sqrt(3) x sqrt(3) R30  ***
 *** clean surface                                              ***
 ******************************************************************


 a_0=         7.24480000

 Slab of  3 ML
 Vacuum region corresponds to 10 ML
 Slabs are separated by  46.01 Bohr
 Slabs are separated by  24.35 Angstrom
 Size of the supercell along the z axis:  54.38 Bohr
 Size of the supercell along the z axis:  28.77 Angstrom

 Primitive lattice vectors:
        7.68427081        4.43651582        0.00000000
        0.00000000        8.87303164        0.00000000
        0.00000000        0.00000000       54.37623399

 Supercell lattice vectors:
        7.68427081        0.00000000        0.00000000
        0.00000000        8.87303164        0.00000000
        0.00000000        0.00000000       54.37623399
 Number of atoms:    9
 Atoms: 
        0.00000000        0.00000000        0.00000000
        2.56142360        4.43651582        0.00000000
        5.12284721        8.87303164        0.00000000
        0.00000000        2.95767721       -4.18278723
        2.56142360        7.39419304       -4.18278723
        5.12284721       11.83070886       -4.18278723
        0.00000000       -2.95767721       -8.36557446
        2.56142360        1.47883861       -8.36557446
        5.12284721        5.91535443       -8.36557446

 Atoms (center of the slab is set to the origin):
        0.00000000        0.00000000        4.18278723
        2.56142360        4.43651582        4.18278723
        5.12284721        8.87303164        4.18278723
        0.00000000        2.95767721        0.00000000
        2.56142360        7.39419304        0.00000000
        5.12284721       11.83070886        0.00000000
        0.00000000       -2.95767721       -4.18278723
        2.56142360        1.47883861       -4.18278723
        5.12284721        5.91535443       -4.18278723
