
 ******************************************************************
 *** This program generates a graphite surface                  ***
 ******************************************************************


 a_0=         4.65461515
 c_0=        12.55663615
 Inter layer distance:         6.27831807

 Slab of  5 ML
 Slabs are separated by 113.38 Bohr
 Slabs are separated by  60.00 Angstrom
 Size of the supercell along the z axis: 138.50 Bohr
 Size of the supercell along the z axis:  73.29 Angstrom

 Primitive lattice vectors:
      4.654615150000      0.000000000000      0.000000000000
     -2.327307575000      4.031014964740      0.000000000000
      0.000000000000      0.000000000000    138.496882811103
 Number of atoms:   10
 Atoms: 
      0.000000000000      0.000000000000     -0.000000000000    1    1    1
      0.000000000000      2.687343309827     -0.000000000000    1    1    1
      0.000000000000      0.000000000000     -6.278318075000    1    1    1
      2.327307575000      1.343671654913     -6.278318075000    1    1    1
      0.000000000000      0.000000000000    -12.556636150000    1    1    1
      0.000000000000      2.687343309827    -12.556636150000    1    1    1
      0.000000000000      0.000000000000    -18.834954225000    1    1    1
      2.327307575000      1.343671654913    -18.834954225000    1    1    1
      0.000000000000      0.000000000000    -25.113272300000    1    1    1
      0.000000000000      2.687343309827    -25.113272300000    1    1    1

 Atoms (center of the slab is set to the origin):
      0.000000000000      0.000000000000     12.556636150000    1    1    1
      0.000000000000      2.687343309827     12.556636150000    1    1    1
      0.000000000000      0.000000000000      6.278318075000    1    1    1
      2.327307575000      1.343671654913      6.278318075000    1    1    1
      0.000000000000      0.000000000000      0.000000000000    1    1    1
      0.000000000000      2.687343309827      0.000000000000    1    1    1
      0.000000000000      0.000000000000     -6.278318075000    1    1    1
      2.327307575000      1.343671654913     -6.278318075000    1    1    1
      0.000000000000      0.000000000000    -12.556636150000    1    1    1
      0.000000000000      2.687343309827    -12.556636150000    1    1    1
