
 ******************************************************************
 *** This program generates a graphite surface                  ***
 ******************************************************************


 a_0=         4.65461515
 c_0=        12.55663615
 Inter layer distance:         6.27831807

 Slab of 19 ML
 Slabs are separated by 113.38 Bohr
 Slabs are separated by  60.00 Angstrom
 Size of the supercell along the z axis: 226.39 Bohr
 Size of the supercell along the z axis: 119.80 Angstrom

 Primitive lattice vectors:
      4.654615150000      0.000000000000      0.000000000000
     -2.327307575000      4.031014964740      0.000000000000
      0.000000000000      0.000000000000    226.393335861103
 Number of atoms:   38
 Atoms: 
      0.000000000000      0.000000000000     -0.000000000000    1    1    1
      0.000000000000      2.687343309827     -0.000000000000    1    1    1
      0.000000000000      0.000000000000     -6.278318075000    1    1    1
      2.327307575000      1.343671654913     -6.278318075000    1    1    1
      0.000000000000      0.000000000000    -12.556636150000    1    1    1
      0.000000000000      2.687343309827    -12.556636150000    1    1    1
      0.000000000000      0.000000000000    -18.834954225000    1    1    1
      2.327307575000      1.343671654913    -18.834954225000    1    1    1
      0.000000000000      0.000000000000    -25.113272300000    1    1    1
      0.000000000000      2.687343309827    -25.113272300000    1    1    1
      0.000000000000      0.000000000000    -31.391590375000    1    1    1
      2.327307575000      1.343671654913    -31.391590375000    1    1    1
      0.000000000000      0.000000000000    -37.669908450000    1    1    1
      0.000000000000      2.687343309827    -37.669908450000    1    1    1
      0.000000000000      0.000000000000    -43.948226525000    1    1    1
      2.327307575000      1.343671654913    -43.948226525000    1    1    1
      0.000000000000      0.000000000000    -50.226544600000    1    1    1
      0.000000000000      2.687343309827    -50.226544600000    1    1    1
      0.000000000000      0.000000000000    -56.504862675000    1    1    1
      2.327307575000      1.343671654913    -56.504862675000    1    1    1
      0.000000000000      0.000000000000    -62.783180750000    1    1    1
      0.000000000000      2.687343309827    -62.783180750000    1    1    1
      0.000000000000      0.000000000000    -69.061498825000    1    1    1
      2.327307575000      1.343671654913    -69.061498825000    1    1    1
      0.000000000000      0.000000000000    -75.339816900000    1    1    1
      0.000000000000      2.687343309827    -75.339816900000    1    1    1
      0.000000000000      0.000000000000    -81.618134975000    1    1    1
      2.327307575000      1.343671654913    -81.618134975000    1    1    1
      0.000000000000      0.000000000000    -87.896453050000    1    1    1
      0.000000000000      2.687343309827    -87.896453050000    1    1    1
      0.000000000000      0.000000000000    -94.174771125000    1    1    1
      2.327307575000      1.343671654913    -94.174771125000    1    1    1
      0.000000000000      0.000000000000   -100.453089200000    1    1    1
      0.000000000000      2.687343309827   -100.453089200000    1    1    1
      0.000000000000      0.000000000000   -106.731407275000    1    1    1
      2.327307575000      1.343671654913   -106.731407275000    1    1    1
      0.000000000000      0.000000000000   -113.009725350000    1    1    1
      0.000000000000      2.687343309827   -113.009725350000    1    1    1

 Atoms (center of the slab is set to the origin):
      0.000000000000      0.000000000000     56.504862675000    1    1    1
      0.000000000000      2.687343309827     56.504862675000    1    1    1
      0.000000000000      0.000000000000     50.226544600000    1    1    1
      2.327307575000      1.343671654913     50.226544600000    1    1    1
      0.000000000000      0.000000000000     43.948226525000    1    1    1
      0.000000000000      2.687343309827     43.948226525000    1    1    1
      0.000000000000      0.000000000000     37.669908450000    1    1    1
      2.327307575000      1.343671654913     37.669908450000    1    1    1
      0.000000000000      0.000000000000     31.391590375000    1    1    1
      0.000000000000      2.687343309827     31.391590375000    1    1    1
      0.000000000000      0.000000000000     25.113272300000    1    1    1
      2.327307575000      1.343671654913     25.113272300000    1    1    1
      0.000000000000      0.000000000000     18.834954225000    1    1    1
      0.000000000000      2.687343309827     18.834954225000    1    1    1
      0.000000000000      0.000000000000     12.556636150000    1    1    1
      2.327307575000      1.343671654913     12.556636150000    1    1    1
      0.000000000000      0.000000000000      6.278318075000    1    1    1
      0.000000000000      2.687343309827      6.278318075000    1    1    1
      0.000000000000      0.000000000000      0.000000000000    1    1    1
      2.327307575000      1.343671654913      0.000000000000    1    1    1
      0.000000000000      0.000000000000     -6.278318075000    1    1    1
      0.000000000000      2.687343309827     -6.278318075000    1    1    1
      0.000000000000      0.000000000000    -12.556636150000    1    1    1
      2.327307575000      1.343671654913    -12.556636150000    1    1    1
      0.000000000000      0.000000000000    -18.834954225000    1    1    1
      0.000000000000      2.687343309827    -18.834954225000    1    1    1
      0.000000000000      0.000000000000    -25.113272300000    1    1    1
      2.327307575000      1.343671654913    -25.113272300000    1    1    1
      0.000000000000      0.000000000000    -31.391590375000    1    1    1
      0.000000000000      2.687343309827    -31.391590375000    1    1    1
      0.000000000000      0.000000000000    -37.669908450000    1    1    1
      2.327307575000      1.343671654913    -37.669908450000    1    1    1
      0.000000000000      0.000000000000    -43.948226525000    1    1    1
      0.000000000000      2.687343309827    -43.948226525000    1    1    1
      0.000000000000      0.000000000000    -50.226544600000    1    1    1
      2.327307575000      1.343671654913    -50.226544600000    1    1    1
      0.000000000000      0.000000000000    -56.504862675000    1    1    1
      0.000000000000      2.687343309827    -56.504862675000    1    1    1
