
 ******************************************************************
 *** This program generates an fcc (322) (nxm) clean surface    ***
 ******************************************************************


 Lattice constant =     7.46170000 (Bohr)
 Lattice constant =     3.94856002 (Angstrom)

 Angle between (111) and (322) plane =    11.42175366 (degree)

 Supercell dimension : 01x03

 Lattice vectors (Bohr)
     21.754406876884      0.000000000000      0.000000000000
      0.000000000000     15.828656007539      0.000000000000
      0.000000000000      0.000000000000     57.135700600961

  Atomic positions (Bohr)
      0.000000000000     -5.276218669180     -0.000000000000    1    1    1
      4.478848474653     -7.914328003769     -0.904864036667    1    1    1
      8.957696949305     -5.276218669180     -1.809728073334    1    1    1
     13.436545423958     -7.914328003769     -2.714592110000    1    1    1
     17.915393898610     -5.276218669180     -3.619456146667    1    1    1
     -3.839012978274     -5.276218669180     -3.619456146667    1    1    1
      0.639835496379     -7.914328003769     -4.524320183334    1    1    1
      5.118683971031     -5.276218669180     -5.429184220001    1    1    1
      9.597532445684     -7.914328003769     -6.334048256668    1    1    1
     14.076380920336     -5.276218669180     -7.238912293334    1    1    1
     18.555229394989     -7.914328003769     -8.143776330001    1    1    1
      1.279670992758     -5.276218669180     -9.048640366668    1    1    1
      5.758519467410     -7.914328003769     -9.953504403335    1    1    1
     10.237367942063     -5.276218669180    -10.858368440002    1    1    1
     14.716216416715     -7.914328003769    -11.763232476668    1    1    1
     19.195064891368     -5.276218669180    -12.668096513335    1    1    1
      0.000000000000      0.000000000000     -0.000000000000    1    1    1
      4.478848474653     -2.638109334590     -0.904864036667    1    1    1
      8.957696949305      0.000000000000     -1.809728073334    1    1    1
     13.436545423958     -2.638109334590     -2.714592110000    1    1    1
     17.915393898610      0.000000000000     -3.619456146667    1    1    1
     -3.839012978274      0.000000000000     -3.619456146667    1    1    1
      0.639835496379     -2.638109334590     -4.524320183334    1    1    1
      5.118683971031      0.000000000000     -5.429184220001    1    1    1
      9.597532445684     -2.638109334590     -6.334048256668    1    1    1
     14.076380920336      0.000000000000     -7.238912293334    1    1    1
     18.555229394989     -2.638109334590     -8.143776330001    1    1    1
      1.279670992758      0.000000000000     -9.048640366668    1    1    1
      5.758519467410     -2.638109334590     -9.953504403335    1    1    1
     10.237367942063      0.000000000000    -10.858368440002    1    1    1
     14.716216416715     -2.638109334590    -11.763232476668    1    1    1
     19.195064891368      0.000000000000    -12.668096513335    1    1    1
      0.000000000000      5.276218669180     -0.000000000000    1    1    1
      4.478848474653      2.638109334590     -0.904864036667    1    1    1
      8.957696949305      5.276218669180     -1.809728073334    1    1    1
     13.436545423958      2.638109334590     -2.714592110000    1    1    1
     17.915393898610      5.276218669180     -3.619456146667    1    1    1
     -3.839012978274      5.276218669180     -3.619456146667    1    1    1
      0.639835496379      2.638109334590     -4.524320183334    1    1    1
      5.118683971031      5.276218669180     -5.429184220001    1    1    1
      9.597532445684      2.638109334590     -6.334048256668    1    1    1
     14.076380920336      5.276218669180     -7.238912293334    1    1    1
     18.555229394989      2.638109334590     -8.143776330001    1    1    1
      1.279670992758      5.276218669180     -9.048640366668    1    1    1
      5.758519467410      2.638109334590     -9.953504403335    1    1    1
     10.237367942063      5.276218669180    -10.858368440002    1    1    1
     14.716216416715      2.638109334590    -11.763232476668    1    1    1
     19.195064891368      5.276218669180    -12.668096513335    1    1    1

