 15
H up water bylayer on Rh9  
H         1.35544648        2.34770218        1.16799950
H         1.83794100        3.18340719        2.38988753
O         1.35544648        2.34770218        2.15999472
H         3.72271182        4.79818117        2.21902308
H         2.29399087        5.62305359        2.21902308
O         2.71089297        4.69540436        2.08998460
Rh        0.00000000        0.00000000        0.00000000
Rh        1.35544648        2.34770218        0.00000000
Rh        2.71089297        4.69540436        0.00000000
Rh        0.00000000        1.56513479       -2.21343484
Rh        1.35544648        3.91283696       -2.21343484
Rh        2.71089297        6.26053914       -2.21343484
Rh        0.00000000       -1.56513479       -4.42686968
Rh        1.35544648        0.78256739       -4.42686968
Rh        2.71089297        3.13026957       -4.42686968
