
 ******************************************************************
 *** This program generates an fcc (111) 1x1 clean surface      ***
 ******************************************************************


 a_0=         7.77644690
 a  =         5.49877834

 Slab of  7 ML
 Vacuum region corresponds to 14 ML
 Slabs are separated by  67.35 Bohr
 Slabs are separated by  35.64 Angstrom

 Inter-layer distance =         4.48973371
 Slab-slab distance   =        67.34600567


 Lattice vectors:
      5.498778336527      0.000000000000      0.000000000000
     -2.749389168264      4.762081729212      0.000000000000
      0.000000000000      0.000000000000     94.284407932130

 Supercell Lattice vectors:
      5.498778336527      0.000000000000      0.000000000000
     -2.749389168264      4.762081729212      0.000000000000
      0.000000000000      0.000000000000     94.284407932130

 Surface area:      26.185631849363
 Surface area:      26.185631849363

 Volume of unit cell:    2468.896795245885

 Number of atoms:    7
 Atoms: 
      0.000000000000      0.000000000000     -0.000000000000    1    1    1
      0.000000000000      3.174721152808     -4.489733711054    1    1    1
      0.000000000000     -3.174721152808     -8.979467422108    1    1    1
      0.000000000000      0.000000000000    -13.469201133161    1    1    1
      0.000000000000      3.174721152808    -17.958934844215    1    1    1
      0.000000000000     -3.174721152808    -22.448668555269    1    1    1
      0.000000000000      0.000000000000    -26.938402266323    1    1    1

 Atomic coordinates in reduced coordinate 
      0.000000000000      0.000000000000      0.000000000000    1    1    1
      0.333333333333      0.666666666667     -0.047619047619    1    1    1
     -0.333333333333     -0.666666666667     -0.095238095238    1    1    1
      0.000000000000      0.000000000000     -0.142857142857    1    1    1
      0.333333333333      0.666666666667     -0.190476190476    1    1    1
     -0.333333333333     -0.666666666667     -0.238095238095    1    1    1
      0.000000000000      0.000000000000     -0.285714285714    1    1    1

 Atoms (center of the slab is set to the origin):
      0.000000000000      0.000000000000     13.469201133161    1    1    1
      0.000000000000      3.174721152808      8.979467422108    1    1    1
      0.000000000000     -3.174721152808      4.489733711054    1    1    1
      0.000000000000      0.000000000000      0.000000000000    1    1    1
      0.000000000000      3.174721152808     -4.489733711054    1    1    1
      0.000000000000     -3.174721152808     -8.979467422108    1    1    1
      0.000000000000      0.000000000000    -13.469201133161    1    1    1
