
 ******************************************************************
 *** This program generates an fcc (111) sqrt(3) x sqrt(3) R30  ***
 *** clean surface                                              ***
 ******************************************************************

 
 a_0=         7.83960000

 Slab of  3 ML
 Vacuum region corresponds to 10 ML
 Slabs are separated by  49.79 Bohr
 Slabs are separated by  26.35 Angstrom
 Size of the supercell in z-direction:  58.84 Bohr
 Size of the supercell in z-direction:  31.14 Angstrom

 Primitive lattice vectors:
        8.31515148        4.80075495         .00000000
         .00000000        9.60150989         .00000000
         .00000000         .00000000       58.84053721

 Supercell lattice vectors:
        8.31515148         .00000000         .00000000
         .00000000        9.60150989         .00000000
         .00000000         .00000000       58.84053721
 Number of atoms:    9
 Atoms: 
         .00000000         .00000000         .00000000
        2.77171716        4.80075495         .00000000
        5.54343432        9.60150989         .00000000
         .00000000        3.20050330       -4.52619517
        2.77171716        8.00125824       -4.52619517
        5.54343432       12.80201319       -4.52619517
         .00000000       -3.20050330       -9.05239034
        2.77171716        1.60025165       -9.05239034
        5.54343432        6.40100660       -9.05239034

 Atoms (center of the slab is set to the origin):
         .00000000         .00000000        4.52619517
        2.77171716        4.80075495        4.52619517
        5.54343432        9.60150989        4.52619517
         .00000000        3.20050330         .00000000
        2.77171716        8.00125824         .00000000
        5.54343432       12.80201319         .00000000
         .00000000       -3.20050330       -4.52619517
        2.77171716        1.60025165       -4.52619517
        5.54343432        6.40100660       -4.52619517
