
 ******************************************************************
 *** This program generates an fcc (111) 1x1 clean surface      ***
 ******************************************************************


 a_0=         7.84193788
 a  =         5.54508745

 Slab of  3 ML
 Vacuum region corresponds to  8 ML
 Slabs are separated by  36.22 Bohr
 Slabs are separated by  19.17 Angstrom

 Lattice vectors:
     16.635262357775      0.000000000000      0.000000000000
      0.000000000000      9.604373200301      0.000000000000
      0.000000000000      0.000000000000     49.802994405850

 Supercell Lattice vectors:
     16.635262357775      0.000000000000      0.000000000000
      0.000000000000     19.208746400603      0.000000000000
      0.000000000000      0.000000000000     49.802994405850

 Surface area:     319.542535937994
 Surface area:     319.542535937994

 Volume of unit cell:   15914.175129750909

 Number of atoms:   18
 Atoms: 
      0.000000000000      0.000000000000      0.000000000000
      5.545087452592      0.000000000000      0.000000000000
     -5.545087452592      0.000000000000      0.000000000000
      2.772543726296      4.802186600151      0.000000000000
      8.317631178887      4.802186600151      0.000000000000
     -2.772543726296      4.802186600151      0.000000000000
      0.000000000000      3.201457733434     -4.527544945986
      5.545087452592      3.201457733434     -4.527544945986
     -5.545087452592      3.201457733434     -4.527544945986
      2.772543726296      8.003644333585     -4.527544945986
      8.317631178887      8.003644333585     -4.527544945986
     -2.772543726296      8.003644333585     -4.527544945986
      0.000000000000     -3.201457733434     -9.055089891973
      5.545087452592     -3.201457733434     -9.055089891973
     -5.545087452592     -3.201457733434     -9.055089891973
      2.772543726296      1.600728866717     -9.055089891973
      8.317631178887      1.600728866717     -9.055089891973
     -2.772543726296      1.600728866717     -9.055089891973

 Atomic coordinates in reduced coordinate 
      0.000000000000      0.000000000000      0.000000000000
      0.333333333333      0.000000000000      0.000000000000
     -0.333333333333      0.000000000000      0.000000000000
      0.166666666667      0.500000000000      0.000000000000
      0.500000000000      0.500000000000      0.000000000000
     -0.166666666667      0.500000000000      0.000000000000
      0.000000000000      0.333333333333     -0.090909090909
      0.333333333333      0.333333333333     -0.090909090909
     -0.333333333333      0.333333333333     -0.090909090909
      0.166666666667      0.833333333333     -0.090909090909
      0.500000000000      0.833333333333     -0.090909090909
     -0.166666666667      0.833333333333     -0.090909090909
      0.000000000000     -0.333333333333     -0.181818181818
      0.333333333333     -0.333333333333     -0.181818181818
     -0.333333333333     -0.333333333333     -0.181818181818
      0.166666666667      0.166666666667     -0.181818181818
      0.500000000000      0.166666666667     -0.181818181818
     -0.166666666667      0.166666666667     -0.181818181818
