
 ******************************************************************
 *** This program generates an fcc (111) sqrt(3) x sqrt(3) R30  ***
 *** clean surface                                              ***
 ******************************************************************


 a_0=         7.84193788
 Inter layer distance:         4.52754495

 Slab of  5 ML
 Vacuum region corresponds to  6 ML
 Slabs are separated by  27.17 Bohr
 Slabs are separated by  14.38 Angstrom
 Size of the supercell along the z axis:  49.80 Bohr
 Size of the supercell along the z axis:  26.35 Angstrom

 Primitive lattice vectors:
      8.317631178887      4.802186600151      0.000000000000
      0.000000000000      9.604373200301      0.000000000000
      0.000000000000      0.000000000000     49.802994405850

 Supercell lattice vectors:
      8.317631178887      0.000000000000      0.000000000000
      0.000000000000      9.604373200301      0.000000000000
      0.000000000000      0.000000000000     49.802994405850
 Number of atoms:   15
 Atoms: 
      0.000000000000      0.000000000000      0.000000000000
      2.772543726296      4.802186600151      0.000000000000
      5.545087452592      9.604373200301      0.000000000000
      0.000000000000      3.201457733434     -4.527544945986
      2.772543726296      8.003644333585     -4.527544945986
      5.545087452592     12.805830933735     -4.527544945986
      0.000000000000     -3.201457733434     -9.055089891973
      2.772543726296      1.600728866717     -9.055089891973
      5.545087452592      6.402915466868     -9.055089891973
      0.000000000000      0.000000000000    -13.582634837959
      2.772543726296      4.802186600151    -13.582634837959
      5.545087452592      9.604373200301    -13.582634837959
      0.000000000000      3.201457733434    -18.110179783945
      2.772543726296      8.003644333585    -18.110179783945
      5.545087452592     12.805830933735    -18.110179783945

 Atoms (center of the slab is set to the origin):
      0.000000000000      0.000000000000      9.055089891973
      2.772543726296      4.802186600151      9.055089891973
      5.545087452592      9.604373200301      9.055089891973
      0.000000000000      3.201457733434      4.527544945986
      2.772543726296      8.003644333585      4.527544945986
      5.545087452592     12.805830933735      4.527544945986
      0.000000000000     -3.201457733434      0.000000000000
      2.772543726296      1.600728866717      0.000000000000
      5.545087452592      6.402915466868      0.000000000000
      0.000000000000      0.000000000000     -4.527544945986
      2.772543726296      4.802186600151     -4.527544945986
      5.545087452592      9.604373200301     -4.527544945986
      0.000000000000      3.201457733434     -9.055089891973
      2.772543726296      8.003644333585     -9.055089891973
      5.545087452592     12.805830933735     -9.055089891973
