
 ******************************************************************
 *** This program generates an fcc (111) 1x1 clean surface      ***
 ******************************************************************


 a_0=         7.77856144
 a  =         5.50027354

 Slab of  5 ML
 Vacuum region corresponds to 15 ML
 Slabs are separated by  71.86 Bohr
 Slabs are separated by  38.02 Angstrom

 Inter-layer distance =         4.49095454
 Slab-slab distance   =        71.85527266


 Lattice vectors:
      5.500273542100      0.000000000000      0.000000000000
     -2.750136771050      4.763376615222      0.000000000000
      0.000000000000      0.000000000000     89.819090825841

 Supercell Lattice vectors:
      5.500273542100      0.000000000000      0.000000000000
     -2.750136771050      4.763376615222      0.000000000000
      0.000000000000      0.000000000000     89.819090825841

 Surface area:      26.199874367765
 Surface area:      26.199874367765

 Volume of unit cell:    2353.248895463938

 Number of atoms:    5
 Atoms: 
      0.000000000000      0.000000000000     -0.000000000000    1    1    1
      0.000000000000      3.175584410148     -4.490954541292    1    1    1
      0.000000000000     -3.175584410148     -8.981909082584    1    1    1
      0.000000000000      0.000000000000    -13.472863623876    1    1    1
      0.000000000000      3.175584410148    -17.963818165168    1    1    1

 Atomic coordinates in reduced coordinate 
      0.000000000000      0.000000000000      0.000000000000    1    1    1
      0.333333333333      0.666666666667     -0.050000000000    1    1    1
     -0.333333333333     -0.666666666667     -0.100000000000    1    1    1
      0.000000000000      0.000000000000     -0.150000000000    1    1    1
      0.333333333333      0.666666666667     -0.200000000000    1    1    1

 Atoms (center of the slab is set to the origin):
      0.000000000000      0.000000000000      8.981909082584    1    1    1
      0.000000000000      3.175584410148      4.490954541292    1    1    1
      0.000000000000     -3.175584410148      0.000000000000    1    1    1
      0.000000000000      0.000000000000     -4.490954541292    1    1    1
      0.000000000000      3.175584410148     -8.981909082584    1    1    1
