
 ******************************************************************
 *** This program generates an fcc (111) 1x1 clean surface      ***
 ******************************************************************


 a_0=         7.83960000
 a  =         5.54343432

 Slab of  4 ML
 Vacuum region corresponds to  6 ML
 Slabs are separated by  27.16 Bohr
 Slabs are separated by  14.37 Angstrom

 Inter-layer distance =         4.52619517
 Slab-slab distance   =        27.15717102


 Lattice vectors:
      5.543434321790      0.000000000000      0.000000000000
      2.771717160895      4.800754946881      0.000000000000
      0.000000000000      0.000000000000     45.261951703390

 Supercell Lattice vectors:
      5.543434321790      0.000000000000      0.000000000000
      2.771717160895      4.800754946881      0.000000000000
      0.000000000000      0.000000000000     45.261951703390

 Surface area:      26.612669743042
 Surface area:      26.612669743042

 Volume of unit cell:    1204.541372607840

 Number of atoms:    4
 Atoms: 
      0.000000000000      0.000000000000      0.000000000000
      0.000000000000      3.200503297921     -4.526195170339
      0.000000000000     -3.200503297921     -9.052390340678
      0.000000000000      0.000000000000    -13.578585511017

 Atomic coordinates in reduced coordinate 
          0.000000000000          0.000000000000          0.000000000000
         -0.333333333333          0.666666666667         -0.100000000000
          0.333333333333         -0.666666666667         -0.200000000000
          0.000000000000          0.000000000000         -0.300000000000

 Atoms (center of the slab is set to the origin):
          0.000000000000          0.000000000000          6.789292755508
          0.000000000000          3.200503297921          2.263097585169
          0.000000000000         -3.200503297921         -2.263097585169
          0.000000000000          0.000000000000         -6.789292755508
