
 ******************************************************************
 *** This program generates an fcc (111) clean surface          ***
 ******************************************************************

 a_0=         7.77644690 (Bohr)
 a  =         5.49877834 (Bohr)

 Slab of  3 ML
 Vacuum region corresponds to 16 ML
 Slabs are separated by  76.33 Bohr
 Slabs are separated by  40.39 Angstrom

 Inter-layer distance =         4.48973371 (Bohr)
 Slab-slab distance   =        76.32547309 (Bohr)

 Lattice vectors (Bohr):
      5.498778336527      0.000000000000      0.000000000000
     -2.749389168264      4.762081729212      0.000000000000
      0.000000000000      0.000000000000     85.304940510023

 Supercell Lattice vectors (Bohr):
     32.992670019163      0.000000000000      0.000000000000
    -16.496335009581     28.572490375272      0.000000000000
      0.000000000000      0.000000000000     85.304940510023

 Surface area:     942.682746577051 (Bohr^2)
 Surface area:     942.682746577051 (Bohr^2)

 Volume of unit cell:   80415.495616580258 (Bohr^3)

 Number of atoms:  108
 Atoms: 
      0.000000000000      0.000000000000     -0.000000000000    1    1    1
      5.498778336527      0.000000000000     -0.000000000000    1    1    1
     10.997556673054      0.000000000000     -0.000000000000    1    1    1
     16.496335009581      0.000000000000     -0.000000000000    1    1    1
     21.995113346108      0.000000000000     -0.000000000000    1    1    1
     27.493891682636      0.000000000000     -0.000000000000    1    1    1
     -2.749389168264      4.762081729212     -0.000000000000    1    1    1
      2.749389168264      4.762081729212     -0.000000000000    1    1    1
      8.248167504791      4.762081729212     -0.000000000000    1    1    1
     13.746945841318      4.762081729212     -0.000000000000    1    1    1
     19.245724177845      4.762081729212     -0.000000000000    1    1    1
     24.744502514372      4.762081729212     -0.000000000000    1    1    1
     -5.498778336527      9.524163458424     -0.000000000000    1    1    1
      0.000000000000      9.524163458424     -0.000000000000    1    1    1
      5.498778336527      9.524163458424     -0.000000000000    1    1    1
     10.997556673054      9.524163458424     -0.000000000000    1    1    1
     16.496335009581      9.524163458424     -0.000000000000    1    1    1
     21.995113346108      9.524163458424     -0.000000000000    1    1    1
     -8.248167504791     14.286245187636     -0.000000000000    1    1    1
     -2.749389168264     14.286245187636     -0.000000000000    1    1    1
      2.749389168264     14.286245187636     -0.000000000000    1    1    1
      8.248167504791     14.286245187636     -0.000000000000    1    1    1
     13.746945841318     14.286245187636     -0.000000000000    1    1    1
     19.245724177845     14.286245187636     -0.000000000000    1    1    1
    -10.997556673054     19.048326916848     -0.000000000000    1    1    1
     -5.498778336527     19.048326916848     -0.000000000000    1    1    1
      0.000000000000     19.048326916848     -0.000000000000    1    1    1
      5.498778336527     19.048326916848     -0.000000000000    1    1    1
     10.997556673054     19.048326916848     -0.000000000000    1    1    1
     16.496335009581     19.048326916848     -0.000000000000    1    1    1
    -13.746945841318     23.810408646060     -0.000000000000    1    1    1
     -8.248167504791     23.810408646060     -0.000000000000    1    1    1
     -2.749389168264     23.810408646060     -0.000000000000    1    1    1
      2.749389168264     23.810408646060     -0.000000000000    1    1    1
      8.248167504791     23.810408646060     -0.000000000000    1    1    1
     13.746945841318     23.810408646060     -0.000000000000    1    1    1
      0.000000000000      3.174721152808     -4.489733711054    1    1    1
      5.498778336527      3.174721152808     -4.489733711054    1    1    1
     10.997556673054      3.174721152808     -4.489733711054    1    1    1
     16.496335009581      3.174721152808     -4.489733711054    1    1    1
     21.995113346108      3.174721152808     -4.489733711054    1    1    1
     27.493891682636      3.174721152808     -4.489733711054    1    1    1
     -2.749389168264      7.936802882020     -4.489733711054    1    1    1
      2.749389168264      7.936802882020     -4.489733711054    1    1    1
      8.248167504791      7.936802882020     -4.489733711054    1    1    1
     13.746945841318      7.936802882020     -4.489733711054    1    1    1
     19.245724177845      7.936802882020     -4.489733711054    1    1    1
     24.744502514372      7.936802882020     -4.489733711054    1    1    1
     -5.498778336527     12.698884611232     -4.489733711054    1    1    1
      0.000000000000     12.698884611232     -4.489733711054    1    1    1
      5.498778336527     12.698884611232     -4.489733711054    1    1    1
     10.997556673054     12.698884611232     -4.489733711054    1    1    1
     16.496335009581     12.698884611232     -4.489733711054    1    1    1
     21.995113346108     12.698884611232     -4.489733711054    1    1    1
     -8.248167504791     17.460966340444     -4.489733711054    1    1    1
     -2.749389168264     17.460966340444     -4.489733711054    1    1    1
      2.749389168264     17.460966340444     -4.489733711054    1    1    1
      8.248167504791     17.460966340444     -4.489733711054    1    1    1
     13.746945841318     17.460966340444     -4.489733711054    1    1    1
     19.245724177845     17.460966340444     -4.489733711054    1    1    1
    -10.997556673054     22.223048069656     -4.489733711054    1    1    1
     -5.498778336527     22.223048069656     -4.489733711054    1    1    1
      0.000000000000     22.223048069656     -4.489733711054    1    1    1
      5.498778336527     22.223048069656     -4.489733711054    1    1    1
     10.997556673054     22.223048069656     -4.489733711054    1    1    1
     16.496335009581     22.223048069656     -4.489733711054    1    1    1
    -13.746945841318     26.985129798868     -4.489733711054    1    1    1
     -8.248167504791     26.985129798868     -4.489733711054    1    1    1
     -2.749389168264     26.985129798868     -4.489733711054    1    1    1
      2.749389168264     26.985129798868     -4.489733711054    1    1    1
      8.248167504791     26.985129798868     -4.489733711054    1    1    1
     13.746945841318     26.985129798868     -4.489733711054    1    1    1
      0.000000000000     -3.174721152808     -8.979467422108    1    1    1
      5.498778336527     -3.174721152808     -8.979467422108    1    1    1
     10.997556673054     -3.174721152808     -8.979467422108    1    1    1
     16.496335009581     -3.174721152808     -8.979467422108    1    1    1
     21.995113346108     -3.174721152808     -8.979467422108    1    1    1
     27.493891682636     -3.174721152808     -8.979467422108    1    1    1
     -2.749389168264      1.587360576404     -8.979467422108    1    1    1
      2.749389168264      1.587360576404     -8.979467422108    1    1    1
      8.248167504791      1.587360576404     -8.979467422108    1    1    1
     13.746945841318      1.587360576404     -8.979467422108    1    1    1
     19.245724177845      1.587360576404     -8.979467422108    1    1    1
     24.744502514372      1.587360576404     -8.979467422108    1    1    1
     -5.498778336527      6.349442305616     -8.979467422108    1    1    1
      0.000000000000      6.349442305616     -8.979467422108    1    1    1
      5.498778336527      6.349442305616     -8.979467422108    1    1    1
     10.997556673054      6.349442305616     -8.979467422108    1    1    1
     16.496335009581      6.349442305616     -8.979467422108    1    1    1
     21.995113346108      6.349442305616     -8.979467422108    1    1    1
     -8.248167504791     11.111524034828     -8.979467422108    1    1    1
     -2.749389168264     11.111524034828     -8.979467422108    1    1    1
      2.749389168264     11.111524034828     -8.979467422108    1    1    1
      8.248167504791     11.111524034828     -8.979467422108    1    1    1
     13.746945841318     11.111524034828     -8.979467422108    1    1    1
     19.245724177845     11.111524034828     -8.979467422108    1    1    1
    -10.997556673054     15.873605764040     -8.979467422108    1    1    1
     -5.498778336527     15.873605764040     -8.979467422108    1    1    1
      0.000000000000     15.873605764040     -8.979467422108    1    1    1
      5.498778336527     15.873605764040     -8.979467422108    1    1    1
     10.997556673054     15.873605764040     -8.979467422108    1    1    1
     16.496335009581     15.873605764040     -8.979467422108    1    1    1
    -13.746945841318     20.635687493252     -8.979467422108    1    1    1
     -8.248167504791     20.635687493252     -8.979467422108    1    1    1
     -2.749389168264     20.635687493252     -8.979467422108    1    1    1
      2.749389168264     20.635687493252     -8.979467422108    1    1    1
      8.248167504791     20.635687493252     -8.979467422108    1    1    1
     13.746945841318     20.635687493252     -8.979467422108    1    1    1

 Atomic coordinates in reduced coordinate 
      0.000000000000      0.000000000000      0.000000000000    1    1    1
      0.166666666667      0.000000000000      0.000000000000    1    1    1
      0.333333333333      0.000000000000      0.000000000000    1    1    1
      0.500000000000      0.000000000000      0.000000000000    1    1    1
      0.666666666667      0.000000000000      0.000000000000    1    1    1
      0.833333333333      0.000000000000      0.000000000000    1    1    1
     -0.000000000000      0.166666666667      0.000000000000    1    1    1
      0.166666666667      0.166666666667      0.000000000000    1    1    1
      0.333333333333      0.166666666667      0.000000000000    1    1    1
      0.500000000000      0.166666666667      0.000000000000    1    1    1
      0.666666666667      0.166666666667      0.000000000000    1    1    1
      0.833333333333      0.166666666667      0.000000000000    1    1    1
     -0.000000000000      0.333333333333      0.000000000000    1    1    1
      0.166666666667      0.333333333333      0.000000000000    1    1    1
      0.333333333333      0.333333333333      0.000000000000    1    1    1
      0.500000000000      0.333333333333      0.000000000000    1    1    1
      0.666666666667      0.333333333333      0.000000000000    1    1    1
      0.833333333333      0.333333333333      0.000000000000    1    1    1
     -0.000000000000      0.500000000000      0.000000000000    1    1    1
      0.166666666667      0.500000000000      0.000000000000    1    1    1
      0.333333333333      0.500000000000      0.000000000000    1    1    1
      0.500000000000      0.500000000000      0.000000000000    1    1    1
      0.666666666667      0.500000000000      0.000000000000    1    1    1
      0.833333333333      0.500000000000      0.000000000000    1    1    1
     -0.000000000000      0.666666666667      0.000000000000    1    1    1
      0.166666666667      0.666666666667      0.000000000000    1    1    1
      0.333333333333      0.666666666667      0.000000000000    1    1    1
      0.500000000000      0.666666666667      0.000000000000    1    1    1
      0.666666666667      0.666666666667      0.000000000000    1    1    1
      0.833333333333      0.666666666667      0.000000000000    1    1    1
     -0.000000000000      0.833333333333      0.000000000000    1    1    1
      0.166666666667      0.833333333333      0.000000000000    1    1    1
      0.333333333333      0.833333333333      0.000000000000    1    1    1
      0.500000000000      0.833333333333      0.000000000000    1    1    1
      0.666666666667      0.833333333333      0.000000000000    1    1    1
      0.833333333333      0.833333333333      0.000000000000    1    1    1
      0.055555555556      0.111111111111     -0.052631578947    1    1    1
      0.222222222222      0.111111111111     -0.052631578947    1    1    1
      0.388888888889      0.111111111111     -0.052631578947    1    1    1
      0.555555555556      0.111111111111     -0.052631578947    1    1    1
      0.722222222222      0.111111111111     -0.052631578947    1    1    1
      0.888888888889      0.111111111111     -0.052631578947    1    1    1
      0.055555555556      0.277777777778     -0.052631578947    1    1    1
      0.222222222222      0.277777777778     -0.052631578947    1    1    1
      0.388888888889      0.277777777778     -0.052631578947    1    1    1
      0.555555555556      0.277777777778     -0.052631578947    1    1    1
      0.722222222222      0.277777777778     -0.052631578947    1    1    1
      0.888888888889      0.277777777778     -0.052631578947    1    1    1
      0.055555555556      0.444444444444     -0.052631578947    1    1    1
      0.222222222222      0.444444444444     -0.052631578947    1    1    1
      0.388888888889      0.444444444444     -0.052631578947    1    1    1
      0.555555555556      0.444444444444     -0.052631578947    1    1    1
      0.722222222222      0.444444444444     -0.052631578947    1    1    1
      0.888888888889      0.444444444444     -0.052631578947    1    1    1
      0.055555555556      0.611111111111     -0.052631578947    1    1    1
      0.222222222222      0.611111111111     -0.052631578947    1    1    1
      0.388888888889      0.611111111111     -0.052631578947    1    1    1
      0.555555555556      0.611111111111     -0.052631578947    1    1    1
      0.722222222222      0.611111111111     -0.052631578947    1    1    1
      0.888888888889      0.611111111111     -0.052631578947    1    1    1
      0.055555555556      0.777777777778     -0.052631578947    1    1    1
      0.222222222222      0.777777777778     -0.052631578947    1    1    1
      0.388888888889      0.777777777778     -0.052631578947    1    1    1
      0.555555555556      0.777777777778     -0.052631578947    1    1    1
      0.722222222222      0.777777777778     -0.052631578947    1    1    1
      0.888888888889      0.777777777778     -0.052631578947    1    1    1
      0.055555555556      0.944444444444     -0.052631578947    1    1    1
      0.222222222222      0.944444444444     -0.052631578947    1    1    1
      0.388888888889      0.944444444444     -0.052631578947    1    1    1
      0.555555555556      0.944444444444     -0.052631578947    1    1    1
      0.722222222222      0.944444444444     -0.052631578947    1    1    1
      0.888888888889      0.944444444444     -0.052631578947    1    1    1
     -0.055555555556     -0.111111111111     -0.105263157895    1    1    1
      0.111111111111     -0.111111111111     -0.105263157895    1    1    1
      0.277777777778     -0.111111111111     -0.105263157895    1    1    1
      0.444444444444     -0.111111111111     -0.105263157895    1    1    1
      0.611111111111     -0.111111111111     -0.105263157895    1    1    1
      0.777777777778     -0.111111111111     -0.105263157895    1    1    1
     -0.055555555556      0.055555555556     -0.105263157895    1    1    1
      0.111111111111      0.055555555556     -0.105263157895    1    1    1
      0.277777777778      0.055555555556     -0.105263157895    1    1    1
      0.444444444444      0.055555555556     -0.105263157895    1    1    1
      0.611111111111      0.055555555556     -0.105263157895    1    1    1
      0.777777777778      0.055555555556     -0.105263157895    1    1    1
     -0.055555555556      0.222222222222     -0.105263157895    1    1    1
      0.111111111111      0.222222222222     -0.105263157895    1    1    1
      0.277777777778      0.222222222222     -0.105263157895    1    1    1
      0.444444444444      0.222222222222     -0.105263157895    1    1    1
      0.611111111111      0.222222222222     -0.105263157895    1    1    1
      0.777777777778      0.222222222222     -0.105263157895    1    1    1
     -0.055555555556      0.388888888889     -0.105263157895    1    1    1
      0.111111111111      0.388888888889     -0.105263157895    1    1    1
      0.277777777778      0.388888888889     -0.105263157895    1    1    1
      0.444444444444      0.388888888889     -0.105263157895    1    1    1
      0.611111111111      0.388888888889     -0.105263157895    1    1    1
      0.777777777778      0.388888888889     -0.105263157895    1    1    1
     -0.055555555556      0.555555555556     -0.105263157895    1    1    1
      0.111111111111      0.555555555556     -0.105263157895    1    1    1
      0.277777777778      0.555555555556     -0.105263157895    1    1    1
      0.444444444444      0.555555555556     -0.105263157895    1    1    1
      0.611111111111      0.555555555556     -0.105263157895    1    1    1
      0.777777777778      0.555555555556     -0.105263157895    1    1    1
     -0.055555555556      0.722222222222     -0.105263157895    1    1    1
      0.111111111111      0.722222222222     -0.105263157895    1    1    1
      0.277777777778      0.722222222222     -0.105263157895    1    1    1
      0.444444444444      0.722222222222     -0.105263157895    1    1    1
      0.611111111111      0.722222222222     -0.105263157895    1    1    1
      0.777777777778      0.722222222222     -0.105263157895    1    1    1

 Atoms (center of the slab is set to the origin):
      0.000000000000      0.000000000000      4.489733711054    1    1    1
      5.498778336527      0.000000000000      4.489733711054    1    1    1
     10.997556673054      0.000000000000      4.489733711054    1    1    1
     16.496335009581      0.000000000000      4.489733711054    1    1    1
     21.995113346108      0.000000000000      4.489733711054    1    1    1
     27.493891682636      0.000000000000      4.489733711054    1    1    1
     -2.749389168264      4.762081729212      4.489733711054    1    1    1
      2.749389168264      4.762081729212      4.489733711054    1    1    1
      8.248167504791      4.762081729212      4.489733711054    1    1    1
     13.746945841318      4.762081729212      4.489733711054    1    1    1
     19.245724177845      4.762081729212      4.489733711054    1    1    1
     24.744502514372      4.762081729212      4.489733711054    1    1    1
     -5.498778336527      9.524163458424      4.489733711054    1    1    1
      0.000000000000      9.524163458424      4.489733711054    1    1    1
      5.498778336527      9.524163458424      4.489733711054    1    1    1
     10.997556673054      9.524163458424      4.489733711054    1    1    1
     16.496335009581      9.524163458424      4.489733711054    1    1    1
     21.995113346108      9.524163458424      4.489733711054    1    1    1
     -8.248167504791     14.286245187636      4.489733711054    1    1    1
     -2.749389168264     14.286245187636      4.489733711054    1    1    1
      2.749389168264     14.286245187636      4.489733711054    1    1    1
      8.248167504791     14.286245187636      4.489733711054    1    1    1
     13.746945841318     14.286245187636      4.489733711054    1    1    1
     19.245724177845     14.286245187636      4.489733711054    1    1    1
    -10.997556673054     19.048326916848      4.489733711054    1    1    1
     -5.498778336527     19.048326916848      4.489733711054    1    1    1
      0.000000000000     19.048326916848      4.489733711054    1    1    1
      5.498778336527     19.048326916848      4.489733711054    1    1    1
     10.997556673054     19.048326916848      4.489733711054    1    1    1
     16.496335009581     19.048326916848      4.489733711054    1    1    1
    -13.746945841318     23.810408646060      4.489733711054    1    1    1
     -8.248167504791     23.810408646060      4.489733711054    1    1    1
     -2.749389168264     23.810408646060      4.489733711054    1    1    1
      2.749389168264     23.810408646060      4.489733711054    1    1    1
      8.248167504791     23.810408646060      4.489733711054    1    1    1
     13.746945841318     23.810408646060      4.489733711054    1    1    1
      0.000000000000      3.174721152808      0.000000000000    1    1    1
      5.498778336527      3.174721152808      0.000000000000    1    1    1
     10.997556673054      3.174721152808      0.000000000000    1    1    1
     16.496335009581      3.174721152808      0.000000000000    1    1    1
     21.995113346108      3.174721152808      0.000000000000    1    1    1
     27.493891682636      3.174721152808      0.000000000000    1    1    1
     -2.749389168264      7.936802882020      0.000000000000    1    1    1
      2.749389168264      7.936802882020      0.000000000000    1    1    1
      8.248167504791      7.936802882020      0.000000000000    1    1    1
     13.746945841318      7.936802882020      0.000000000000    1    1    1
     19.245724177845      7.936802882020      0.000000000000    1    1    1
     24.744502514372      7.936802882020      0.000000000000    1    1    1
     -5.498778336527     12.698884611232      0.000000000000    1    1    1
      0.000000000000     12.698884611232      0.000000000000    1    1    1
      5.498778336527     12.698884611232      0.000000000000    1    1    1
     10.997556673054     12.698884611232      0.000000000000    1    1    1
     16.496335009581     12.698884611232      0.000000000000    1    1    1
     21.995113346108     12.698884611232      0.000000000000    1    1    1
     -8.248167504791     17.460966340444      0.000000000000    1    1    1
     -2.749389168264     17.460966340444      0.000000000000    1    1    1
      2.749389168264     17.460966340444      0.000000000000    1    1    1
      8.248167504791     17.460966340444      0.000000000000    1    1    1
     13.746945841318     17.460966340444      0.000000000000    1    1    1
     19.245724177845     17.460966340444      0.000000000000    1    1    1
    -10.997556673054     22.223048069656      0.000000000000    1    1    1
     -5.498778336527     22.223048069656      0.000000000000    1    1    1
      0.000000000000     22.223048069656      0.000000000000    1    1    1
      5.498778336527     22.223048069656      0.000000000000    1    1    1
     10.997556673054     22.223048069656      0.000000000000    1    1    1
     16.496335009581     22.223048069656      0.000000000000    1    1    1
    -13.746945841318     26.985129798868      0.000000000000    1    1    1
     -8.248167504791     26.985129798868      0.000000000000    1    1    1
     -2.749389168264     26.985129798868      0.000000000000    1    1    1
      2.749389168264     26.985129798868      0.000000000000    1    1    1
      8.248167504791     26.985129798868      0.000000000000    1    1    1
     13.746945841318     26.985129798868      0.000000000000    1    1    1
      0.000000000000     -3.174721152808     -4.489733711054    1    1    1
      5.498778336527     -3.174721152808     -4.489733711054    1    1    1
     10.997556673054     -3.174721152808     -4.489733711054    1    1    1
     16.496335009581     -3.174721152808     -4.489733711054    1    1    1
     21.995113346108     -3.174721152808     -4.489733711054    1    1    1
     27.493891682636     -3.174721152808     -4.489733711054    1    1    1
     -2.749389168264      1.587360576404     -4.489733711054    1    1    1
      2.749389168264      1.587360576404     -4.489733711054    1    1    1
      8.248167504791      1.587360576404     -4.489733711054    1    1    1
     13.746945841318      1.587360576404     -4.489733711054    1    1    1
     19.245724177845      1.587360576404     -4.489733711054    1    1    1
     24.744502514372      1.587360576404     -4.489733711054    1    1    1
     -5.498778336527      6.349442305616     -4.489733711054    1    1    1
      0.000000000000      6.349442305616     -4.489733711054    1    1    1
      5.498778336527      6.349442305616     -4.489733711054    1    1    1
     10.997556673054      6.349442305616     -4.489733711054    1    1    1
     16.496335009581      6.349442305616     -4.489733711054    1    1    1
     21.995113346108      6.349442305616     -4.489733711054    1    1    1
     -8.248167504791     11.111524034828     -4.489733711054    1    1    1
     -2.749389168264     11.111524034828     -4.489733711054    1    1    1
      2.749389168264     11.111524034828     -4.489733711054    1    1    1
      8.248167504791     11.111524034828     -4.489733711054    1    1    1
     13.746945841318     11.111524034828     -4.489733711054    1    1    1
     19.245724177845     11.111524034828     -4.489733711054    1    1    1
    -10.997556673054     15.873605764040     -4.489733711054    1    1    1
     -5.498778336527     15.873605764040     -4.489733711054    1    1    1
      0.000000000000     15.873605764040     -4.489733711054    1    1    1
      5.498778336527     15.873605764040     -4.489733711054    1    1    1
     10.997556673054     15.873605764040     -4.489733711054    1    1    1
     16.496335009581     15.873605764040     -4.489733711054    1    1    1
    -13.746945841318     20.635687493252     -4.489733711054    1    1    1
     -8.248167504791     20.635687493252     -4.489733711054    1    1    1
     -2.749389168264     20.635687493252     -4.489733711054    1    1    1
      2.749389168264     20.635687493252     -4.489733711054    1    1    1
      8.248167504791     20.635687493252     -4.489733711054    1    1    1
     13.746945841318     20.635687493252     -4.489733711054    1    1    1
