
 ******************************************************************
 *** This program generates an fcc (110) clean surface          ***
 ******************************************************************


 a_0=         6.83119688
 Inter layer distance :         2.41519282

 Slab of  5 ML
 Vacuum region corresponds to 16 ML
 Slabs are separated by  38.64 Bohr
 Slabs are separated by  20.45 Angstrom

 Primitive lattice vectors:
      4.830385637468      0.000000000000      0.000000000000
      0.000000000000      6.831196880000      0.000000000000
      0.000000000000      0.000000000000     50.719049193418

 Supercell lattice vectors:
      9.660771274937      0.000000000000      0.000000000000
      0.000000000000      6.831196880000      0.000000000000
      0.000000000000      0.000000000000     50.719049193418
 Number of atoms:   10
 Atoms: 
      0.000000000000      0.000000000000     -0.000000000000
      4.830385637468      0.000000000000     -0.000000000000
      2.415192818734      3.415598440000     -2.415192818734
      7.245578456203      3.415598440000     -2.415192818734
      0.000000000000      0.000000000000     -4.830385637468
      4.830385637468      0.000000000000     -4.830385637468
      2.415192818734      3.415598440000     -7.245578456203
      7.245578456203      3.415598440000     -7.245578456203
      0.000000000000      0.000000000000     -9.660771274937
      4.830385637468      0.000000000000     -9.660771274937

 Atoms (center of the slab is set to the origin):
      0.000000000000      0.000000000000      4.830385637468
      4.830385637468      0.000000000000      4.830385637468
      2.415192818734      3.415598440000      2.415192818734
      7.245578456203      3.415598440000      2.415192818734
      0.000000000000      0.000000000000      0.000000000000
      4.830385637468      0.000000000000      0.000000000000
      2.415192818734      3.415598440000     -2.415192818734
      7.245578456203      3.415598440000     -2.415192818734
      0.000000000000      0.000000000000     -4.830385637468
      4.830385637468      0.000000000000     -4.830385637468
