
 ******************************************************************
 *** This program generates an fcc (110) clean surface          ***
 ******************************************************************


 a_0=         6.83119688
 Inter layer distance :         2.41519282

 Slab of  5 ML
 Vacuum region corresponds to 16 ML
 Slabs are separated by  38.64 Bohr
 Slabs are separated by  20.45 Angstrom

 Primitive lattice vectors:
        4.83038564        0.00000000        0.00000000
        0.00000000        6.83119688        0.00000000
        0.00000000        0.00000000       50.71904919

 Supercell lattice vectors:
        4.83038564        0.00000000        0.00000000
        0.00000000       13.66239376        0.00000000
        0.00000000        0.00000000       50.71904919
 Number of atoms:   10
 Atoms: 
        0.00000000        0.00000000       -0.00000000
        0.00000000        6.83119688       -0.00000000
        2.41519282        3.41559844       -2.41519282
        2.41519282       10.24679532       -2.41519282
        0.00000000        0.00000000       -4.83038564
        0.00000000        6.83119688       -4.83038564
        2.41519282        3.41559844       -7.24557846
        2.41519282       10.24679532       -7.24557846
        0.00000000        0.00000000       -9.66077127
        0.00000000        6.83119688       -9.66077127

 Atoms (center of the slab is set to the origin):
        0.00000000        0.00000000        4.83038564
        0.00000000        6.83119688        4.83038564
        2.41519282        3.41559844        2.41519282
        2.41519282       10.24679532        2.41519282
        0.00000000        0.00000000        0.00000000
        0.00000000        6.83119688        0.00000000
        2.41519282        3.41559844       -2.41519282
        2.41519282       10.24679532       -2.41519282
        0.00000000        0.00000000       -4.83038564
        0.00000000        6.83119688       -4.83038564
