
 ******************************************************************
 *** This program generates an fcc (110) clean surface          ***
 ******************************************************************


 a_0=         6.83119688
 Inter layer distance :         2.41519282

 Slab of  4 ML
 Vacuum region corresponds to 16 ML
 Slabs are separated by  38.64 Bohr
 Slabs are separated by  20.45 Angstrom

 Primitive lattice vectors:
      4.830385637468      0.000000000000      0.000000000000
      0.000000000000      6.831196880000      0.000000000000
      0.000000000000      0.000000000000     48.303856374684

 Supercell lattice vectors:
     48.303856374684      0.000000000000      0.000000000000
      0.000000000000     54.649575040000      0.000000000000
      0.000000000000      0.000000000000     48.303856374684
 Number of atoms:  320
 Atoms: 
      0.000000000000      0.000000000000     -0.000000000000    1    1    1
      4.830385637468      0.000000000000     -0.000000000000    1    1    1
      9.660771274937      0.000000000000     -0.000000000000    1    1    1
     14.491156912405      0.000000000000     -0.000000000000    1    1    1
     19.321542549874      0.000000000000     -0.000000000000    1    1    1
     24.151928187342      0.000000000000     -0.000000000000    1    1    1
     28.982313824810      0.000000000000     -0.000000000000    1    1    1
     33.812699462279      0.000000000000     -0.000000000000    1    1    1
     38.643085099747      0.000000000000     -0.000000000000    1    1    1
     43.473470737215      0.000000000000     -0.000000000000    1    1    1
      0.000000000000      6.831196880000     -0.000000000000    1    1    1
      4.830385637468      6.831196880000     -0.000000000000    1    1    1
      9.660771274937      6.831196880000     -0.000000000000    1    1    1
     14.491156912405      6.831196880000     -0.000000000000    1    1    1
     19.321542549874      6.831196880000     -0.000000000000    1    1    1
     24.151928187342      6.831196880000     -0.000000000000    1    1    1
     28.982313824810      6.831196880000     -0.000000000000    1    1    1
     33.812699462279      6.831196880000     -0.000000000000    1    1    1
     38.643085099747      6.831196880000     -0.000000000000    1    1    1
     43.473470737215      6.831196880000     -0.000000000000    1    1    1
      0.000000000000     13.662393760000     -0.000000000000    1    1    1
      4.830385637468     13.662393760000     -0.000000000000    1    1    1
      9.660771274937     13.662393760000     -0.000000000000    1    1    1
     14.491156912405     13.662393760000     -0.000000000000    1    1    1
     19.321542549874     13.662393760000     -0.000000000000    1    1    1
     24.151928187342     13.662393760000     -0.000000000000    1    1    1
     28.982313824810     13.662393760000     -0.000000000000    1    1    1
     33.812699462279     13.662393760000     -0.000000000000    1    1    1
     38.643085099747     13.662393760000     -0.000000000000    1    1    1
     43.473470737215     13.662393760000     -0.000000000000    1    1    1
      0.000000000000     20.493590640000     -0.000000000000    1    1    1
      4.830385637468     20.493590640000     -0.000000000000    1    1    1
      9.660771274937     20.493590640000     -0.000000000000    1    1    1
     14.491156912405     20.493590640000     -0.000000000000    1    1    1
     19.321542549874     20.493590640000     -0.000000000000    1    1    1
     24.151928187342     20.493590640000     -0.000000000000    1    1    1
     28.982313824810     20.493590640000     -0.000000000000    1    1    1
     33.812699462279     20.493590640000     -0.000000000000    1    1    1
     38.643085099747     20.493590640000     -0.000000000000    1    1    1
     43.473470737215     20.493590640000     -0.000000000000    1    1    1
      0.000000000000     27.324787520000     -0.000000000000    1    1    1
      4.830385637468     27.324787520000     -0.000000000000    1    1    1
      9.660771274937     27.324787520000     -0.000000000000    1    1    1
     14.491156912405     27.324787520000     -0.000000000000    1    1    1
     19.321542549874     27.324787520000     -0.000000000000    1    1    1
     24.151928187342     27.324787520000     -0.000000000000    1    1    1
     28.982313824810     27.324787520000     -0.000000000000    1    1    1
     33.812699462279     27.324787520000     -0.000000000000    1    1    1
     38.643085099747     27.324787520000     -0.000000000000    1    1    1
     43.473470737215     27.324787520000     -0.000000000000    1    1    1
      0.000000000000     34.155984400000     -0.000000000000    1    1    1
      4.830385637468     34.155984400000     -0.000000000000    1    1    1
      9.660771274937     34.155984400000     -0.000000000000    1    1    1
     14.491156912405     34.155984400000     -0.000000000000    1    1    1
     19.321542549874     34.155984400000     -0.000000000000    1    1    1
     24.151928187342     34.155984400000     -0.000000000000    1    1    1
     28.982313824810     34.155984400000     -0.000000000000    1    1    1
     33.812699462279     34.155984400000     -0.000000000000    1    1    1
     38.643085099747     34.155984400000     -0.000000000000    1    1    1
     43.473470737215     34.155984400000     -0.000000000000    1    1    1
      0.000000000000     40.987181280000     -0.000000000000    1    1    1
      4.830385637468     40.987181280000     -0.000000000000    1    1    1
      9.660771274937     40.987181280000     -0.000000000000    1    1    1
     14.491156912405     40.987181280000     -0.000000000000    1    1    1
     19.321542549874     40.987181280000     -0.000000000000    1    1    1
     24.151928187342     40.987181280000     -0.000000000000    1    1    1
     28.982313824810     40.987181280000     -0.000000000000    1    1    1
     33.812699462279     40.987181280000     -0.000000000000    1    1    1
     38.643085099747     40.987181280000     -0.000000000000    1    1    1
     43.473470737215     40.987181280000     -0.000000000000    1    1    1
      0.000000000000     47.818378160000     -0.000000000000    1    1    1
      4.830385637468     47.818378160000     -0.000000000000    1    1    1
      9.660771274937     47.818378160000     -0.000000000000    1    1    1
     14.491156912405     47.818378160000     -0.000000000000    1    1    1
     19.321542549874     47.818378160000     -0.000000000000    1    1    1
     24.151928187342     47.818378160000     -0.000000000000    1    1    1
     28.982313824810     47.818378160000     -0.000000000000    1    1    1
     33.812699462279     47.818378160000     -0.000000000000    1    1    1
     38.643085099747     47.818378160000     -0.000000000000    1    1    1
     43.473470737215     47.818378160000     -0.000000000000    1    1    1
      2.415192818734      3.415598440000     -2.415192818734    1    1    1
      7.245578456203      3.415598440000     -2.415192818734    1    1    1
     12.075964093671      3.415598440000     -2.415192818734    1    1    1
     16.906349731139      3.415598440000     -2.415192818734    1    1    1
     21.736735368608      3.415598440000     -2.415192818734    1    1    1
     26.567121006076      3.415598440000     -2.415192818734    1    1    1
     31.397506643545      3.415598440000     -2.415192818734    1    1    1
     36.227892281013      3.415598440000     -2.415192818734    1    1    1
     41.058277918481      3.415598440000     -2.415192818734    1    1    1
     45.888663555950      3.415598440000     -2.415192818734    1    1    1
      2.415192818734     10.246795320000     -2.415192818734    1    1    1
      7.245578456203     10.246795320000     -2.415192818734    1    1    1
     12.075964093671     10.246795320000     -2.415192818734    1    1    1
     16.906349731139     10.246795320000     -2.415192818734    1    1    1
     21.736735368608     10.246795320000     -2.415192818734    1    1    1
     26.567121006076     10.246795320000     -2.415192818734    1    1    1
     31.397506643545     10.246795320000     -2.415192818734    1    1    1
     36.227892281013     10.246795320000     -2.415192818734    1    1    1
     41.058277918481     10.246795320000     -2.415192818734    1    1    1
     45.888663555950     10.246795320000     -2.415192818734    1    1    1
      2.415192818734     17.077992200000     -2.415192818734    1    1    1
      7.245578456203     17.077992200000     -2.415192818734    1    1    1
     12.075964093671     17.077992200000     -2.415192818734    1    1    1
     16.906349731139     17.077992200000     -2.415192818734    1    1    1
     21.736735368608     17.077992200000     -2.415192818734    1    1    1
     26.567121006076     17.077992200000     -2.415192818734    1    1    1
     31.397506643545     17.077992200000     -2.415192818734    1    1    1
     36.227892281013     17.077992200000     -2.415192818734    1    1    1
     41.058277918481     17.077992200000     -2.415192818734    1    1    1
     45.888663555950     17.077992200000     -2.415192818734    1    1    1
      2.415192818734     23.909189080000     -2.415192818734    1    1    1
      7.245578456203     23.909189080000     -2.415192818734    1    1    1
     12.075964093671     23.909189080000     -2.415192818734    1    1    1
     16.906349731139     23.909189080000     -2.415192818734    1    1    1
     21.736735368608     23.909189080000     -2.415192818734    1    1    1
     26.567121006076     23.909189080000     -2.415192818734    1    1    1
     31.397506643545     23.909189080000     -2.415192818734    1    1    1
     36.227892281013     23.909189080000     -2.415192818734    1    1    1
     41.058277918481     23.909189080000     -2.415192818734    1    1    1
     45.888663555950     23.909189080000     -2.415192818734    1    1    1
      2.415192818734     30.740385960000     -2.415192818734    1    1    1
      7.245578456203     30.740385960000     -2.415192818734    1    1    1
     12.075964093671     30.740385960000     -2.415192818734    1    1    1
     16.906349731139     30.740385960000     -2.415192818734    1    1    1
     21.736735368608     30.740385960000     -2.415192818734    1    1    1
     26.567121006076     30.740385960000     -2.415192818734    1    1    1
     31.397506643545     30.740385960000     -2.415192818734    1    1    1
     36.227892281013     30.740385960000     -2.415192818734    1    1    1
     41.058277918481     30.740385960000     -2.415192818734    1    1    1
     45.888663555950     30.740385960000     -2.415192818734    1    1    1
      2.415192818734     37.571582840000     -2.415192818734    1    1    1
      7.245578456203     37.571582840000     -2.415192818734    1    1    1
     12.075964093671     37.571582840000     -2.415192818734    1    1    1
     16.906349731139     37.571582840000     -2.415192818734    1    1    1
     21.736735368608     37.571582840000     -2.415192818734    1    1    1
     26.567121006076     37.571582840000     -2.415192818734    1    1    1
     31.397506643545     37.571582840000     -2.415192818734    1    1    1
     36.227892281013     37.571582840000     -2.415192818734    1    1    1
     41.058277918481     37.571582840000     -2.415192818734    1    1    1
     45.888663555950     37.571582840000     -2.415192818734    1    1    1
      2.415192818734     44.402779720000     -2.415192818734    1    1    1
      7.245578456203     44.402779720000     -2.415192818734    1    1    1
     12.075964093671     44.402779720000     -2.415192818734    1    1    1
     16.906349731139     44.402779720000     -2.415192818734    1    1    1
     21.736735368608     44.402779720000     -2.415192818734    1    1    1
     26.567121006076     44.402779720000     -2.415192818734    1    1    1
     31.397506643545     44.402779720000     -2.415192818734    1    1    1
     36.227892281013     44.402779720000     -2.415192818734    1    1    1
     41.058277918481     44.402779720000     -2.415192818734    1    1    1
     45.888663555950     44.402779720000     -2.415192818734    1    1    1
      2.415192818734     51.233976600000     -2.415192818734    1    1    1
      7.245578456203     51.233976600000     -2.415192818734    1    1    1
     12.075964093671     51.233976600000     -2.415192818734    1    1    1
     16.906349731139     51.233976600000     -2.415192818734    1    1    1
     21.736735368608     51.233976600000     -2.415192818734    1    1    1
     26.567121006076     51.233976600000     -2.415192818734    1    1    1
     31.397506643545     51.233976600000     -2.415192818734    1    1    1
     36.227892281013     51.233976600000     -2.415192818734    1    1    1
     41.058277918481     51.233976600000     -2.415192818734    1    1    1
     45.888663555950     51.233976600000     -2.415192818734    1    1    1
      0.000000000000      0.000000000000     -4.830385637468    1    1    1
      4.830385637468      0.000000000000     -4.830385637468    1    1    1
      9.660771274937      0.000000000000     -4.830385637468    1    1    1
     14.491156912405      0.000000000000     -4.830385637468    1    1    1
     19.321542549874      0.000000000000     -4.830385637468    1    1    1
     24.151928187342      0.000000000000     -4.830385637468    1    1    1
     28.982313824810      0.000000000000     -4.830385637468    1    1    1
     33.812699462279      0.000000000000     -4.830385637468    1    1    1
     38.643085099747      0.000000000000     -4.830385637468    1    1    1
     43.473470737215      0.000000000000     -4.830385637468    1    1    1
      0.000000000000      6.831196880000     -4.830385637468    1    1    1
      4.830385637468      6.831196880000     -4.830385637468    1    1    1
      9.660771274937      6.831196880000     -4.830385637468    1    1    1
     14.491156912405      6.831196880000     -4.830385637468    1    1    1
     19.321542549874      6.831196880000     -4.830385637468    1    1    1
     24.151928187342      6.831196880000     -4.830385637468    1    1    1
     28.982313824810      6.831196880000     -4.830385637468    1    1    1
     33.812699462279      6.831196880000     -4.830385637468    1    1    1
     38.643085099747      6.831196880000     -4.830385637468    1    1    1
     43.473470737215      6.831196880000     -4.830385637468    1    1    1
      0.000000000000     13.662393760000     -4.830385637468    1    1    1
      4.830385637468     13.662393760000     -4.830385637468    1    1    1
      9.660771274937     13.662393760000     -4.830385637468    1    1    1
     14.491156912405     13.662393760000     -4.830385637468    1    1    1
     19.321542549874     13.662393760000     -4.830385637468    1    1    1
     24.151928187342     13.662393760000     -4.830385637468    1    1    1
     28.982313824810     13.662393760000     -4.830385637468    1    1    1
     33.812699462279     13.662393760000     -4.830385637468    1    1    1
     38.643085099747     13.662393760000     -4.830385637468    1    1    1
     43.473470737215     13.662393760000     -4.830385637468    1    1    1
      0.000000000000     20.493590640000     -4.830385637468    1    1    1
      4.830385637468     20.493590640000     -4.830385637468    1    1    1
      9.660771274937     20.493590640000     -4.830385637468    1    1    1
     14.491156912405     20.493590640000     -4.830385637468    1    1    1
     19.321542549874     20.493590640000     -4.830385637468    1    1    1
     24.151928187342     20.493590640000     -4.830385637468    1    1    1
     28.982313824810     20.493590640000     -4.830385637468    1    1    1
     33.812699462279     20.493590640000     -4.830385637468    1    1    1
     38.643085099747     20.493590640000     -4.830385637468    1    1    1
     43.473470737215     20.493590640000     -4.830385637468    1    1    1
      0.000000000000     27.324787520000     -4.830385637468    1    1    1
      4.830385637468     27.324787520000     -4.830385637468    1    1    1
      9.660771274937     27.324787520000     -4.830385637468    1    1    1
     14.491156912405     27.324787520000     -4.830385637468    1    1    1
     19.321542549874     27.324787520000     -4.830385637468    1    1    1
     24.151928187342     27.324787520000     -4.830385637468    1    1    1
     28.982313824810     27.324787520000     -4.830385637468    1    1    1
     33.812699462279     27.324787520000     -4.830385637468    1    1    1
     38.643085099747     27.324787520000     -4.830385637468    1    1    1
     43.473470737215     27.324787520000     -4.830385637468    1    1    1
      0.000000000000     34.155984400000     -4.830385637468    1    1    1
      4.830385637468     34.155984400000     -4.830385637468    1    1    1
      9.660771274937     34.155984400000     -4.830385637468    1    1    1
     14.491156912405     34.155984400000     -4.830385637468    1    1    1
     19.321542549874     34.155984400000     -4.830385637468    1    1    1
     24.151928187342     34.155984400000     -4.830385637468    1    1    1
     28.982313824810     34.155984400000     -4.830385637468    1    1    1
     33.812699462279     34.155984400000     -4.830385637468    1    1    1
     38.643085099747     34.155984400000     -4.830385637468    1    1    1
     43.473470737215     34.155984400000     -4.830385637468    1    1    1
      0.000000000000     40.987181280000     -4.830385637468    1    1    1
      4.830385637468     40.987181280000     -4.830385637468    1    1    1
      9.660771274937     40.987181280000     -4.830385637468    1    1    1
     14.491156912405     40.987181280000     -4.830385637468    1    1    1
     19.321542549874     40.987181280000     -4.830385637468    1    1    1
     24.151928187342     40.987181280000     -4.830385637468    1    1    1
     28.982313824810     40.987181280000     -4.830385637468    1    1    1
     33.812699462279     40.987181280000     -4.830385637468    1    1    1
     38.643085099747     40.987181280000     -4.830385637468    1    1    1
     43.473470737215     40.987181280000     -4.830385637468    1    1    1
      0.000000000000     47.818378160000     -4.830385637468    1    1    1
      4.830385637468     47.818378160000     -4.830385637468    1    1    1
      9.660771274937     47.818378160000     -4.830385637468    1    1    1
     14.491156912405     47.818378160000     -4.830385637468    1    1    1
     19.321542549874     47.818378160000     -4.830385637468    1    1    1
     24.151928187342     47.818378160000     -4.830385637468    1    1    1
     28.982313824810     47.818378160000     -4.830385637468    1    1    1
     33.812699462279     47.818378160000     -4.830385637468    1    1    1
     38.643085099747     47.818378160000     -4.830385637468    1    1    1
     43.473470737215     47.818378160000     -4.830385637468    1    1    1
      2.415192818734      3.415598440000     -7.245578456203    1    1    1
      7.245578456203      3.415598440000     -7.245578456203    1    1    1
     12.075964093671      3.415598440000     -7.245578456203    1    1    1
     16.906349731139      3.415598440000     -7.245578456203    1    1    1
     21.736735368608      3.415598440000     -7.245578456203    1    1    1
     26.567121006076      3.415598440000     -7.245578456203    1    1    1
     31.397506643545      3.415598440000     -7.245578456203    1    1    1
     36.227892281013      3.415598440000     -7.245578456203    1    1    1
     41.058277918481      3.415598440000     -7.245578456203    1    1    1
     45.888663555950      3.415598440000     -7.245578456203    1    1    1
      2.415192818734     10.246795320000     -7.245578456203    1    1    1
      7.245578456203     10.246795320000     -7.245578456203    1    1    1
     12.075964093671     10.246795320000     -7.245578456203    1    1    1
     16.906349731139     10.246795320000     -7.245578456203    1    1    1
     21.736735368608     10.246795320000     -7.245578456203    1    1    1
     26.567121006076     10.246795320000     -7.245578456203    1    1    1
     31.397506643545     10.246795320000     -7.245578456203    1    1    1
     36.227892281013     10.246795320000     -7.245578456203    1    1    1
     41.058277918481     10.246795320000     -7.245578456203    1    1    1
     45.888663555950     10.246795320000     -7.245578456203    1    1    1
      2.415192818734     17.077992200000     -7.245578456203    1    1    1
      7.245578456203     17.077992200000     -7.245578456203    1    1    1
     12.075964093671     17.077992200000     -7.245578456203    1    1    1
     16.906349731139     17.077992200000     -7.245578456203    1    1    1
     21.736735368608     17.077992200000     -7.245578456203    1    1    1
     26.567121006076     17.077992200000     -7.245578456203    1    1    1
     31.397506643545     17.077992200000     -7.245578456203    1    1    1
     36.227892281013     17.077992200000     -7.245578456203    1    1    1
     41.058277918481     17.077992200000     -7.245578456203    1    1    1
     45.888663555950     17.077992200000     -7.245578456203    1    1    1
      2.415192818734     23.909189080000     -7.245578456203    1    1    1
      7.245578456203     23.909189080000     -7.245578456203    1    1    1
     12.075964093671     23.909189080000     -7.245578456203    1    1    1
     16.906349731139     23.909189080000     -7.245578456203    1    1    1
     21.736735368608     23.909189080000     -7.245578456203    1    1    1
     26.567121006076     23.909189080000     -7.245578456203    1    1    1
     31.397506643545     23.909189080000     -7.245578456203    1    1    1
     36.227892281013     23.909189080000     -7.245578456203    1    1    1
     41.058277918481     23.909189080000     -7.245578456203    1    1    1
     45.888663555950     23.909189080000     -7.245578456203    1    1    1
      2.415192818734     30.740385960000     -7.245578456203    1    1    1
      7.245578456203     30.740385960000     -7.245578456203    1    1    1
     12.075964093671     30.740385960000     -7.245578456203    1    1    1
     16.906349731139     30.740385960000     -7.245578456203    1    1    1
     21.736735368608     30.740385960000     -7.245578456203    1    1    1
     26.567121006076     30.740385960000     -7.245578456203    1    1    1
     31.397506643545     30.740385960000     -7.245578456203    1    1    1
     36.227892281013     30.740385960000     -7.245578456203    1    1    1
     41.058277918481     30.740385960000     -7.245578456203    1    1    1
     45.888663555950     30.740385960000     -7.245578456203    1    1    1
      2.415192818734     37.571582840000     -7.245578456203    1    1    1
      7.245578456203     37.571582840000     -7.245578456203    1    1    1
     12.075964093671     37.571582840000     -7.245578456203    1    1    1
     16.906349731139     37.571582840000     -7.245578456203    1    1    1
     21.736735368608     37.571582840000     -7.245578456203    1    1    1
     26.567121006076     37.571582840000     -7.245578456203    1    1    1
     31.397506643545     37.571582840000     -7.245578456203    1    1    1
     36.227892281013     37.571582840000     -7.245578456203    1    1    1
     41.058277918481     37.571582840000     -7.245578456203    1    1    1
     45.888663555950     37.571582840000     -7.245578456203    1    1    1
      2.415192818734     44.402779720000     -7.245578456203    1    1    1
      7.245578456203     44.402779720000     -7.245578456203    1    1    1
     12.075964093671     44.402779720000     -7.245578456203    1    1    1
     16.906349731139     44.402779720000     -7.245578456203    1    1    1
     21.736735368608     44.402779720000     -7.245578456203    1    1    1
     26.567121006076     44.402779720000     -7.245578456203    1    1    1
     31.397506643545     44.402779720000     -7.245578456203    1    1    1
     36.227892281013     44.402779720000     -7.245578456203    1    1    1
     41.058277918481     44.402779720000     -7.245578456203    1    1    1
     45.888663555950     44.402779720000     -7.245578456203    1    1    1
      2.415192818734     51.233976600000     -7.245578456203    1    1    1
      7.245578456203     51.233976600000     -7.245578456203    1    1    1
     12.075964093671     51.233976600000     -7.245578456203    1    1    1
     16.906349731139     51.233976600000     -7.245578456203    1    1    1
     21.736735368608     51.233976600000     -7.245578456203    1    1    1
     26.567121006076     51.233976600000     -7.245578456203    1    1    1
     31.397506643545     51.233976600000     -7.245578456203    1    1    1
     36.227892281013     51.233976600000     -7.245578456203    1    1    1
     41.058277918481     51.233976600000     -7.245578456203    1    1    1
     45.888663555950     51.233976600000     -7.245578456203    1    1    1

 Atoms (center of the slab is set to the origin):
      0.000000000000      0.000000000000      3.622789228101    1    1    1
      4.830385637468      0.000000000000      3.622789228101    1    1    1
      9.660771274937      0.000000000000      3.622789228101    1    1    1
     14.491156912405      0.000000000000      3.622789228101    1    1    1
     19.321542549874      0.000000000000      3.622789228101    1    1    1
     24.151928187342      0.000000000000      3.622789228101    1    1    1
     28.982313824810      0.000000000000      3.622789228101    1    1    1
     33.812699462279      0.000000000000      3.622789228101    1    1    1
     38.643085099747      0.000000000000      3.622789228101    1    1    1
     43.473470737215      0.000000000000      3.622789228101    1    1    1
      0.000000000000      6.831196880000      3.622789228101    1    1    1
      4.830385637468      6.831196880000      3.622789228101    1    1    1
      9.660771274937      6.831196880000      3.622789228101    1    1    1
     14.491156912405      6.831196880000      3.622789228101    1    1    1
     19.321542549874      6.831196880000      3.622789228101    1    1    1
     24.151928187342      6.831196880000      3.622789228101    1    1    1
     28.982313824810      6.831196880000      3.622789228101    1    1    1
     33.812699462279      6.831196880000      3.622789228101    1    1    1
     38.643085099747      6.831196880000      3.622789228101    1    1    1
     43.473470737215      6.831196880000      3.622789228101    1    1    1
      0.000000000000     13.662393760000      3.622789228101    1    1    1
      4.830385637468     13.662393760000      3.622789228101    1    1    1
      9.660771274937     13.662393760000      3.622789228101    1    1    1
     14.491156912405     13.662393760000      3.622789228101    1    1    1
     19.321542549874     13.662393760000      3.622789228101    1    1    1
     24.151928187342     13.662393760000      3.622789228101    1    1    1
     28.982313824810     13.662393760000      3.622789228101    1    1    1
     33.812699462279     13.662393760000      3.622789228101    1    1    1
     38.643085099747     13.662393760000      3.622789228101    1    1    1
     43.473470737215     13.662393760000      3.622789228101    1    1    1
      0.000000000000     20.493590640000      3.622789228101    1    1    1
      4.830385637468     20.493590640000      3.622789228101    1    1    1
      9.660771274937     20.493590640000      3.622789228101    1    1    1
     14.491156912405     20.493590640000      3.622789228101    1    1    1
     19.321542549874     20.493590640000      3.622789228101    1    1    1
     24.151928187342     20.493590640000      3.622789228101    1    1    1
     28.982313824810     20.493590640000      3.622789228101    1    1    1
     33.812699462279     20.493590640000      3.622789228101    1    1    1
     38.643085099747     20.493590640000      3.622789228101    1    1    1
     43.473470737215     20.493590640000      3.622789228101    1    1    1
      0.000000000000     27.324787520000      3.622789228101    1    1    1
      4.830385637468     27.324787520000      3.622789228101    1    1    1
      9.660771274937     27.324787520000      3.622789228101    1    1    1
     14.491156912405     27.324787520000      3.622789228101    1    1    1
     19.321542549874     27.324787520000      3.622789228101    1    1    1
     24.151928187342     27.324787520000      3.622789228101    1    1    1
     28.982313824810     27.324787520000      3.622789228101    1    1    1
     33.812699462279     27.324787520000      3.622789228101    1    1    1
     38.643085099747     27.324787520000      3.622789228101    1    1    1
     43.473470737215     27.324787520000      3.622789228101    1    1    1
      0.000000000000     34.155984400000      3.622789228101    1    1    1
      4.830385637468     34.155984400000      3.622789228101    1    1    1
      9.660771274937     34.155984400000      3.622789228101    1    1    1
     14.491156912405     34.155984400000      3.622789228101    1    1    1
     19.321542549874     34.155984400000      3.622789228101    1    1    1
     24.151928187342     34.155984400000      3.622789228101    1    1    1
     28.982313824810     34.155984400000      3.622789228101    1    1    1
     33.812699462279     34.155984400000      3.622789228101    1    1    1
     38.643085099747     34.155984400000      3.622789228101    1    1    1
     43.473470737215     34.155984400000      3.622789228101    1    1    1
      0.000000000000     40.987181280000      3.622789228101    1    1    1
      4.830385637468     40.987181280000      3.622789228101    1    1    1
      9.660771274937     40.987181280000      3.622789228101    1    1    1
     14.491156912405     40.987181280000      3.622789228101    1    1    1
     19.321542549874     40.987181280000      3.622789228101    1    1    1
     24.151928187342     40.987181280000      3.622789228101    1    1    1
     28.982313824810     40.987181280000      3.622789228101    1    1    1
     33.812699462279     40.987181280000      3.622789228101    1    1    1
     38.643085099747     40.987181280000      3.622789228101    1    1    1
     43.473470737215     40.987181280000      3.622789228101    1    1    1
      0.000000000000     47.818378160000      3.622789228101    1    1    1
      4.830385637468     47.818378160000      3.622789228101    1    1    1
      9.660771274937     47.818378160000      3.622789228101    1    1    1
     14.491156912405     47.818378160000      3.622789228101    1    1    1
     19.321542549874     47.818378160000      3.622789228101    1    1    1
     24.151928187342     47.818378160000      3.622789228101    1    1    1
     28.982313824810     47.818378160000      3.622789228101    1    1    1
     33.812699462279     47.818378160000      3.622789228101    1    1    1
     38.643085099747     47.818378160000      3.622789228101    1    1    1
     43.473470737215     47.818378160000      3.622789228101    1    1    1
      2.415192818734      3.415598440000      1.207596409367    1    1    1
      7.245578456203      3.415598440000      1.207596409367    1    1    1
     12.075964093671      3.415598440000      1.207596409367    1    1    1
     16.906349731139      3.415598440000      1.207596409367    1    1    1
     21.736735368608      3.415598440000      1.207596409367    1    1    1
     26.567121006076      3.415598440000      1.207596409367    1    1    1
     31.397506643545      3.415598440000      1.207596409367    1    1    1
     36.227892281013      3.415598440000      1.207596409367    1    1    1
     41.058277918481      3.415598440000      1.207596409367    1    1    1
     45.888663555950      3.415598440000      1.207596409367    1    1    1
      2.415192818734     10.246795320000      1.207596409367    1    1    1
      7.245578456203     10.246795320000      1.207596409367    1    1    1
     12.075964093671     10.246795320000      1.207596409367    1    1    1
     16.906349731139     10.246795320000      1.207596409367    1    1    1
     21.736735368608     10.246795320000      1.207596409367    1    1    1
     26.567121006076     10.246795320000      1.207596409367    1    1    1
     31.397506643545     10.246795320000      1.207596409367    1    1    1
     36.227892281013     10.246795320000      1.207596409367    1    1    1
     41.058277918481     10.246795320000      1.207596409367    1    1    1
     45.888663555950     10.246795320000      1.207596409367    1    1    1
      2.415192818734     17.077992200000      1.207596409367    1    1    1
      7.245578456203     17.077992200000      1.207596409367    1    1    1
     12.075964093671     17.077992200000      1.207596409367    1    1    1
     16.906349731139     17.077992200000      1.207596409367    1    1    1
     21.736735368608     17.077992200000      1.207596409367    1    1    1
     26.567121006076     17.077992200000      1.207596409367    1    1    1
     31.397506643545     17.077992200000      1.207596409367    1    1    1
     36.227892281013     17.077992200000      1.207596409367    1    1    1
     41.058277918481     17.077992200000      1.207596409367    1    1    1
     45.888663555950     17.077992200000      1.207596409367    1    1    1
      2.415192818734     23.909189080000      1.207596409367    1    1    1
      7.245578456203     23.909189080000      1.207596409367    1    1    1
     12.075964093671     23.909189080000      1.207596409367    1    1    1
     16.906349731139     23.909189080000      1.207596409367    1    1    1
     21.736735368608     23.909189080000      1.207596409367    1    1    1
     26.567121006076     23.909189080000      1.207596409367    1    1    1
     31.397506643545     23.909189080000      1.207596409367    1    1    1
     36.227892281013     23.909189080000      1.207596409367    1    1    1
     41.058277918481     23.909189080000      1.207596409367    1    1    1
     45.888663555950     23.909189080000      1.207596409367    1    1    1
      2.415192818734     30.740385960000      1.207596409367    1    1    1
      7.245578456203     30.740385960000      1.207596409367    1    1    1
     12.075964093671     30.740385960000      1.207596409367    1    1    1
     16.906349731139     30.740385960000      1.207596409367    1    1    1
     21.736735368608     30.740385960000      1.207596409367    1    1    1
     26.567121006076     30.740385960000      1.207596409367    1    1    1
     31.397506643545     30.740385960000      1.207596409367    1    1    1
     36.227892281013     30.740385960000      1.207596409367    1    1    1
     41.058277918481     30.740385960000      1.207596409367    1    1    1
     45.888663555950     30.740385960000      1.207596409367    1    1    1
      2.415192818734     37.571582840000      1.207596409367    1    1    1
      7.245578456203     37.571582840000      1.207596409367    1    1    1
     12.075964093671     37.571582840000      1.207596409367    1    1    1
     16.906349731139     37.571582840000      1.207596409367    1    1    1
     21.736735368608     37.571582840000      1.207596409367    1    1    1
     26.567121006076     37.571582840000      1.207596409367    1    1    1
     31.397506643545     37.571582840000      1.207596409367    1    1    1
     36.227892281013     37.571582840000      1.207596409367    1    1    1
     41.058277918481     37.571582840000      1.207596409367    1    1    1
     45.888663555950     37.571582840000      1.207596409367    1    1    1
      2.415192818734     44.402779720000      1.207596409367    1    1    1
      7.245578456203     44.402779720000      1.207596409367    1    1    1
     12.075964093671     44.402779720000      1.207596409367    1    1    1
     16.906349731139     44.402779720000      1.207596409367    1    1    1
     21.736735368608     44.402779720000      1.207596409367    1    1    1
     26.567121006076     44.402779720000      1.207596409367    1    1    1
     31.397506643545     44.402779720000      1.207596409367    1    1    1
     36.227892281013     44.402779720000      1.207596409367    1    1    1
     41.058277918481     44.402779720000      1.207596409367    1    1    1
     45.888663555950     44.402779720000      1.207596409367    1    1    1
      2.415192818734     51.233976600000      1.207596409367    1    1    1
      7.245578456203     51.233976600000      1.207596409367    1    1    1
     12.075964093671     51.233976600000      1.207596409367    1    1    1
     16.906349731139     51.233976600000      1.207596409367    1    1    1
     21.736735368608     51.233976600000      1.207596409367    1    1    1
     26.567121006076     51.233976600000      1.207596409367    1    1    1
     31.397506643545     51.233976600000      1.207596409367    1    1    1
     36.227892281013     51.233976600000      1.207596409367    1    1    1
     41.058277918481     51.233976600000      1.207596409367    1    1    1
     45.888663555950     51.233976600000      1.207596409367    1    1    1
      0.000000000000      0.000000000000     -1.207596409367    1    1    1
      4.830385637468      0.000000000000     -1.207596409367    1    1    1
      9.660771274937      0.000000000000     -1.207596409367    1    1    1
     14.491156912405      0.000000000000     -1.207596409367    1    1    1
     19.321542549874      0.000000000000     -1.207596409367    1    1    1
     24.151928187342      0.000000000000     -1.207596409367    1    1    1
     28.982313824810      0.000000000000     -1.207596409367    1    1    1
     33.812699462279      0.000000000000     -1.207596409367    1    1    1
     38.643085099747      0.000000000000     -1.207596409367    1    1    1
     43.473470737215      0.000000000000     -1.207596409367    1    1    1
      0.000000000000      6.831196880000     -1.207596409367    1    1    1
      4.830385637468      6.831196880000     -1.207596409367    1    1    1
      9.660771274937      6.831196880000     -1.207596409367    1    1    1
     14.491156912405      6.831196880000     -1.207596409367    1    1    1
     19.321542549874      6.831196880000     -1.207596409367    1    1    1
     24.151928187342      6.831196880000     -1.207596409367    1    1    1
     28.982313824810      6.831196880000     -1.207596409367    1    1    1
     33.812699462279      6.831196880000     -1.207596409367    1    1    1
     38.643085099747      6.831196880000     -1.207596409367    1    1    1
     43.473470737215      6.831196880000     -1.207596409367    1    1    1
      0.000000000000     13.662393760000     -1.207596409367    1    1    1
      4.830385637468     13.662393760000     -1.207596409367    1    1    1
      9.660771274937     13.662393760000     -1.207596409367    1    1    1
     14.491156912405     13.662393760000     -1.207596409367    1    1    1
     19.321542549874     13.662393760000     -1.207596409367    1    1    1
     24.151928187342     13.662393760000     -1.207596409367    1    1    1
     28.982313824810     13.662393760000     -1.207596409367    1    1    1
     33.812699462279     13.662393760000     -1.207596409367    1    1    1
     38.643085099747     13.662393760000     -1.207596409367    1    1    1
     43.473470737215     13.662393760000     -1.207596409367    1    1    1
      0.000000000000     20.493590640000     -1.207596409367    1    1    1
      4.830385637468     20.493590640000     -1.207596409367    1    1    1
      9.660771274937     20.493590640000     -1.207596409367    1    1    1
     14.491156912405     20.493590640000     -1.207596409367    1    1    1
     19.321542549874     20.493590640000     -1.207596409367    1    1    1
     24.151928187342     20.493590640000     -1.207596409367    1    1    1
     28.982313824810     20.493590640000     -1.207596409367    1    1    1
     33.812699462279     20.493590640000     -1.207596409367    1    1    1
     38.643085099747     20.493590640000     -1.207596409367    1    1    1
     43.473470737215     20.493590640000     -1.207596409367    1    1    1
      0.000000000000     27.324787520000     -1.207596409367    1    1    1
      4.830385637468     27.324787520000     -1.207596409367    1    1    1
      9.660771274937     27.324787520000     -1.207596409367    1    1    1
     14.491156912405     27.324787520000     -1.207596409367    1    1    1
     19.321542549874     27.324787520000     -1.207596409367    1    1    1
     24.151928187342     27.324787520000     -1.207596409367    1    1    1
     28.982313824810     27.324787520000     -1.207596409367    1    1    1
     33.812699462279     27.324787520000     -1.207596409367    1    1    1
     38.643085099747     27.324787520000     -1.207596409367    1    1    1
     43.473470737215     27.324787520000     -1.207596409367    1    1    1
      0.000000000000     34.155984400000     -1.207596409367    1    1    1
      4.830385637468     34.155984400000     -1.207596409367    1    1    1
      9.660771274937     34.155984400000     -1.207596409367    1    1    1
     14.491156912405     34.155984400000     -1.207596409367    1    1    1
     19.321542549874     34.155984400000     -1.207596409367    1    1    1
     24.151928187342     34.155984400000     -1.207596409367    1    1    1
     28.982313824810     34.155984400000     -1.207596409367    1    1    1
     33.812699462279     34.155984400000     -1.207596409367    1    1    1
     38.643085099747     34.155984400000     -1.207596409367    1    1    1
     43.473470737215     34.155984400000     -1.207596409367    1    1    1
      0.000000000000     40.987181280000     -1.207596409367    1    1    1
      4.830385637468     40.987181280000     -1.207596409367    1    1    1
      9.660771274937     40.987181280000     -1.207596409367    1    1    1
     14.491156912405     40.987181280000     -1.207596409367    1    1    1
     19.321542549874     40.987181280000     -1.207596409367    1    1    1
     24.151928187342     40.987181280000     -1.207596409367    1    1    1
     28.982313824810     40.987181280000     -1.207596409367    1    1    1
     33.812699462279     40.987181280000     -1.207596409367    1    1    1
     38.643085099747     40.987181280000     -1.207596409367    1    1    1
     43.473470737215     40.987181280000     -1.207596409367    1    1    1
      0.000000000000     47.818378160000     -1.207596409367    1    1    1
      4.830385637468     47.818378160000     -1.207596409367    1    1    1
      9.660771274937     47.818378160000     -1.207596409367    1    1    1
     14.491156912405     47.818378160000     -1.207596409367    1    1    1
     19.321542549874     47.818378160000     -1.207596409367    1    1    1
     24.151928187342     47.818378160000     -1.207596409367    1    1    1
     28.982313824810     47.818378160000     -1.207596409367    1    1    1
     33.812699462279     47.818378160000     -1.207596409367    1    1    1
     38.643085099747     47.818378160000     -1.207596409367    1    1    1
     43.473470737215     47.818378160000     -1.207596409367    1    1    1
      2.415192818734      3.415598440000     -3.622789228101    1    1    1
      7.245578456203      3.415598440000     -3.622789228101    1    1    1
     12.075964093671      3.415598440000     -3.622789228101    1    1    1
     16.906349731139      3.415598440000     -3.622789228101    1    1    1
     21.736735368608      3.415598440000     -3.622789228101    1    1    1
     26.567121006076      3.415598440000     -3.622789228101    1    1    1
     31.397506643545      3.415598440000     -3.622789228101    1    1    1
     36.227892281013      3.415598440000     -3.622789228101    1    1    1
     41.058277918481      3.415598440000     -3.622789228101    1    1    1
     45.888663555950      3.415598440000     -3.622789228101    1    1    1
      2.415192818734     10.246795320000     -3.622789228101    1    1    1
      7.245578456203     10.246795320000     -3.622789228101    1    1    1
     12.075964093671     10.246795320000     -3.622789228101    1    1    1
     16.906349731139     10.246795320000     -3.622789228101    1    1    1
     21.736735368608     10.246795320000     -3.622789228101    1    1    1
     26.567121006076     10.246795320000     -3.622789228101    1    1    1
     31.397506643545     10.246795320000     -3.622789228101    1    1    1
     36.227892281013     10.246795320000     -3.622789228101    1    1    1
     41.058277918481     10.246795320000     -3.622789228101    1    1    1
     45.888663555950     10.246795320000     -3.622789228101    1    1    1
      2.415192818734     17.077992200000     -3.622789228101    1    1    1
      7.245578456203     17.077992200000     -3.622789228101    1    1    1
     12.075964093671     17.077992200000     -3.622789228101    1    1    1
     16.906349731139     17.077992200000     -3.622789228101    1    1    1
     21.736735368608     17.077992200000     -3.622789228101    1    1    1
     26.567121006076     17.077992200000     -3.622789228101    1    1    1
     31.397506643545     17.077992200000     -3.622789228101    1    1    1
     36.227892281013     17.077992200000     -3.622789228101    1    1    1
     41.058277918481     17.077992200000     -3.622789228101    1    1    1
     45.888663555950     17.077992200000     -3.622789228101    1    1    1
      2.415192818734     23.909189080000     -3.622789228101    1    1    1
      7.245578456203     23.909189080000     -3.622789228101    1    1    1
     12.075964093671     23.909189080000     -3.622789228101    1    1    1
     16.906349731139     23.909189080000     -3.622789228101    1    1    1
     21.736735368608     23.909189080000     -3.622789228101    1    1    1
     26.567121006076     23.909189080000     -3.622789228101    1    1    1
     31.397506643545     23.909189080000     -3.622789228101    1    1    1
     36.227892281013     23.909189080000     -3.622789228101    1    1    1
     41.058277918481     23.909189080000     -3.622789228101    1    1    1
     45.888663555950     23.909189080000     -3.622789228101    1    1    1
      2.415192818734     30.740385960000     -3.622789228101    1    1    1
      7.245578456203     30.740385960000     -3.622789228101    1    1    1
     12.075964093671     30.740385960000     -3.622789228101    1    1    1
     16.906349731139     30.740385960000     -3.622789228101    1    1    1
     21.736735368608     30.740385960000     -3.622789228101    1    1    1
     26.567121006076     30.740385960000     -3.622789228101    1    1    1
     31.397506643545     30.740385960000     -3.622789228101    1    1    1
     36.227892281013     30.740385960000     -3.622789228101    1    1    1
     41.058277918481     30.740385960000     -3.622789228101    1    1    1
     45.888663555950     30.740385960000     -3.622789228101    1    1    1
      2.415192818734     37.571582840000     -3.622789228101    1    1    1
      7.245578456203     37.571582840000     -3.622789228101    1    1    1
     12.075964093671     37.571582840000     -3.622789228101    1    1    1
     16.906349731139     37.571582840000     -3.622789228101    1    1    1
     21.736735368608     37.571582840000     -3.622789228101    1    1    1
     26.567121006076     37.571582840000     -3.622789228101    1    1    1
     31.397506643545     37.571582840000     -3.622789228101    1    1    1
     36.227892281013     37.571582840000     -3.622789228101    1    1    1
     41.058277918481     37.571582840000     -3.622789228101    1    1    1
     45.888663555950     37.571582840000     -3.622789228101    1    1    1
      2.415192818734     44.402779720000     -3.622789228101    1    1    1
      7.245578456203     44.402779720000     -3.622789228101    1    1    1
     12.075964093671     44.402779720000     -3.622789228101    1    1    1
     16.906349731139     44.402779720000     -3.622789228101    1    1    1
     21.736735368608     44.402779720000     -3.622789228101    1    1    1
     26.567121006076     44.402779720000     -3.622789228101    1    1    1
     31.397506643545     44.402779720000     -3.622789228101    1    1    1
     36.227892281013     44.402779720000     -3.622789228101    1    1    1
     41.058277918481     44.402779720000     -3.622789228101    1    1    1
     45.888663555950     44.402779720000     -3.622789228101    1    1    1
      2.415192818734     51.233976600000     -3.622789228101    1    1    1
      7.245578456203     51.233976600000     -3.622789228101    1    1    1
     12.075964093671     51.233976600000     -3.622789228101    1    1    1
     16.906349731139     51.233976600000     -3.622789228101    1    1    1
     21.736735368608     51.233976600000     -3.622789228101    1    1    1
     26.567121006076     51.233976600000     -3.622789228101    1    1    1
     31.397506643545     51.233976600000     -3.622789228101    1    1    1
     36.227892281013     51.233976600000     -3.622789228101    1    1    1
     41.058277918481     51.233976600000     -3.622789228101    1    1    1
     45.888663555950     51.233976600000     -3.622789228101    1    1    1
