 15
Pd15 
Pd        0.00000000        0.00000000        0.00000000
Pd        1.37057351        2.37390296        0.00000000
Pd        2.74114702        4.74780591        0.00000000
Pd        0.00000000        1.58260197       -2.23813717
Pd        1.37057351        3.95650493       -2.23813717
Pd        2.74114702        6.33040788       -2.23813717
Pd        0.00000000       -1.58260197       -4.47627434
Pd        1.37057351        0.79130099       -4.47627434
Pd        2.74114702        3.16520394       -4.47627434
Pd        0.00000000        0.00000000       -6.71441151
Pd        1.37057351        2.37390296       -6.71441151
Pd        2.74114702        4.74780591       -6.71441151
Pd        0.00000000        1.58260197       -8.95254868
Pd        1.37057351        3.95650493       -8.95254868
Pd        2.74114702        6.33040788       -8.95254868
