
 ******************************************************************
 *** This program generates an fcc (111) 1x1 clean surface      ***
 ******************************************************************


 a_0=         6.83119688
 a  =         4.83038564

 Slab of  5 ML
 Vacuum region corresponds to 10 ML
 Slabs are separated by  43.38 Bohr
 Slabs are separated by  22.96 Angstrom

 Inter-layer distance =         3.94399336
 Slab-slab distance   =        43.38392693


 Lattice vectors:
      4.830385637468      0.000000000000      0.000000000000
      2.415192818734      4.183236672123      0.000000000000
      0.000000000000      0.000000000000     59.159900363330

 Supercell Lattice vectors:
      4.830385637468      0.000000000000      0.000000000000
      2.415192818734      4.183236672123      0.000000000000
      0.000000000000      0.000000000000     59.159900363330

 Surface area:      20.206646339155
 Surface area:      20.206646339155

 Volume of unit cell:    1195.423184101428

 Number of atoms:    5
 Atoms: 
      0.000000000000      0.000000000000     -0.000000000000
      0.000000000000      2.788824448082     -3.943993357555
      0.000000000000     -2.788824448082     -7.887986715111
      0.000000000000      0.000000000000    -11.831980072666
      0.000000000000      2.788824448082    -15.775973430221

 Atomic coordinates in reduced coordinate 
          0.000000000000          0.000000000000          0.000000000000
         -0.333333333333          0.666666666667         -0.066666666667
          0.333333333333         -0.666666666667         -0.133333333333
          0.000000000000          0.000000000000         -0.200000000000
         -0.333333333333          0.666666666667         -0.266666666667

 Atoms (center of the slab is set to the origin):
          0.000000000000          0.000000000000          7.887986715111
          0.000000000000          2.788824448082          3.943993357555
          0.000000000000         -2.788824448082          0.000000000000
          0.000000000000          0.000000000000         -3.943993357555
          0.000000000000          2.788824448082         -7.887986715111
