
 ******************************************************************
 *** This program generates an fcc (111) 1x1 clean surface      ***
 ******************************************************************


 a_0=         6.83110804
 a  =         4.83032282

 Slab of 15 ML
 Vacuum region corresponds to  9 ML
 Slabs are separated by  39.44 Bohr
 Slabs are separated by  20.87 Angstrom

 Inter-layer distance =         3.94394207
 Slab-slab distance   =        39.43942066


 Lattice vectors:
      4.830322818102      0.000000000000      0.000000000000
      2.415161409051      4.183182268956      0.000000000000
      0.000000000000      0.000000000000     94.654609578178

 Supercell Lattice vectors:
      4.830322818102      0.000000000000      0.000000000000
      2.415161409051      4.183182268956      0.000000000000
      0.000000000000      0.000000000000     94.654609578178

 Surface area:      20.206120766017
 Surface area:      20.206120766017

 Volume of unit cell:    1912.602472196881

 Number of atoms:   15
 Atoms: 
      0.000000000000      0.000000000000     -0.000000000000
      0.000000000000      2.788788179304     -3.943942065757
      0.000000000000     -2.788788179304     -7.887884131515
      0.000000000000      0.000000000000    -11.831826197272
      0.000000000000      2.788788179304    -15.775768263030
      0.000000000000     -2.788788179304    -19.719710328787
      0.000000000000      0.000000000000    -23.663652394545
      0.000000000000      2.788788179304    -27.607594460302
      0.000000000000     -2.788788179304    -31.551536526059
      0.000000000000      0.000000000000    -35.495478591817
      0.000000000000      2.788788179304    -39.439420657574
      0.000000000000     -2.788788179304    -43.383362723332
      0.000000000000      0.000000000000    -47.327304789089
      0.000000000000      2.788788179304    -51.271246854846
      0.000000000000     -2.788788179304    -55.215188920604

 Atomic coordinates in reduced coordinate 
          0.000000000000          0.000000000000          0.000000000000
         -0.333333333333          0.666666666667         -0.041666666667
          0.333333333333         -0.666666666667         -0.083333333333
          0.000000000000          0.000000000000         -0.125000000000
         -0.333333333333          0.666666666667         -0.166666666667
          0.333333333333         -0.666666666667         -0.208333333333
          0.000000000000          0.000000000000         -0.250000000000
         -0.333333333333          0.666666666667         -0.291666666667
          0.333333333333         -0.666666666667         -0.333333333333
          0.000000000000          0.000000000000         -0.375000000000
         -0.333333333333          0.666666666667         -0.416666666667
          0.333333333333         -0.666666666667         -0.458333333333
          0.000000000000          0.000000000000         -0.500000000000
         -0.333333333333          0.666666666667         -0.541666666667
          0.333333333333         -0.666666666667         -0.583333333333

 Atoms (center of the slab is set to the origin):
          0.000000000000          0.000000000000         27.607594460302
          0.000000000000          2.788788179304         23.663652394544
          0.000000000000         -2.788788179304         19.719710328787
          0.000000000000          0.000000000000         15.775768263030
          0.000000000000          2.788788179304         11.831826197272
          0.000000000000         -2.788788179304          7.887884131515
          0.000000000000          0.000000000000          3.943942065757
          0.000000000000          2.788788179304          0.000000000000
          0.000000000000         -2.788788179304         -3.943942065757
          0.000000000000          0.000000000000         -7.887884131515
          0.000000000000          2.788788179304        -11.831826197272
          0.000000000000         -2.788788179304        -15.775768263030
          0.000000000000          0.000000000000        -19.719710328787
          0.000000000000          2.788788179304        -23.663652394545
          0.000000000000         -2.788788179304        -27.607594460302
