
 ******************************************************************
 *** This program generates an fcc (111) 1x1 clean surface      ***
 ******************************************************************


 a_0=         6.83110804
 a  =         4.83032282

 Slab of 15 ML
 Vacuum region corresponds to 14 ML
 Slabs are separated by  59.16 Bohr
 Slabs are separated by  31.31 Angstrom

 Inter-layer distance =         3.94394207
 Slab-slab distance   =        59.15913099


 Lattice vectors:
      4.830322818102      0.000000000000      0.000000000000
      2.415161409051      4.183182268956      0.000000000000
      0.000000000000      0.000000000000    114.374319906965

 Supercell Lattice vectors:
      4.830322818102      0.000000000000      0.000000000000
      2.415161409051      4.183182268956      0.000000000000
      0.000000000000      0.000000000000    114.374319906965

 Surface area:      20.206120766017
 Surface area:      20.206120766017

 Volume of unit cell:    2311.061320571231

 Number of atoms:   15
 Atoms: 
      0.000000000000      0.000000000000     -0.000000000000
      0.000000000000      2.788788179304     -3.943942065757
      0.000000000000     -2.788788179304     -7.887884131515
      0.000000000000      0.000000000000    -11.831826197272
      0.000000000000      2.788788179304    -15.775768263030
      0.000000000000     -2.788788179304    -19.719710328787
      0.000000000000      0.000000000000    -23.663652394545
      0.000000000000      2.788788179304    -27.607594460302
      0.000000000000     -2.788788179304    -31.551536526059
      0.000000000000      0.000000000000    -35.495478591817
      0.000000000000      2.788788179304    -39.439420657574
      0.000000000000     -2.788788179304    -43.383362723332
      0.000000000000      0.000000000000    -47.327304789089
      0.000000000000      2.788788179304    -51.271246854846
      0.000000000000     -2.788788179304    -55.215188920604

 Atomic coordinates in reduced coordinate 
          0.000000000000          0.000000000000          0.000000000000
         -0.333333333333          0.666666666667         -0.034482758621
          0.333333333333         -0.666666666667         -0.068965517241
          0.000000000000          0.000000000000         -0.103448275862
         -0.333333333333          0.666666666667         -0.137931034483
          0.333333333333         -0.666666666667         -0.172413793103
          0.000000000000          0.000000000000         -0.206896551724
         -0.333333333333          0.666666666667         -0.241379310345
          0.333333333333         -0.666666666667         -0.275862068966
          0.000000000000          0.000000000000         -0.310344827586
         -0.333333333333          0.666666666667         -0.344827586207
          0.333333333333         -0.666666666667         -0.379310344828
          0.000000000000          0.000000000000         -0.413793103448
         -0.333333333333          0.666666666667         -0.448275862069
          0.333333333333         -0.666666666667         -0.482758620690

 Atoms (center of the slab is set to the origin):
          0.000000000000          0.000000000000         27.607594460302
          0.000000000000          2.788788179304         23.663652394544
          0.000000000000         -2.788788179304         19.719710328787
          0.000000000000          0.000000000000         15.775768263030
          0.000000000000          2.788788179304         11.831826197272
          0.000000000000         -2.788788179304          7.887884131515
          0.000000000000          0.000000000000          3.943942065757
          0.000000000000          2.788788179304          0.000000000000
          0.000000000000         -2.788788179304         -3.943942065757
          0.000000000000          0.000000000000         -7.887884131515
          0.000000000000          2.788788179304        -11.831826197272
          0.000000000000         -2.788788179304        -15.775768263030
          0.000000000000          0.000000000000        -19.719710328787
          0.000000000000          2.788788179304        -23.663652394545
          0.000000000000         -2.788788179304        -27.607594460302
