
 ******************************************************************
 *** This program generates an fcc (111) 1x1 clean surface      ***
 ******************************************************************


 a_0=         6.83110804
 a  =         4.83032282

 Slab of 15 ML
 Vacuum region corresponds to 29 ML
 Slabs are separated by 118.32 Bohr
 Slabs are separated by  62.61 Angstrom

 Inter-layer distance =         3.94394207
 Slab-slab distance   =       118.31826197


 Lattice vectors:
      4.830322818102      0.000000000000      0.000000000000
      2.415161409051      4.183182268956      0.000000000000
      0.000000000000      0.000000000000    173.533450893326

 Supercell Lattice vectors:
      4.830322818102      0.000000000000      0.000000000000
      2.415161409051      4.183182268956      0.000000000000
      0.000000000000      0.000000000000    173.533450893326

 Surface area:      20.206120766017
 Surface area:      20.206120766017

 Volume of unit cell:    3506.437865694281

 Number of atoms:   15
 Atoms: 
      0.000000000000      0.000000000000     -0.000000000000
      0.000000000000      2.788788179304     -3.943942065757
      0.000000000000     -2.788788179304     -7.887884131515
      0.000000000000      0.000000000000    -11.831826197272
      0.000000000000      2.788788179304    -15.775768263030
      0.000000000000     -2.788788179304    -19.719710328787
      0.000000000000      0.000000000000    -23.663652394545
      0.000000000000      2.788788179304    -27.607594460302
      0.000000000000     -2.788788179304    -31.551536526059
      0.000000000000      0.000000000000    -35.495478591817
      0.000000000000      2.788788179304    -39.439420657574
      0.000000000000     -2.788788179304    -43.383362723332
      0.000000000000      0.000000000000    -47.327304789089
      0.000000000000      2.788788179304    -51.271246854846
      0.000000000000     -2.788788179304    -55.215188920604

 Atomic coordinates in reduced coordinate 
          0.000000000000          0.000000000000          0.000000000000
         -0.333333333333          0.666666666667         -0.022727272727
          0.333333333333         -0.666666666667         -0.045454545455
          0.000000000000          0.000000000000         -0.068181818182
         -0.333333333333          0.666666666667         -0.090909090909
          0.333333333333         -0.666666666667         -0.113636363636
          0.000000000000          0.000000000000         -0.136363636364
         -0.333333333333          0.666666666667         -0.159090909091
          0.333333333333         -0.666666666667         -0.181818181818
          0.000000000000          0.000000000000         -0.204545454545
         -0.333333333333          0.666666666667         -0.227272727273
          0.333333333333         -0.666666666667         -0.250000000000
          0.000000000000          0.000000000000         -0.272727272727
         -0.333333333333          0.666666666667         -0.295454545455
          0.333333333333         -0.666666666667         -0.318181818182

 Atoms (center of the slab is set to the origin):
          0.000000000000          0.000000000000         27.607594460302
          0.000000000000          2.788788179304         23.663652394544
          0.000000000000         -2.788788179304         19.719710328787
          0.000000000000          0.000000000000         15.775768263030
          0.000000000000          2.788788179304         11.831826197272
          0.000000000000         -2.788788179304          7.887884131515
          0.000000000000          0.000000000000          3.943942065757
          0.000000000000          2.788788179304          0.000000000000
          0.000000000000         -2.788788179304         -3.943942065757
          0.000000000000          0.000000000000         -7.887884131515
          0.000000000000          2.788788179304        -11.831826197272
          0.000000000000         -2.788788179304        -15.775768263030
          0.000000000000          0.000000000000        -19.719710328787
          0.000000000000          2.788788179304        -23.663652394545
          0.000000000000         -2.788788179304        -27.607594460302
