
 ******************************************************************
 *** This program generates an fcc (111) 1x1 clean surface      ***
 ******************************************************************


 a_0=         6.83110804
 a  =         4.83032282

 Slab of 15 ML
 Vacuum region corresponds to 23 ML
 Slabs are separated by  94.65 Bohr
 Slabs are separated by  50.09 Angstrom

 Inter-layer distance =         3.94394207
 Slab-slab distance   =        94.65460958


 Lattice vectors:
      4.830322818102      0.000000000000      0.000000000000
      2.415161409051      4.183182268956      0.000000000000
      0.000000000000      0.000000000000    149.869798498782

 Supercell Lattice vectors:
      4.830322818102      0.000000000000      0.000000000000
      2.415161409051      4.183182268956      0.000000000000
      0.000000000000      0.000000000000    149.869798498782

 Surface area:      20.206120766017
 Surface area:      20.206120766017

 Volume of unit cell:    3028.287247645061

 Number of atoms:   15
 Atoms: 
      0.000000000000      0.000000000000     -0.000000000000
      0.000000000000      2.788788179304     -3.943942065757
      0.000000000000     -2.788788179304     -7.887884131515
      0.000000000000      0.000000000000    -11.831826197272
      0.000000000000      2.788788179304    -15.775768263030
      0.000000000000     -2.788788179304    -19.719710328787
      0.000000000000      0.000000000000    -23.663652394545
      0.000000000000      2.788788179304    -27.607594460302
      0.000000000000     -2.788788179304    -31.551536526059
      0.000000000000      0.000000000000    -35.495478591817
      0.000000000000      2.788788179304    -39.439420657574
      0.000000000000     -2.788788179304    -43.383362723332
      0.000000000000      0.000000000000    -47.327304789089
      0.000000000000      2.788788179304    -51.271246854846
      0.000000000000     -2.788788179304    -55.215188920604

 Atomic coordinates in reduced coordinate 
          0.000000000000          0.000000000000          0.000000000000
         -0.333333333333          0.666666666667         -0.026315789474
          0.333333333333         -0.666666666667         -0.052631578947
          0.000000000000          0.000000000000         -0.078947368421
         -0.333333333333          0.666666666667         -0.105263157895
          0.333333333333         -0.666666666667         -0.131578947368
          0.000000000000          0.000000000000         -0.157894736842
         -0.333333333333          0.666666666667         -0.184210526316
          0.333333333333         -0.666666666667         -0.210526315789
          0.000000000000          0.000000000000         -0.236842105263
         -0.333333333333          0.666666666667         -0.263157894737
          0.333333333333         -0.666666666667         -0.289473684211
          0.000000000000          0.000000000000         -0.315789473684
         -0.333333333333          0.666666666667         -0.342105263158
          0.333333333333         -0.666666666667         -0.368421052632

 Atoms (center of the slab is set to the origin):
          0.000000000000          0.000000000000         27.607594460302
          0.000000000000          2.788788179304         23.663652394544
          0.000000000000         -2.788788179304         19.719710328787
          0.000000000000          0.000000000000         15.775768263030
          0.000000000000          2.788788179304         11.831826197272
          0.000000000000         -2.788788179304          7.887884131515
          0.000000000000          0.000000000000          3.943942065757
          0.000000000000          2.788788179304          0.000000000000
          0.000000000000         -2.788788179304         -3.943942065757
          0.000000000000          0.000000000000         -7.887884131515
          0.000000000000          2.788788179304        -11.831826197272
          0.000000000000         -2.788788179304        -15.775768263030
          0.000000000000          0.000000000000        -19.719710328787
          0.000000000000          2.788788179304        -23.663652394545
          0.000000000000         -2.788788179304        -27.607594460302
