
 ******************************************************************
 *** This program generates an fcc (111) clean surface          ***
 ******************************************************************

 a_0=         6.59707361 (Bohr)
 a  =         4.66483548 (Bohr)

 Slab of  5 ML
 Vacuum region corresponds to 10 ML
 Slabs are separated by  41.90 Bohr
 Slabs are separated by  22.17 Angstrom

 Inter-layer distance =         3.80882222 (Bohr)
 Slab-slab distance   =        41.89704446 (Bohr)

 Lattice vectors (Bohr):
      4.664835484652      0.000000000000      0.000000000000
     -2.332417742326      4.039866034184      0.000000000000
      0.000000000000      0.000000000000     57.132333357129

 Supercell Lattice vectors (Bohr):
      4.664835484652      0.000000000000      0.000000000000
     -2.332417742326      4.039866034184      0.000000000000
      0.000000000000      0.000000000000     57.132333357129

 Surface area:      18.845310429500 (Bohr^2)
 Surface area:      18.845310429500 (Bohr^2)

 Volume of unit cell:    1076.676557676770 (Bohr^3)

 Number of atoms:    5
 Atoms: 
      0.000000000000      0.000000000000     -0.000000000000    1    1    1
      0.000000000000      2.693244022789     -3.808822223809    1    1    1
      0.000000000000     -2.693244022789     -7.617644447617    1    1    1
      0.000000000000      0.000000000000    -11.426466671426    1    1    1
      0.000000000000      2.693244022789    -15.235288895234    1    1    1

 Atomic coordinates in reduced coordinate 
      0.000000000000      0.000000000000      0.000000000000    1    1    1
      0.333333333333      0.666666666667     -0.066666666667    1    1    1
     -0.333333333333     -0.666666666667     -0.133333333333    1    1    1
      0.000000000000      0.000000000000     -0.200000000000    1    1    1
      0.333333333333      0.666666666667     -0.266666666667    1    1    1

 Atoms (center of the slab is set to the origin):
      0.000000000000      0.000000000000      7.617644447617    1    1    1
      0.000000000000      2.693244022789      3.808822223809    1    1    1
      0.000000000000     -2.693244022789      0.000000000000    1    1    1
      0.000000000000      0.000000000000     -3.808822223809    1    1    1
      0.000000000000      2.693244022789     -7.617644447617    1    1    1
