
 ******************************************************************
 *** This program generates an fcc (111) clean surface          ***
 ******************************************************************

 a_0=         6.56750325 (Bohr)
 a  =         4.64392608 (Bohr)

 Slab of  5 ML
 Vacuum region corresponds to 10 ML
 Slabs are separated by  41.71 Bohr
 Slabs are separated by  22.07 Angstrom

 Inter-layer distance =         3.79174977 (Bohr)
 Slab-slab distance   =        41.70924746 (Bohr)

 Lattice vectors (Bohr):
      4.643926082958      0.000000000000      0.000000000000
     -2.321963041479      4.021757961139      0.000000000000
      0.000000000000      0.000000000000     56.876246532250

 Supercell Lattice vectors (Bohr):
      4.643926082958      0.000000000000      0.000000000000
     -2.321963041479      4.021757961139      0.000000000000
      0.000000000000      0.000000000000     56.876246532250

 Surface area:      18.676746695080 (Bohr^2)
 Surface area:      18.676746695080 (Bohr^2)

 Volume of unit cell:    1062.263249449754 (Bohr^3)

 Number of atoms:    5
 Atoms: 
      0.000000000000      0.000000000000     -0.000000000000    1    1    1
      0.000000000000      2.681171974093     -3.791749768817    1    1    1
      0.000000000000     -2.681171974093     -7.583499537633    1    1    1
      0.000000000000      0.000000000000    -11.375249306450    1    1    1
      0.000000000000      2.681171974093    -15.166999075267    1    1    1

 Atomic coordinates in reduced coordinate 
      0.000000000000      0.000000000000      0.000000000000    1    1    1
      0.333333333333      0.666666666667     -0.066666666667    1    1    1
     -0.333333333333     -0.666666666667     -0.133333333333    1    1    1
      0.000000000000      0.000000000000     -0.200000000000    1    1    1
      0.333333333333      0.666666666667     -0.266666666667    1    1    1

 Atoms (center of the slab is set to the origin):
      0.000000000000      0.000000000000      7.583499537633    1    1    1
      0.000000000000      2.681171974093      3.791749768817    1    1    1
      0.000000000000     -2.681171974093      0.000000000000    1    1    1
      0.000000000000      0.000000000000     -3.791749768817    1    1    1
      0.000000000000      2.681171974093     -7.583499537633    1    1    1
