  5
Pd5  
Pd        0.00000000        0.00000000        3.87656729
Pd       -1.37057351       -1.37057351        1.93828365
Pd        0.00000000        0.00000000        0.00000000
Pd       -1.37057351       -1.37057351       -1.93828365
Pd        0.00000000        0.00000000       -3.87656729
