
 ******************************************************************
 *** This program generates an fcc (110) clean surface          ***
 ******************************************************************


 a_0=         7.32565327
 Inter layer distance :         3.66282664

 Slab of  3 ML
 Vacuum region corresponds to  6 ML
 Slabs are separated by  21.98 Bohr
 Slabs are separated by  11.63 Angstrom

 Primitive lattice vectors:
        5.18001910        0.00000000        0.00000000
        0.00000000        5.18001910        0.00000000
        0.00000000        0.00000000       32.96543972

 Supercell lattice vectors:
        5.18001910        0.00000000        0.00000000
        0.00000000        5.18001910        0.00000000
        0.00000000        0.00000000       32.96543972
 Number of atoms:    3
 Atoms: 
      0.000000000000      0.000000000000      0.000000000000
     -2.590009551919     -2.590009551919     -3.662826635000
      0.000000000000      0.000000000000     -7.325653270000

 Atoms (center of the slab is set to the origin):
      0.000000000000      0.000000000000      3.662826635000
     -2.590009551919     -2.590009551919      0.000000000000
      0.000000000000      0.000000000000     -3.662826635000
